<svg xmlns="http://www.w3.org/2000/svg" width="24" height="24" viewBox="0 0 24 24">
    <g fill="none" fill-rule="evenodd">
        <path fill="#000" d="M0 15h24v2H0zM4 7h20v2H4z"/>
        <path d="M0 0h24v24H0z"/>
    </g>
</svg>
