<svg width="34" height="25" viewBox="0 0 34 25" fill="none" xmlns="http://www.w3.org/2000/svg">
<path d="M33.7 0.435933C32.7667 4.3026 31.8333 8.5026 30.9 13.0359C29.9667 17.5026 29.2333 21.4693 28.7 24.9359H19.2L18.5 23.8359C19.4333 20.3026 20.7 16.4359 22.3 12.2359C23.9 7.96927 25.5333 4.03593 27.2 0.435933H33.7ZM15.2 0.435933C14.2667 4.3026 13.3333 8.5026 12.4 13.0359C11.4667 17.5026 10.7333 21.4693 10.2 24.9359H0.8L0.2 23.8359C1.13333 20.3026 2.36667 16.4359 3.9 12.2359C5.5 7.96927 7.13333 4.03593 8.8 0.435933H15.2Z" fill="#ffffff"/>
</svg>
