<svg width="182" height="164" viewBox="0 0 182 164" fill="none" xmlns="http://www.w3.org/2000/svg">
<path d="M157 49C157 54.9 154.3 60.2 150.1 63.6C149.4 61.7 147.9 60.2 145.9 59.6C145.9 59.6 143.8 58.9 142.4 58.4C141.6 58.1 141 57.4 141 56.5V54.4C143.9 53.2 146 50.3 146 47V41C146 38.2 142.4 36 138 36C133.6 36 130 38.2 130 41V47C130 50.4 132.1 53.2 135 54.4V56.5C135 57.4 134.5 58.1 133.6 58.4L130.1 59.6C128.1 60.2 126.6 61.7 125.9 63.6C121.7 60.1 119 54.8 119 49C119 38.5 127.5 30 138 30C148.5 30 157 38.5 157 49Z" fill="white"/>
<path d="M150.1 64.6C150 64.6 149.9 64.6 149.8 64.6C149.5 64.5 149.2 64.3 149.1 64C148.5 62.4 147.2 61.1 145.5 60.6L142 59.4C140.8 59 139.9 57.8 139.9 56.6V54.5C139.9 54.1 140.1 53.7 140.5 53.6C143.2 52.5 144.9 50 144.9 47.1V41.1C144.9 38.9 141.7 37.1 137.9 37.1C134.1 37.1 130.9 38.9 130.9 41.1V47.1C130.9 50 132.6 52.5 135.3 53.6C135.7 53.8 135.9 54.1 135.9 54.5V56.6C135.9 57.9 135.1 59 133.9 59.4L130.4 60.6C128.8 61.1 127.4 62.4 126.8 64C126.7 64.3 126.4 64.5 126.1 64.6C125.8 64.7 125.5 64.6 125.2 64.4C120.6 60.6 118 55 118 49C118 38 127 29 138 29C149 29 158 38 158 49C158 55 155.4 60.6 150.7 64.4C150.6 64.6 150.3 64.6 150.1 64.6ZM138 31C128.1 31 120 39.1 120 49C120 54 122 58.6 125.6 62C126.6 60.4 128 59.2 129.8 58.7L133.3 57.5C133.7 57.4 134 57 134 56.5V55C130.9 53.5 129 50.4 129 46.9V40.9C129 37.5 133 34.9 138 34.9C143 34.9 147 37.5 147 40.9V46.9C147 50.4 145.1 53.4 142 55V56.5C142 56.9 142.3 57.3 142.7 57.5L146.2 58.7C148 59.3 149.5 60.5 150.4 62C154 58.6 156 53.9 156 49C156 39.1 147.9 31 138 31Z" fill="#4A0506"/>
<path d="M96 55V64C96 70.1 92.3 75.4 87 77.8C85.2 78.6 83.1 79 81 79C78.9 79 76.8 78.5 75 77.8C69.7 75.5 66 70.2 66 64V61C66 57.7 68.7 55 72 55H96Z" fill="#EFC9AE"/>
<path d="M81 80C78.8 80 76.6 79.6 74.6 78.7C68.8 76.1 65 70.4 65 64V61C65 57.1 68.1 54 72 54H96C96.6 54 97 54.4 97 55V64C97 70.4 93.2 76.1 87.4 78.7C85.4 79.6 83.2 80 81 80ZM72 56C69.2 56 67 58.2 67 61V64C67 69.6 70.3 74.6 75.4 76.8C79 78.3 83 78.3 86.6 76.8C91.7 74.6 95 69.6 95 64V56H72Z" fill="#4A0506"/>
<path d="M87 77.8003V84.0003C83.7 86.7003 78.3 86.7003 75 84.0003V77.8003C76.8 78.6003 78.9 79.0003 81 79.0003C83.1 79.0003 85.2 78.5003 87 77.8003Z" fill="#EFC9AE"/>
<path d="M81 87.0002C78.6 87.0002 76.2 86.3002 74.4 84.8002C74.1 84.6002 74 84.3002 74 84.0002V77.8002C74 77.5002 74.2 77.1002 74.5 77.0002C74.8 76.9002 75.1 76.8002 75.4 76.9002C79 78.4002 83 78.4002 86.6 76.9002C86.9 76.8002 87.3 76.8002 87.5 77.0002C87.7 77.2002 88 77.5002 88 77.8002V84.0002C88 84.3002 87.9 84.6002 87.6 84.8002C85.8 86.3002 83.4 87.0002 81 87.0002ZM76 83.5002C78.9 85.5002 83.1 85.5002 86 83.5002V79.2002C82.8 80.3002 79.2 80.3002 76 79.2002V83.5002Z" fill="#4A0506"/>
<path d="M75.5 64C76.3284 64 77 63.3284 77 62.5C77 61.6716 76.3284 61 75.5 61C74.6716 61 74 61.6716 74 62.5C74 63.3284 74.6716 64 75.5 64Z" fill="#4A0506"/>
<path d="M86.5 64C87.3284 64 88 63.3284 88 62.5C88 61.6716 87.3284 61 86.5 61C85.6716 61 85 61.6716 85 62.5C85 63.3284 85.6716 64 86.5 64Z" fill="#4A0506"/>
<path d="M81 74C79.4 74 77.7 73.6 76.5 72.9C76 72.6 75.9 72 76.2 71.5C76.5 71 77.1 70.9 77.6 71.2C79.5 72.3 82.7 72.3 84.6 71.2C85.1 70.9 85.7 71.1 86 71.5C86.3 72 86.1 72.6 85.7 72.9C84.3 73.6 82.6 74 81 74Z" fill="#4A0506"/>
<path d="M102 49C102 52.3 99.3 55 96 55H72C68.7 55 66 57.7 66 61V53C66 49.7 68.7 47 72 47H92C93.1 47 94.1 46.5 94.8 45.8C95.5 45.1 96 44.1 96 43C99.3 43 102 45.7 102 49Z" fill="#C87629"/>
<path d="M66 62C65.4 62 65 61.6 65 61V53C65 49.1 68.1 46 72 46H92C92.8 46 93.6 45.7 94.1 45.1C94.7 44.5 95 43.8 95 43C95 42.4 95.4 42 96 42C99.9 42 103 45.1 103 49C103 52.9 99.9 56 96 56H72C69.2 56 67 58.2 67 61C67 61.6 66.6 62 66 62ZM72 48C69.2 48 67 50.2 67 53V56.1C68.3 54.8 70 54 72 54H96C98.8 54 101 51.8 101 49C101 46.5 99.2 44.5 96.9 44.1C96.7 45 96.2 45.9 95.6 46.6C94.6 47.6 93.4 48.1 92.1 48.1H72V48Z" fill="#4A0506"/>
<path d="M105 108H57L58.3 94.0999C58.7 89.7999 61.8 86.2999 66 85.2999L75 83.8999C78.3 86.5999 83.7 86.5999 87 83.8999L96 85.2999C100.2 86.2999 103.2 89.7999 103.7 94.0999L105 108Z" fill="#C61C31"/>
<path d="M105 109H57C56.7 109 56.4 108.9 56.3 108.7C56.1 108.5 56 108.2 56 107.9L57.3 93.9999C57.8 89.2999 61.1 85.3999 65.7 84.2999L74.8 82.8999C75.1 82.8999 75.4 82.8999 75.6 83.0999C78.6 85.4999 83.4 85.4999 86.3 83.0999C86.5 82.8999 86.8 82.8999 87.1 82.8999L96.1 84.2999C100.8 85.3999 104.2 89.2999 104.6 93.9999L105.9 107.9C105.9 108.2 105.8 108.5 105.6 108.7C105.6 108.9 105.3 109 105 109ZM58.1 107H103.9L102.7 94.1999C102.3 90.3999 99.6 87.1999 95.8 86.2999L87.3 84.9999C83.7 87.5999 78.3 87.5999 74.8 84.9999L66.2 86.2999C62.5 87.1999 59.8 90.2999 59.4 94.1999L58.1 107Z" fill="#4A0506"/>
<path d="M39 92C39 97.9 36.3 103.2 32.1 106.6C31.4 104.7 29.9 103.2 27.9 102.6C27.9 102.6 25.8 101.9 24.4 101.4C23.6 101.1 23 100.4 23 99.5V97.4C25.9 96.2 28 93.3 28 90V84C28 81.2 24.4 79 20 79C15.6 79 12 81.2 12 84V90C12 93.4 14.1 96.2 17 97.4V99.5C17 100.4 16.5 101.1 15.6 101.4L12.1 102.6C10.1 103.2 8.6 104.7 7.9 106.6C3.7 103.2 1 97.9 1 92C1 81.5 9.5 73 20 73C30.5 73 39 81.5 39 92Z" fill="white"/>
<path d="M32.1 107.6C32 107.6 31.9 107.6 31.8 107.6C31.5 107.5 31.2 107.3 31.1 107C30.5 105.4 29.2 104.1 27.5 103.6L24 102.4C22.8 102 21.9 100.8 21.9 99.6V97.5C21.9 97.1 22.1 96.7 22.5 96.6C25.2 95.5 26.9 93 26.9 90.1V84.1C26.9 81.9 23.7 80.1 19.9 80.1C16.1 80.1 12.9 81.9 12.9 84.1V90.1C12.9 93 14.6 95.5 17.3 96.6C17.7 96.8 17.9 97.1 17.9 97.5V99.6C17.9 100.9 17.1 102 15.9 102.4L12.4 103.6C10.8 104.1 9.4 105.4 8.8 107C8.7 107.3 8.4 107.5 8.1 107.6C7.8 107.7 7.5 107.6 7.2 107.4C2.6 103.6 0 98 0 92C0 81 9 72 20 72C31 72 40 81 40 92C40 98 37.4 103.6 32.7 107.4C32.6 107.6 32.3 107.6 32.1 107.6ZM24 98.1V99.6C24 100 24.3 100.4 24.7 100.6L28.2 101.8C30 102.4 31.5 103.6 32.4 105.1C36 101.6 38 97 38 92C38 82.1 29.9 74 20 74C10.1 74 2 82.1 2 92C2 97 4 101.6 7.6 105C8.6 103.4 10 102.2 11.8 101.7L15.3 100.5C15.7 100.4 16 100 16 99.5V98C12.9 96.5 11 93.4 11 89.9V83.9C11 80.5 15 77.9 20 77.9C25 77.9 29 80.5 29 83.9V89.9C29 93.5 27.1 96.5 24 98.1Z" fill="#4A0506"/>
<path d="M28 86V90C28 93.4 25.9 96.2 23 97.4C22.1 97.8 21.1 98 20 98C18.9 98 17.9 97.8 17 97.4C14.1 96.2 12 93.3 12 90V86C14.1 86 15.4 85.6 17 84C19.7 85.5 24.5 85.7 28 86Z" fill="white"/>
<path d="M20 99.0002C18.8 99.0002 17.7 98.8002 16.6 98.3002C13.2 97.0002 11 93.7002 11 90.0002V86.0002C11 85.4002 11.4 85.0002 12 85.0002C13.9 85.0002 14.9 84.6002 16.3 83.3002C16.6 83.0002 17.1 82.9002 17.5 83.2002C19.6 84.4002 23.4 84.7002 26.5 84.9002C27 84.9002 27.6 85.0002 28.1 85.0002C28.6 85.0002 29 85.5002 29 86.0002V90.0002C29 93.7002 26.8 97.0002 23.4 98.3002C22.3 98.8002 21.2 99.0002 20 99.0002ZM13 87.0002V90.0002C13 92.9002 14.7 95.4002 17.4 96.5002C19.1 97.2002 21 97.2002 22.7 96.5002C25.4 95.4002 27.1 92.9002 27.1 90.0002V86.9002C26.9 86.9002 26.7 86.9002 26.5 86.9002C23.4 86.7002 19.8 86.4002 17.3 85.2002C15.9 86.3002 14.7 86.8002 13 87.0002Z" fill="#4A0506"/>
<path d="M28 84V86C24.5 85.7 19.7 85.5 17 84C15.4 85.6 14.1 86 12 86V84C12 81.2 15.6 79 20 79C24.4 79 28 81.2 28 84Z" fill="#C87629"/>
<path d="M28 87C28 87 27.9 87 28 87C27.4 87 26.9 86.9 26.4 86.9C23.3 86.7 19.7 86.4 17.2 85.2C15.7 86.5 14.2 87 12 87C11.4 87 11 86.6 11 86V84C11 80.6 15 78 20 78C25 78 29 80.6 29 84V86C29 86.3 28.9 86.5 28.7 86.7C28.5 86.9 28.2 87 28 87ZM20 80C16.2 80 13 81.8 13 84V85C14.3 84.9 15.2 84.4 16.3 83.3C16.6 83 17.1 82.9 17.5 83.2C19.6 84.4 23.4 84.7 26.5 84.9C26.7 84.9 26.8 84.9 27 84.9V84C27 81.8 23.8 80 20 80Z" fill="#4A0506"/>
<path d="M32.1 106.6C31.5 107.1 30.8 107.6 30.1 108C29.9 108.1 29.8 108.2 29.6 108.3C29.4 108.4 29.2 108.5 29 108.6C28.8 108.7 28.6 108.8 28.4 108.9C27.7 109.3 26.9 109.6 26.2 109.9C26 110 25.8 110 25.6 110.1C25.3 110.2 24.9 110.3 24.6 110.4C24.3 110.5 24.1 110.5 23.8 110.6C23.8 110.6 23.8 110.6 23.7 110.6C23.5 110.6 23.2 110.7 23 110.7C22.9 110.7 22.8 110.7 22.6 110.8C22.4 110.8 22.3 110.8 22.1 110.9C21.9 110.9 21.7 110.9 21.5 110.9C21.2 110.9 21 110.9 20.7 111C20.4 111 20.1 111 19.8 111C19.5 111 19.2 111 18.9 111C18.6 111 18.4 111 18.1 110.9C17.9 110.9 17.7 110.9 17.5 110.9C17.3 110.9 17.2 110.9 17 110.8C16.9 110.8 16.8 110.8 16.6 110.7C16.4 110.7 16.1 110.6 15.9 110.6H15.8C15.5 110.6 15.3 110.5 15 110.4C14.7 110.3 14.3 110.2 14 110.1C13.8 110 13.6 110 13.4 109.9C12.6 109.6 11.9 109.3 11.2 108.9C11 108.8 10.8 108.7 10.6 108.6C10.4 108.5 10.2 108.4 10 108.3C9.8 108.2 9.6 108.1 9.5 108C8.8 107.6 8.2 107.1 7.5 106.6C8.2 104.7 9.7 103.2 11.7 102.6L15.2 101.4C16 101.1 16.6 100.4 16.6 99.4999V97.3999C17.5 97.7999 18.5 97.9999 19.6 97.9999C20.7 97.9999 21.7 97.7999 22.6 97.3999V99.4999C22.6 100.4 23.1 101.1 24 101.4C25.4 101.9 27.5 102.6 27.5 102.6C29.8 103.3 31.4 104.8 32.1 106.6Z" fill="#B3262E"/>
<path d="M20 112C19.7 112 19.4 112 19.1 112C18.8 112 18.5 112 18.2 111.9C18.1 111.9 17.8 111.9 17.6 111.9C17.4 111.9 17.2 111.9 17 111.8C16.9 111.8 16.8 111.8 16.6 111.7C16.4 111.7 16.1 111.6 15.9 111.6H15.8C15.5 111.5 15.3 111.5 15 111.4C14.6 111.3 14.3 111.2 13.9 111.1C13.7 111 13.5 111 13.3 110.9C12.5 110.6 11.7 110.3 10.9 109.9C10.7 109.8 10.5 109.7 10.3 109.6C10.2 109.5 9.99995 109.5 9.89995 109.4L9.59995 109.2C9.49995 109.1 9.29995 109 9.19995 108.9C8.49995 108.5 7.79995 107.9 7.09995 107.4C6.79995 107.1 6.69995 106.7 6.79995 106.3C7.69995 104.1 9.39995 102.4 11.6 101.7L15.1 100.5C15.5 100.4 15.8 99.9998 15.8 99.4998V97.3998C15.8 97.0998 16 96.7998 16.2 96.5998C16.5 96.3998 16.8 96.3998 17.1 96.4998C18.8 97.1998 20.7 97.1998 22.4 96.4998C22.7 96.3998 23.0999 96.3998 23.2999 96.5998C23.5999 96.7998 23.7 97.0998 23.7 97.3998V99.4998C23.7 99.8998 24 100.3 24.4 100.5L27.9 101.7C30.1 102.4 31.9 104.1 32.7 106.3C32.9 106.7 32.7 107.2 32.4 107.4C31.7 107.9 31 108.5 30.2999 108.9C30.1999 109 30 109.1 29.9 109.2L29.6 109.4C29.5 109.5 29.3 109.6 29.2 109.6C29 109.7 28.8 109.8 28.6 109.9C27.9 110.3 27.0999 110.6 26.2999 110.9C26.0999 111 25.9 111 25.7 111.1C25.4 111.2 25 111.3 24.6 111.4C24.3 111.5 24.0999 111.5 23.7999 111.6H23.7C23.5 111.7 23.2 111.7 23 111.7C22.7999 111.7 22.7 111.8 22.5 111.8C22.4 111.8 22.2 111.8 22.1 111.9C21.8 111.9 21.6 111.9 21.4 112C21.2 112 20.9 112 20.6 112.1C20.6 112 20.3 112 20 112ZM16.4 109.6C16.6 109.6 16.8 109.7 17 109.7H17.1C17.2 109.7 17.2 109.7 17.3 109.7C17.5 109.7 17.7 109.8 17.8 109.8C18 109.8 18.2 109.8 18.4 109.8C18.7 109.8 18.9 109.9 19.2 109.9C19.8 109.9 20.3 109.9 20.8 109.9C21.1 109.9 21.3 109.9 21.5 109.8C21.7 109.8 21.9 109.8 22.1 109.7C22.3 109.7 22.4 109.7 22.5 109.6C22.7 109.6 22.6999 109.6 22.7999 109.6H22.9C23.1 109.6 23.2999 109.5 23.5 109.5H23.6C23.8 109.5 24.0999 109.4 24.2999 109.3C24.5999 109.2 24.9 109.1 25.2 109C25.4 108.9 25.6 108.9 25.7 108.8C26.4 108.6 27.0999 108.3 27.7999 107.9C28 107.8 28.1999 107.7 28.4 107.6C28.6 107.5 28.6999 107.4 28.7999 107.4L29 107.3C29.1 107.2 29.2999 107.1 29.4 107.1C29.7999 106.8 30.3 106.5 30.7 106.2C30 104.9 28.7999 103.9 27.4 103.4L23.9 102.2C22.7 101.8 21.8 100.6 21.8 99.3998V98.5998C20.5 98.8998 19.1 98.8998 17.8 98.5998V99.3998C17.8 100.7 17 101.8 15.8 102.2L12.3 103.4C10.9 103.9 9.69995 104.9 8.99995 106.2C9.39995 106.5 9.79995 106.8 10.3 107.1C10.4 107.2 10.6 107.3 10.7 107.3L10.9 107.4C11 107.5 11.2 107.6 11.3 107.6C11.5 107.7 11.7 107.8 11.8 107.9C12.5 108.3 13.2 108.6 13.9 108.8C14.1 108.9 14.3 108.9 14.5 109C14.8 109.1 15.1 109.2 15.5 109.3C15.7 109.4 16 109.4 16.2 109.5C16.4 109.6 16.4 109.6 16.4 109.6Z" fill="#4A0506"/>
<path d="M150.2 52.2002H150.1C147.5 51.9002 145.3 49.7002 145 47.1002C144.9 46.6002 145.3 46.1002 145.9 46.0002C146.5 45.9002 146.9 46.3002 147 46.9002C147.2 48.5002 148.7 50.1002 150.4 50.3002C150.9 50.4002 151.3 50.9002 151.3 51.4002C151.2 51.9002 150.7 52.2002 150.2 52.2002Z" fill="#4A0506"/>
<path d="M150 55.2002C147 55.0002 144.4 53.2002 144 51.1002C143.9 50.6002 144.3 50.0002 144.8 49.9002C145.3 49.8002 145.9 50.2002 146 50.7002C146.2 51.7002 147.9 53.0002 150.1 53.1002C150.7 53.1002 151.1 53.6002 151 54.2002C151 54.8002 150.5 55.2002 150 55.2002Z" fill="#4A0506"/>
<path d="M125.8 52.1999C125.3 52.1999 124.9 51.7999 124.8 51.2999C124.7 50.7999 125.1 50.2999 125.7 50.1999C127.3 49.9999 128.9 48.4999 129.1 46.7999C129.2 46.2999 129.7 45.8999 130.2 45.8999C130.7 45.9999 131.1 46.4999 131.1 46.9999C130.8 49.5999 128.6 51.7999 126 52.0999C125.8 52.1999 125.8 52.1999 125.8 52.1999Z" fill="#4A0506"/>
<path d="M126 55.1998C125.5 55.1998 125 54.7998 125 54.2998C125 53.6998 125.4 53.2998 125.9 53.1998C128.1 52.9998 129.8 51.7998 130 50.7998C130.1 50.2998 130.6 49.8998 131.2 49.9998C131.7 50.0998 132.1 50.5998 132 51.1998C131.6 53.1998 129 54.9998 126 55.1998Z" fill="#4A0506"/>
<path d="M146 43V47C146 50.4 143.9 53.2 141 54.4C140.1 54.8 139.1 55 138 55C136.9 55 135.9 54.8 135 54.4C132.1 53.2 130 50.3 130 47V43C132.1 43 136.4 42.6 138 41C140.7 42.5 142.5 42.7 146 43Z" fill="white"/>
<path d="M138 56.0002C136.8 56.0002 135.7 55.8002 134.6 55.3002C131.2 53.9002 129 50.6002 129 47.0002V43.0002C129 42.4002 129.4 42.0002 130 42.0002C132.7 42.0002 136.1 41.4002 137.3 40.3002C137.6 40.0002 138.1 39.9002 138.5 40.2002C141 41.6002 142.6 41.8002 146 42.1002C146.5 42.1002 147 42.6002 147 43.1002V47.1002C147 50.8002 144.8 54.1002 141.4 55.4002C140.3 55.8002 139.2 56.0002 138 56.0002ZM131 44.0002V47.0002C131 49.9002 132.7 52.4002 135.4 53.5002C137.1 54.2002 139 54.2002 140.7 53.5002C143.4 52.4002 145.1 49.9002 145.1 47.0002V43.9002C142.3 43.6002 140.5 43.4002 138.2 42.2002C136.1 43.5002 132.7 43.9002 131 44.0002Z" fill="#4A0506"/>
<path d="M146 41V43C142.5 42.7 140.7 42.5 138 41C136.4 42.6 132.1 43 130 43V41C130 38.2 133.6 36 138 36C142.4 36 146 38.2 146 41Z" fill="#C87629"/>
<path d="M146 44C146 44 145.9 44 146 44C142.6 43.7 140.7 43.5 138.1 42.2C135.5 44 130.2 44 130 44C129.4 44 129 43.6 129 43V41C129 37.6 133 35 138 35C143 35 147 37.6 147 41V43C147 43.3 146.9 43.5 146.7 43.7C146.5 43.9 146.2 44 146 44ZM138 37C134.2 37 131 38.8 131 41V42C133.5 41.9 136.3 41.3 137.3 40.3C137.6 40 138.1 39.9 138.5 40.2C140.7 41.5 142.2 41.7 145 42V41C145 38.8 141.8 37 138 37Z" fill="#4A0506"/>
<path d="M150.1 63.5999C149.5 64.0999 148.8 64.5999 148.1 64.9999C147.9 65.0999 147.8 65.1999 147.6 65.2999C147.4 65.3999 147.2 65.4999 147 65.5999C146.8 65.6999 146.6 65.7999 146.4 65.8999C145.7 66.2999 144.9 66.5999 144.2 66.8999C144 66.9999 143.8 66.9999 143.6 67.0999C143.3 67.1999 142.9 67.2999 142.6 67.3999C142.3 67.4999 142.1 67.4999 141.8 67.5999C141.8 67.5999 141.8 67.5999 141.7 67.5999C141.5 67.5999 141.2 67.6999 141 67.6999C140.9 67.6999 140.8 67.6999 140.6 67.7999C140.4 67.7999 140.3 67.7999 140.1 67.8999C139.9 67.8999 139.7 67.8999 139.5 67.8999C139.2 67.8999 139 67.8999 138.7 67.9999C138.4 67.9999 138.1 67.9999 137.8 67.9999C137.5 67.9999 137.2 67.9999 136.9 67.9999C136.6 67.9999 136.4 67.9999 136.1 67.8999C135.9 67.8999 135.7 67.8999 135.5 67.8999C135.3 67.8999 135.2 67.8999 135 67.7999C134.9 67.7999 134.8 67.7999 134.6 67.6999C134.4 67.6999 134.1 67.5999 133.9 67.5999H133.8C133.5 67.5999 133.3 67.4999 133 67.3999C132.7 67.2999 132.3 67.1999 132 67.0999C131.8 66.9999 131.6 66.9999 131.4 66.8999C130.6 66.5999 129.9 66.2999 129.2 65.8999C129 65.7999 128.8 65.6999 128.6 65.5999C128.4 65.4999 128.2 65.3999 128 65.2999C127.8 65.1999 127.6 65.0999 127.5 64.9999C126.8 64.5999 126.2 64.0999 125.5 63.5999C126.2 61.6999 127.7 60.1999 129.7 59.5999L133.2 58.3999C134 58.0999 134.6 57.3999 134.6 56.4999V54.3999C135.5 54.7999 136.5 54.9999 137.6 54.9999C138.7 54.9999 139.7 54.7999 140.6 54.3999V56.4999C140.6 57.3999 141.1 58.0999 142 58.3999C143.4 58.8999 145.5 59.5999 145.5 59.5999C147.8 60.2999 149.4 61.7999 150.1 63.5999Z" fill="#B3262E"/>
<path d="M138 68.9999C137.7 68.9999 137.4 68.9999 137.1 68.9999C136.8 68.9999 136.5 68.9999 136.2 68.8999C136.1 68.8999 135.8 68.8999 135.6 68.8999C135.4 68.8999 135.2 68.8999 135 68.7999C134.9 68.7999 134.8 68.7999 134.6 68.6999C134.4 68.6999 134.1 68.5999 133.9 68.5999H133.8C133.5 68.4999 133.3 68.4999 133 68.3999C132.6 68.2999 132.2 68.1999 131.9 68.0999C131.7 67.9999 131.5 67.9999 131.3 67.8999C130.5 67.5999 129.7 67.2999 128.9 66.8999C128.7 66.7999 128.5 66.6999 128.3 66.5999C128.2 66.4999 128.1 66.4999 127.9 66.3999L127.5 66.1999C127.4 66.0999 127.2 65.9999 127.1 65.9999C126.4 65.5999 125.7 64.9999 125 64.4999C124.7 64.1999 124.6 63.7999 124.7 63.3999C125.6 61.1999 127.3 59.4999 129.5 58.7999L133 57.5999C133.4 57.4999 133.7 57.0999 133.7 56.5999V54.4999C133.7 54.1999 133.9 53.8999 134.1 53.6999C134.4 53.4999 134.7 53.4999 135 53.5999C136.7 54.2999 138.6 54.2999 140.3 53.5999C140.6 53.4999 141 53.4999 141.2 53.6999C141.5 53.8999 141.6 54.1999 141.6 54.4999V56.5999C141.6 56.9999 141.9 57.3999 142.3 57.5999L145.8 58.7999C148 59.4999 149.8 61.1999 150.6 63.3999C150.8 63.7999 150.6 64.2999 150.3 64.4999C149.6 65.0999 148.9 65.5999 148.2 65.9999C148.1 66.0999 148 66.0999 147.8 66.1999L147.4 66.3999C147.3 66.4999 147.1 66.5999 147 66.5999C146.8 66.6999 146.6 66.7999 146.4 66.8999C145.7 67.2999 144.9 67.5999 144.1 67.8999C143.9 67.9999 143.7 67.9999 143.5 68.0999C143.1 68.1999 142.8 68.2999 142.4 68.3999C142.1 68.4999 141.9 68.4999 141.6 68.5999H141.5C141.3 68.6999 141 68.6999 140.8 68.6999C140.6 68.6999 140.5 68.7999 140.3 68.7999C140.2 68.7999 140 68.7999 139.8 68.8999C139.6 68.8999 139.4 68.8999 139.2 68.9999C139 68.9999 138.7 68.9999 138.4 69.0999C138.6 68.9999 138.3 68.9999 138 68.9999ZM134.4 66.5999C134.6 66.5999 134.8 66.6999 135 66.6999H135.1C135.2 66.6999 135.2 66.6999 135.3 66.6999C135.5 66.6999 135.7 66.7999 135.8 66.7999C136 66.7999 136.1 66.7999 136.3 66.7999C136.6 66.7999 136.8 66.8999 137.1 66.8999C137.6 66.8999 138.2 66.8999 138.7 66.8999C138.9 66.8999 139.2 66.8999 139.4 66.7999C139.6 66.7999 139.8 66.7999 140 66.6999C140.1 66.6999 140.3 66.6999 140.4 66.5999C140.6 66.5999 140.6 66.5999 140.7 66.5999H140.8C141 66.5999 141.2 66.4999 141.4 66.4999H141.5C141.7 66.4999 142 66.3999 142.2 66.2999C142.5 66.1999 142.8 66.0999 143.1 65.9999C143.3 65.8999 143.5 65.8999 143.6 65.7999C144.3 65.5999 145.1 65.2999 145.7 64.8999C145.9 64.7999 146.1 64.6999 146.2 64.5999C146.4 64.4999 146.5 64.3999 146.6 64.3999L146.9 64.1999C147 64.0999 147.1 64.0999 147.2 63.9999C147.6 63.6999 148.1 63.3999 148.5 63.0999C147.8 61.7999 146.6 60.7999 145.2 60.2999L141.7 59.0999C140.5 58.6999 139.6 57.4999 139.6 56.2999V55.4999C138.3 55.7999 136.9 55.7999 135.6 55.4999V56.2999C135.6 57.5999 134.8 58.6999 133.6 59.0999L130.1 60.2999C128.7 60.7999 127.5 61.7999 126.8 63.0999C127.2 63.3999 127.6 63.6999 128.1 63.9999C128.2 64.0999 128.3 64.0999 128.4 64.1999L128.7 64.3999C128.8 64.4999 128.9 64.4999 129.1 64.5999C129.3 64.6999 129.5 64.7999 129.6 64.8999C130.3 65.2999 131 65.5999 131.7 65.7999C131.9 65.8999 132.1 65.8999 132.2 65.9999C132.5 66.0999 132.9 66.1999 133.2 66.2999C133.8 66.4999 134.1 66.5999 134.4 66.5999Z" fill="#4A0506"/>
<path d="M20.0001 93.9999C18.7001 93.9999 17.4001 93.5999 16.4001 92.7999C16.0001 92.4999 15.9001 91.7999 16.2001 91.3999C16.5001 90.9999 17.2001 90.8999 17.6001 91.1999C18.9001 92.1999 21.1001 92.1999 22.3001 91.1999C22.7001 90.8999 23.4001 90.8999 23.7001 91.3999C24.0001 91.7999 24.0001 92.4999 23.5001 92.7999C22.6001 93.5999 21.3001 93.9999 20.0001 93.9999Z" fill="#4A0506"/>
<path d="M181 109C181 114.9 178.3 120.2 174.1 123.6C173.4 121.7 171.9 120.2 169.9 119.6C169.9 119.6 167.8 118.9 166.4 118.4C165.6 118.1 165 117.4 165 116.5V114.4C167.9 113.2 170 110.3 170 107V101C170 98.2 166.4 96 162 96C157.6 96 154 98.2 154 101V107C154 110.4 156.1 113.2 159 114.4V116.5C159 117.4 158.5 118.1 157.6 118.4L154.1 119.6C152.1 120.2 150.6 121.7 149.9 123.6C145.7 120.1 143 114.8 143 109C143 98.5 151.5 90 162 90C172.5 90 181 98.5 181 109Z" fill="white"/>
<path d="M174.1 124.6C174 124.6 173.9 124.6 173.8 124.6C173.5 124.5 173.2 124.3 173.1 124C172.5 122.4 171.2 121.1 169.5 120.6L166 119.4C164.8 119 163.9 117.8 163.9 116.6V114.5C163.9 114.1 164.1 113.7 164.5 113.6C167.2 112.5 168.9 110 168.9 107.1V101.1C168.9 98.9 165.7 97.1 161.9 97.1C158.1 97.1 154.9 98.9 154.9 101.1V107.1C154.9 110 156.6 112.5 159.3 113.6C159.7 113.8 159.9 114.1 159.9 114.5V116.6C159.9 117.9 159.1 119 157.9 119.4L154.4 120.6C152.8 121.1 151.4 122.4 150.8 124C150.7 124.3 150.4 124.5 150.1 124.6C149.8 124.7 149.5 124.6 149.2 124.4C144.6 120.6 141.9 115 141.9 109C141.9 98 150.9 89 161.9 89C172.9 89 181.9 98 181.9 109C181.9 115 179.3 120.6 174.6 124.4C174.6 124.6 174.3 124.6 174.1 124.6ZM166 115.1V116.6C166 117 166.3 117.4 166.7 117.6L170.2 118.8C172 119.4 173.5 120.6 174.4 122.1C178 118.7 180 114 180 109.1C180 99.2 171.9 91.1 162 91.1C152.1 91.1 144 99.2 144 109.1C144 114.1 146 118.7 149.6 122.1C150.6 120.5 152 119.3 153.8 118.8L157.3 117.6C157.7 117.5 158 117.1 158 116.6V115.1C154.9 113.6 153 110.5 153 107V101C153 97.6 157 95 162 95C167 95 171 97.6 171 101V107C171 110.5 169.1 113.5 166 115.1Z" fill="#4A0506"/>
<path d="M170 103V107C170 110.4 167.9 113.2 165 114.4C164.1 114.8 163.1 115 162 115C160.9 115 159.9 114.8 159 114.4C156.1 113.2 154 110.3 154 107V103C156.1 103 157.4 102.6 159 101C161.7 102.5 166.5 102.7 170 103Z" fill="white"/>
<path d="M162 116C160.8 116 159.7 115.8 158.6 115.3C155.2 113.9 153 110.6 153 107V103C153 102.4 153.4 102 154 102C155.9 102 156.9 101.6 158.3 100.3C158.6 100 159.1 99.9002 159.5 100.2C161.6 101.4 165.4 101.7 168.5 101.9C169 101.9 169.6 102 170.1 102C170.6 102 171 102.5 171 103V107C171 110.7 168.8 114 165.4 115.3C164.3 115.8 163.2 116 162 116ZM155 104V107C155 109.9 156.7 112.4 159.4 113.5C161.1 114.2 163 114.2 164.7 113.5C167.4 112.4 169.1 109.9 169.1 107V103.9C168.9 103.9 168.7 103.9 168.5 103.9C165.4 103.7 161.8 103.4 159.3 102.2C157.9 103.3 156.7 103.8 155 104Z" fill="#4A0506"/>
<path d="M170 101V103C166.5 102.7 161.7 102.5 159 101C157.4 102.6 156.1 103 154 103V101C154 98.2 157.6 96 162 96C166.4 96 170 98.2 170 101Z" fill="#C87629"/>
<path d="M170 104C170 104 169.9 104 170 104C169.4 104 168.9 103.9 168.4 103.9C165.3 103.7 161.7 103.4 159.2 102.2C157.7 103.5 156.2 104 154 104C153.4 104 153 103.6 153 103V101C153 97.6 157 95 162 95C167 95 171 97.6 171 101V103C171 103.3 170.9 103.5 170.7 103.7C170.5 103.9 170.2 104 170 104ZM162 97C158.2 97 155 98.8 155 101V102C156.3 101.9 157.2 101.4 158.3 100.3C158.6 100 159.1 99.9 159.5 100.2C161.6 101.4 165.4 101.7 168.5 101.9C168.7 101.9 168.8 101.9 169 101.9V101C169 98.8 165.8 97 162 97Z" fill="#4A0506"/>
<path d="M174.1 123.6C173.5 124.1 172.8 124.6 172.1 125C171.9 125.1 171.8 125.2 171.6 125.3C171.4 125.4 171.2 125.5 171 125.6C170.8 125.7 170.6 125.8 170.4 125.9C169.7 126.3 168.9 126.6 168.2 126.9C168 127 167.8 127 167.6 127.1C167.3 127.2 166.9 127.3 166.6 127.4C166.3 127.5 166.1 127.5 165.8 127.6C165.8 127.6 165.8 127.6 165.7 127.6C165.5 127.6 165.2 127.7 165 127.7C164.9 127.7 164.8 127.7 164.6 127.8C164.4 127.8 164.3 127.8 164.1 127.9C163.9 127.9 163.7 127.9 163.5 127.9C163.2 127.9 163 127.9 162.7 128C162.4 128 162.1 128 161.8 128C161.5 128 161.2 128 160.9 128C160.6 128 160.4 128 160.1 127.9C159.9 127.9 159.7 127.9 159.5 127.9C159.3 127.9 159.2 127.9 159 127.8C158.9 127.8 158.8 127.8 158.6 127.7C158.4 127.7 158.1 127.6 157.9 127.6H157.8C157.5 127.6 157.3 127.5 157 127.4C156.7 127.3 156.3 127.2 156 127.1C155.8 127 155.6 127 155.4 126.9C154.6 126.6 153.9 126.3 153.2 125.9C153 125.8 152.8 125.7 152.6 125.6C152.4 125.5 152.2 125.4 152 125.3C151.8 125.2 151.6 125.1 151.5 125C150.8 124.6 150.2 124.1 149.5 123.6C150.2 121.7 151.7 120.2 153.7 119.6L157.2 118.4C158 118.1 158.6 117.4 158.6 116.5V114.4C159.5 114.8 160.5 115 161.6 115C162.7 115 163.7 114.8 164.6 114.4V116.5C164.6 117.4 165.1 118.1 166 118.4C167.4 118.9 169.5 119.6 169.5 119.6C171.8 120.3 173.4 121.8 174.1 123.6Z" fill="#B3262E"/>
<path d="M162 129C161.7 129 161.4 129 161.1 129C160.8 129 160.5 129 160.2 128.9C160.1 128.9 159.8 128.9 159.6 128.9C159.4 128.9 159.2 128.9 159 128.8C158.9 128.8 158.8 128.8 158.6 128.7C158.4 128.7 158.1 128.6 157.9 128.6H157.8C157.5 128.5 157.3 128.5 157 128.4C156.6 128.3 156.2 128.2 155.9 128.1C155.7 128 155.5 128 155.3 127.9C154.5 127.6 153.7 127.3 152.9 126.9C152.7 126.8 152.5 126.7 152.3 126.6C152.2 126.5 152 126.5 151.9 126.4L151.6 126.2C151.5 126.1 151.3 126 151.2 125.9C150.5 125.5 149.8 124.9 149.1 124.4C148.8 124.1 148.7 123.7 148.8 123.3C149.7 121.1 151.4 119.4 153.6 118.7L157.1 117.5C157.5 117.4 157.8 117 157.8 116.5V114.4C157.8 114.1 158 113.8 158.2 113.6C158.5 113.4 158.8 113.4 159.1 113.5C160.8 114.2 162.7 114.2 164.4 113.5C164.7 113.4 165.1 113.4 165.3 113.6C165.6 113.8 165.7 114.1 165.7 114.4V116.5C165.7 116.9 166 117.3 166.4 117.5L169.9 118.7C172.1 119.4 173.9 121.1 174.7 123.3C174.9 123.7 174.7 124.2 174.4 124.4C173.7 124.9 173 125.5 172.3 125.9C172.2 126 172 126.1 171.9 126.1L171.6 126.3C171.5 126.4 171.3 126.5 171.2 126.5C171 126.6 170.8 126.7 170.6 126.8C169.9 127.2 169.1 127.5 168.3 127.8C168.1 127.9 167.9 127.9 167.7 128C167.4 128.1 167 128.2 166.6 128.3C166.3 128.4 166.1 128.4 165.8 128.5H165.7C165.5 128.6 165.2 128.6 165 128.6C164.8 128.6 164.7 128.7 164.5 128.7C164.4 128.7 164.2 128.7 164.1 128.8C163.8 128.8 163.6 128.9 163.4 128.9C163.2 128.9 162.9 128.9 162.6 129C162.6 129 162.3 129 162 129ZM158.4 126.6C158.6 126.6 158.8 126.7 159 126.7H159.1C159.2 126.7 159.2 126.7 159.3 126.7C159.5 126.7 159.7 126.8 159.8 126.8C160 126.8 160.2 126.8 160.4 126.8C160.7 126.8 160.9 126.9 161.2 126.9C161.8 126.9 162.3 126.9 162.8 126.9C163.1 126.9 163.3 126.9 163.5 126.8C163.7 126.8 163.9 126.8 164.1 126.7C164.3 126.7 164.4 126.7 164.5 126.6C164.7 126.6 164.7 126.6 164.8 126.6H164.9C165.1 126.6 165.3 126.5 165.5 126.5H165.6C165.8 126.5 166.1 126.4 166.3 126.3C166.6 126.2 166.9 126.1 167.2 126C167.4 125.9 167.6 125.9 167.7 125.8C168.4 125.6 169.1 125.3 169.8 124.9C170 124.8 170.2 124.7 170.4 124.6C170.6 124.5 170.7 124.4 170.8 124.4L171.1 124.2C171.2 124.1 171.3 124.1 171.5 124C171.9 123.7 172.4 123.4 172.8 123.1C172.1 121.8 170.9 120.8 169.5 120.3L166 119.1C164.8 118.7 163.9 117.5 163.9 116.3V115.5C162.6 115.8 161.2 115.8 159.9 115.5V116.3C159.9 117.6 159.1 118.7 157.9 119.1L154.4 120.3C153 120.8 151.8 121.8 151.1 123.1C151.5 123.4 151.9 123.7 152.4 124C152.5 124.1 152.7 124.2 152.8 124.2L153.1 124.4C153.2 124.5 153.3 124.5 153.5 124.6C153.7 124.7 153.9 124.8 154 124.9C154.7 125.3 155.4 125.6 156.1 125.8C156.3 125.9 156.5 125.9 156.7 126C157 126.1 157.3 126.2 157.7 126.3C157.8 126.5 158.1 126.6 158.4 126.6Z" fill="#4A0506"/>
<path d="M162 111C160.7 111 159.4 110.6 158.4 109.8C158 109.5 157.9 108.8 158.2 108.4C158.5 108 159.2 107.9 159.6 108.2C160.9 109.2 163.1 109.2 164.3 108.2C164.7 107.9 165.4 107.9 165.7 108.4C166 108.8 166 109.5 165.5 109.8C164.6 110.6 163.3 111 162 111Z" fill="#4A0506"/>
<path d="M103 144C103 149.9 100.3 155.2 96.1 158.6C95.4 156.7 93.9 155.2 91.9 154.6C91.9 154.6 89.8 153.9 88.4 153.4C87.6 153.1 87 152.4 87 151.5V149.4C89.9 148.2 92 145.3 92 142V136C92 133.2 88.4 131 84 131C79.6 131 76 133.2 76 136V142C76 145.4 78.1 148.2 81 149.4V151.5C81 152.4 80.5 153.1 79.6 153.4L76.1 154.6C74.1 155.2 72.6 156.7 71.9 158.6C67.7 155.1 65 149.8 65 144C65 133.5 73.5 125 84 125C94.5 125 103 133.5 103 144Z" fill="white"/>
<path d="M96.1 159.6C96 159.6 95.9 159.6 95.8 159.6C95.5 159.5 95.2 159.3 95.1 159C94.5 157.4 93.2 156.1 91.5 155.6L88 154.4C86.8 154 85.9 152.8 85.9 151.6V149.5C85.9 149.1 86.1 148.7 86.5 148.6C89.2 147.5 90.9 145 90.9 142.1V136.1C90.9 133.9 87.7 132.1 83.9 132.1C80.1 132.1 76.9 133.9 76.9 136.1V142.1C76.9 145 78.6 147.5 81.3 148.6C81.7 148.8 81.9 149.1 81.9 149.5V151.6C81.9 152.9 81.1 154 79.9 154.4L76.4 155.6C74.8 156.1 73.4 157.4 72.8 159C72.7 159.3 72.4 159.5 72.1 159.6C71.8 159.7 71.5 159.6 71.2 159.4C66.6 155.6 64 150 64 144C64 133 73 124 84 124C95 124 104 133 104 144C104 150 101.4 155.6 96.7 159.4C96.6 159.6 96.3 159.6 96.1 159.6ZM84 126C74.1 126 66 134.1 66 144C66 149 68 153.6 71.6 157C72.6 155.4 74 154.2 75.8 153.7L79.3 152.5C79.7 152.4 80 152 80 151.5V150C76.9 148.5 75 145.4 75 141.9V135.9C75 132.5 79 129.9 84 129.9C89 129.9 93 132.5 93 135.9V141.9C93 145.4 91.1 148.4 88 150V151.5C88 151.9 88.3 152.3 88.7 152.5L92.2 153.7C94 154.3 95.5 155.5 96.4 157C100 153.6 102 148.9 102 144C102 134.1 93.9 126 84 126Z" fill="#4A0506"/>
<path d="M92 138V142C92 145.4 89.9 148.2 87 149.4C86.1 149.8 85.1 150 84 150C82.9 150 81.9 149.8 81 149.4C78.1 148.2 76 145.3 76 142V138C78.1 138 79.4 137.6 81 136C83.7 137.5 88.5 137.7 92 138Z" fill="white"/>
<path d="M84 151C82.8 151 81.7 150.8 80.6 150.3C77.2 148.9 75 145.6 75 142V138C75 137.4 75.4 137 76 137C77.9 137 78.9 136.6 80.3 135.3C80.6 135 81.1 134.9 81.5 135.2C83.6 136.4 87.4 136.7 90.5 136.9C91 136.9 91.6 137 92.1 137C92.6 137 93 137.5 93 138V142C93 145.7 90.8 149 87.4 150.3C86.3 150.8 85.2 151 84 151ZM77 139V142C77 144.9 78.7 147.4 81.4 148.5C83.1 149.2 85 149.2 86.7 148.5C89.4 147.4 91.1 144.9 91.1 142V138.9C90.9 138.9 90.7 138.9 90.5 138.9C87.4 138.7 83.8 138.4 81.3 137.2C79.9 138.3 78.7 138.8 77 139Z" fill="#4A0506"/>
<path d="M92 136V138C88.5 137.7 83.7 137.5 81 136C79.4 137.6 78.1 138 76 138V136C76 133.2 79.6 131 84 131C88.4 131 92 133.2 92 136Z" fill="#C87629"/>
<path d="M92 139C92 139 91.9 139 92 139C91.4 139 90.9 138.9 90.4 138.9C87.3 138.7 83.7 138.4 81.2 137.2C79.7 138.5 78.2 139 76 139C75.4 139 75 138.6 75 138V136C75 132.6 79 130 84 130C89 130 93 132.6 93 136V138C93 138.3 92.9 138.5 92.7 138.7C92.5 138.9 92.2 139 92 139ZM84 132C80.2 132 77 133.8 77 136V137C78.3 136.9 79.2 136.4 80.3 135.3C80.6 135 81.1 134.9 81.5 135.2C83.6 136.4 87.4 136.7 90.5 136.9C90.7 136.9 90.8 136.9 91 136.9V136C91 133.8 87.8 132 84 132Z" fill="#4A0506"/>
<path d="M96.1 158.6C95.5 159.1 94.8 159.6 94.1 160C93.9 160.1 93.8 160.2 93.6 160.3C93.4 160.4 93.2 160.5 93 160.6C92.8 160.7 92.6 160.8 92.4 160.9C91.7 161.3 90.9 161.6 90.2 161.9C90 162 89.8 162 89.6 162.1C89.3 162.2 88.9 162.3 88.6 162.4C88.3 162.5 88.1 162.5 87.8 162.6C87.8 162.6 87.8 162.6 87.7 162.6C87.5 162.6 87.2 162.7 87 162.7C86.9 162.7 86.8 162.7 86.6 162.8C86.4 162.8 86.3 162.8 86.1 162.9C85.9 162.9 85.7 162.9 85.5 162.9C85.2 162.9 85 162.9 84.7 163C84.4 163 84.1 163 83.8 163C83.5 163 83.2 163 82.9 163C82.6 163 82.4 163 82.1 162.9C81.9 162.9 81.7 162.9 81.5 162.9C81.3 162.9 81.2 162.9 81 162.8C80.9 162.8 80.8 162.8 80.6 162.7C80.4 162.7 80.1 162.6 79.9 162.6H79.8C79.5 162.6 79.3 162.5 79 162.4C78.7 162.3 78.3 162.2 78 162.1C77.8 162 77.6 162 77.4 161.9C76.6 161.6 75.9 161.3 75.2 160.9C75 160.8 74.8 160.7 74.6 160.6C74.4 160.5 74.2 160.4 74 160.3C73.8 160.2 73.6 160.1 73.5 160C72.8 159.6 72.2 159.1 71.5 158.6C72.2 156.7 73.7 155.2 75.7 154.6L79.2 153.4C80 153.1 80.6 152.4 80.6 151.5V149.4C81.5 149.8 82.5 150 83.6 150C84.7 150 85.7 149.8 86.6 149.4V151.5C86.6 152.4 87.1 153.1 88 153.4C89.4 153.9 91.5 154.6 91.5 154.6C93.8 155.3 95.4 156.8 96.1 158.6Z" fill="#B3262E"/>
<path d="M83.9999 164C83.6999 164 83.3999 164 83.0999 164C82.7999 164 82.4999 164 82.1999 163.9C82.0999 163.9 81.7999 163.9 81.5999 163.9C81.3999 163.9 81.1999 163.9 80.9999 163.8C80.8999 163.8 80.7999 163.8 80.5999 163.7C80.3999 163.7 80.0999 163.6 79.9 163.6H79.8C79.5 163.5 79.2999 163.5 78.9999 163.4C78.5999 163.3 78.3 163.2 77.9 163.1C77.7 163 77.5 163 77.3 162.9C76.5 162.6 75.7 162.3 74.9 161.9C74.7 161.8 74.5 161.7 74.3 161.6C74.2 161.5 74 161.5 73.9 161.4L73.5999 161.2C73.4999 161.1 73.2999 161 73.1999 160.9C72.4999 160.5 71.7999 159.9 71.0999 159.4C70.7999 159.1 70.7 158.7 70.8 158.3C71.7 156.1 73.3999 154.4 75.5999 153.7L79.0999 152.5C79.4999 152.4 79.8 152 79.8 151.5V149.4C79.8 149.1 79.9999 148.8 80.1999 148.6C80.4999 148.4 80.7999 148.4 81.0999 148.5C82.7999 149.2 84.7 149.2 86.4 148.5C86.7 148.4 87.1 148.4 87.3 148.6C87.6 148.8 87.6999 149.1 87.6999 149.4V151.5C87.6999 151.9 88 152.3 88.4 152.5L91.9 153.7C94.1 154.4 95.8999 156.1 96.6999 158.3C96.8999 158.7 96.6999 159.2 96.4 159.4C95.6999 159.9 95 160.5 94.3 160.9C94.2 161 94 161.1 93.9 161.1L93.5999 161.3C93.4999 161.4 93.2999 161.5 93.1999 161.5C92.9999 161.6 92.7999 161.7 92.5999 161.8C91.8999 162.2 91.1 162.5 90.3 162.8C90.1 162.9 89.8999 162.9 89.6999 163C89.3999 163.1 88.9999 163.2 88.5999 163.3C88.2999 163.4 88.1 163.4 87.8 163.5H87.6999C87.4999 163.6 87.1999 163.6 86.9999 163.6C86.7999 163.6 86.6999 163.7 86.4999 163.7C86.3999 163.7 86.1999 163.7 86.0999 163.8C85.7999 163.8 85.5999 163.8 85.4 163.9C85.2 163.9 84.8999 163.9 84.5999 164C84.5999 164 84.2999 164 83.9999 164ZM80.4 161.6C80.5999 161.6 80.7999 161.7 80.9999 161.7H81.0999C81.1999 161.7 81.2 161.7 81.3 161.7C81.5 161.7 81.7 161.8 81.8 161.8C82 161.8 82.2 161.8 82.4 161.8C82.7 161.8 82.8999 161.9 83.1999 161.9C83.7999 161.9 84.3 161.9 84.8 161.9C85.1 161.9 85.2999 161.9 85.4999 161.8C85.6999 161.8 85.8999 161.8 86.0999 161.7C86.2999 161.7 86.3999 161.7 86.4999 161.6C86.6999 161.6 86.7 161.6 86.8 161.6H86.9C87.1 161.6 87.2999 161.5 87.4999 161.5H87.5999C87.7999 161.5 88.1 161.4 88.3 161.3C88.6 161.2 88.8999 161.1 89.1999 161C89.3999 160.9 89.5999 160.9 89.6999 160.8C90.3999 160.6 91.1 160.3 91.8 159.9C92 159.8 92.1999 159.7 92.4 159.6C92.6 159.5 92.7 159.4 92.8 159.4L93.0999 159.2C93.1999 159.1 93.2999 159.1 93.4999 159C93.8999 158.7 94.4 158.4 94.8 158.1C94.1 156.8 92.8999 155.8 91.4999 155.3L87.9999 154.1C86.7999 153.7 85.9 152.5 85.9 151.3V150.5C84.5999 150.8 83.2 150.8 81.9 150.5V151.3C81.9 152.6 81.0999 153.7 79.9 154.1L76.4 155.3C75 155.8 73.7999 156.8 73.0999 158.1C73.4999 158.4 73.9 158.7 74.4 159C74.5 159.1 74.7 159.2 74.8 159.2L74.9999 159.3C75.0999 159.4 75.3 159.5 75.4 159.5C75.6 159.6 75.8 159.7 75.9 159.8C76.6 160.2 77.2999 160.5 77.9999 160.7C78.1999 160.8 78.3999 160.8 78.5999 160.9C78.8999 161 79.1999 161.1 79.5999 161.2C79.7999 161.3 80.1 161.3 80.3 161.4C80.4 161.6 80.4 161.6 80.4 161.6Z" fill="#4A0506"/>
<path d="M83.9999 146C82.6999 146 81.3999 145.6 80.3999 144.8C79.9999 144.5 79.8999 143.8 80.1999 143.4C80.4999 143 81.1999 142.9 81.5999 143.2C82.8999 144.2 85.1 144.2 86.3 143.2C86.7 142.9 87.3999 142.9 87.6999 143.4C87.9999 143.8 87.9999 144.5 87.4999 144.8C86.5999 145.6 85.2999 146 83.9999 146Z" fill="#4A0506"/>
<path d="M138 50.9999C136.7 50.9999 135.4 50.5999 134.4 49.7999C134 49.4999 133.9 48.7999 134.2 48.3999C134.5 47.9999 135.2 47.8999 135.6 48.1999C136.9 49.1999 139.1 49.1999 140.3 48.1999C140.7 47.8999 141.4 47.8999 141.7 48.3999C142 48.7999 142 49.4999 141.5 49.7999C140.6 50.5999 139.3 50.9999 138 50.9999Z" fill="#4A0506"/>
<path d="M62 20C62 25.9 59.3 31.2 55.1 34.6C54.4 32.7 52.9 31.2 50.9 30.6C50.9 30.6 48.8 29.9 47.4 29.4C46.6 29.1 46 28.4 46 27.5V25.4C48.9 24.2 51 21.3 51 18V12C51 9.2 47.4 7 43 7C38.6 7 35 9.2 35 12V18C35 21.4 37.1 24.2 40 25.4V27.5C40 28.4 39.5 29.1 38.6 29.4L35.1 30.6C33.1 31.2 31.6 32.7 30.9 34.6C26.7 31.2 24 25.9 24 20C24 9.5 32.5 1 43 1C53.5 1 62 9.5 62 20Z" fill="white"/>
<path d="M55.1 35.6C55 35.6 54.9 35.6 54.8 35.6C54.5 35.5 54.2 35.3 54.1 35C53.5 33.4 52.2 32.1 50.5 31.6L47 30.4C45.8 30 45 28.8 45 27.6V25.5C45 25.1 45.2 24.7 45.6 24.6C48.3 23.5 50 21 50 18.1V12.1C50 9.9 46.8 8.1 43 8.1C39.2 8.1 36 9.9 36 12.1V18.1C36 21 37.7 23.5 40.4 24.6C40.8 24.8 41 25.1 41 25.5V27.6C41 28.9 40.2 30 39 30.4L35.5 31.6C33.9 32.1 32.5 33.4 31.9 35C31.8 35.3 31.5 35.5 31.2 35.6C30.9 35.7 30.6 35.6 30.3 35.4C25.6 31.6 23 26 23 20C23 9 32 0 43 0C54 0 63 9 63 20C63 26 60.4 31.6 55.7 35.4C55.6 35.6 55.3 35.6 55.1 35.6ZM43 2C33.1 2 25 10.1 25 20C25 25 27 29.6 30.6 33C31.6 31.4 33 30.2 34.8 29.7L38.3 28.5C38.7 28.4 39 28 39 27.5V26C35.9 24.5 34 21.4 34 17.9V11.9C34 8.5 38 5.9 43 5.9C48 5.9 52 8.5 52 11.9V17.9C52 21.4 50.1 24.4 47 26V27.5C47 27.9 47.3 28.3 47.7 28.5L51.2 29.7C53 30.3 54.5 31.5 55.4 33C59 29.6 61 25 61 20C61 10.1 52.9 2 43 2Z" fill="#4A0506"/>
<path d="M55.2001 23.2002H55.1001C52.5001 22.9002 50.3001 20.7002 50.0001 18.1002C49.9001 17.6002 50.3001 17.1002 50.9001 17.0002C51.4001 16.9002 51.9001 17.3002 52.0001 17.9002C52.2001 19.5002 53.7001 21.1002 55.4001 21.3002C55.9001 21.4002 56.3001 21.9002 56.3001 22.4002C56.2001 22.9002 55.7001 23.2002 55.2001 23.2002Z" fill="#4A0506"/>
<path d="M55 26.2002C52 26.0002 49.4 24.2002 49 22.1002C48.9 21.6002 49.3 21.0002 49.8 20.9002C50.3 20.8002 50.9 21.2002 51 21.7002C51.2 22.7002 52.9 24.0002 55.1 24.1002C55.7 24.1002 56.1 24.6002 56 25.2002C56 25.8002 55.5 26.2002 55 26.2002Z" fill="#4A0506"/>
<path d="M30.8 23.1999C30.3 23.1999 29.9 22.7999 29.8 22.2999C29.7 21.7999 30.1 21.2999 30.7 21.1999C32.3 20.9999 33.9 19.4999 34.1 17.7999C34.2 17.2999 34.7 16.8999 35.2 16.8999C35.7 16.9999 36.1 17.4999 36.1 17.9999C35.8 20.5999 33.6 22.7999 31 23.0999C30.8 23.1999 30.8 23.1999 30.8 23.1999Z" fill="#4A0506"/>
<path d="M31 26.1998C30.5 26.1998 30 25.7998 30 25.2998C30 24.6998 30.4 24.2998 30.9 24.1998C33.1 23.9998 34.8 22.7998 35 21.7998C35.1 21.2998 35.6 20.8998 36.2 20.9998C36.7 21.0998 37.1 21.5998 37 22.1998C36.6 24.1998 34 25.9998 31 26.1998Z" fill="#4A0506"/>
<path d="M51 14V18C51 21.4 48.9 24.2 46 25.4C45.1 25.8 44.1 26 43 26C41.9 26 40.9 25.8 40 25.4C37.1 24.2 35 21.3 35 18V14C37.1 14 41.4 13.6 43 12C45.7 13.5 47.5 13.7 51 14Z" fill="white"/>
<path d="M43 27.0002C41.8 27.0002 40.7 26.8002 39.6 26.3002C36.2 25.0002 34 21.7002 34 18.0002V14.0002C34 13.4002 34.4 13.0002 35 13.0002C37.7 13.0002 41.1 12.4002 42.3 11.3002C42.6 11.0002 43.1 10.9002 43.5 11.2002C46 12.6002 47.6 12.8002 51 13.1002C51.5 13.1002 52 13.6002 52 14.1002V18.1002C52 21.8002 49.8 25.1002 46.4 26.4002C45.3 26.8002 44.2 27.0002 43 27.0002ZM36 15.0002V18.0002C36 20.9002 37.7 23.4002 40.4 24.5002C42.1 25.2002 44 25.2002 45.7 24.5002C48.4 23.4002 50.1 20.9002 50.1 18.0002V14.9002C47.3 14.6002 45.5 14.4002 43.2 13.2002C41.1 14.5002 37.7 14.9002 36 15.0002Z" fill="#4A0506"/>
<path d="M51 12V14C47.5 13.7 45.7 13.5 43 12C41.4 13.6 37.1 14 35 14V12C35 9.2 38.6 7 43 7C47.4 7 51 9.2 51 12Z" fill="#C87629"/>
<path d="M51 15C51 15 50.9 15 51 15C47.6 14.7 45.7 14.5 43.1 13.2C40.5 15 35.2 15 35 15C34.4 15 34 14.6 34 14V12C34 8.6 38 6 43 6C48 6 52 8.6 52 12V14C52 14.3 51.9 14.5 51.7 14.7C51.5 14.9 51.2 15 51 15ZM43 8C39.2 8 36 9.8 36 12V13C38.5 12.9 41.3 12.3 42.3 11.3C42.6 11 43.1 10.9 43.5 11.2C45.7 12.5 47.2 12.7 50 13V12C50 9.8 46.8 8 43 8Z" fill="#4A0506"/>
<path d="M55.1 34.6C54.5 35.1 53.8 35.6 53.1 36C52.9 36.1 52.8 36.2 52.6 36.3C52.4 36.4 52.2 36.5 52 36.6C51.8 36.7 51.6 36.8 51.4 36.9C50.7 37.3 49.9 37.6 49.2 37.9C49 38 48.8 38 48.6 38.1C48.3 38.2 47.9 38.3 47.6 38.4C47.3 38.5 47.1 38.5 46.8 38.6C46.8 38.6 46.8 38.6 46.7 38.6C46.5 38.6 46.2 38.7 46 38.7C45.9 38.7 45.8 38.7 45.6 38.8C45.4 38.8 45.3 38.8 45.1 38.9C44.9 38.9 44.7 38.9 44.5 38.9C44.2 38.9 44 38.9 43.7 39C43.4 39 43.1 39 42.8 39C42.5 39 42.2 39 41.9 39C41.6 39 41.4 39 41.1 38.9C40.9 38.9 40.7 38.9 40.5 38.9C40.3 38.9 40.2 38.9 40 38.8C39.9 38.8 39.8 38.8 39.6 38.7C39.4 38.7 39.1 38.6 38.9 38.6H38.8C38.5 38.6 38.3 38.5 38 38.4C37.7 38.3 37.3 38.2 37 38.1C37.2 38.1 37 38 36.8 38C36 37.7 35.3 37.4 34.6 37C34.4 36.9 34.2 36.8 34 36.7C33.8 36.6 33.6 36.5 33.4 36.4C33.2 36.3 33 36.2 32.9 36.1C32.2 35.7 31.6 35.2 30.9 34.7C31.6 32.8 33.1 31.3 35.1 30.7L38.6 29.5C39.4 29.2 40 28.5 40 27.6V25.5C40.9 25.9 41.9 26.1 43 26.1C44.1 26.1 45.1 25.9 46 25.5V27.6C46 28.5 46.5 29.2 47.4 29.5C48.8 30 50.9 30.7 50.9 30.7C52.8 31.3 54.4 32.8 55.1 34.6Z" fill="#B3262E"/>
<path d="M43 39.9999C42.7 39.9999 42.4 39.9999 42.0999 39.9999C41.7999 39.9999 41.5 39.9999 41.2 39.8999C41.1 39.8999 40.7999 39.8999 40.5999 39.8999C40.4 39.8999 40.2 39.8999 40 39.7999C39.9 39.7999 39.7999 39.7999 39.5999 39.6999C39.4 39.6999 39.1 39.5999 38.9 39.5999H38.8C38.5 39.4999 38.3 39.4999 38 39.3999C37.6 39.2999 37.2 39.1999 36.9 39.0999C36.7 38.9999 36.5 38.9999 36.3 38.8999C35.5 38.5999 34.7 38.2999 33.9 37.8999C33.7 37.7999 33.5 37.6999 33.3 37.5999C33.2 37.4999 33 37.4999 32.9 37.3999L32.6 37.1999C32.5 37.0999 32.3 36.9999 32.2 36.9999C31.5 36.5999 30.8 36.0999 30.1 35.4999C29.8 35.1999 29.7 34.7999 29.8 34.3999C30.7 32.1999 32.4 30.4999 34.6 29.7999L38.0999 28.5999C38.4999 28.4999 38.8 28.0999 38.8 27.5999V25.4999C38.8 25.1999 39 24.8999 39.2 24.6999C39.5 24.4999 39.7999 24.4999 40.0999 24.5999C41.7999 25.2999 43.7 25.2999 45.4 24.5999C45.7 24.4999 46.1 24.4999 46.3 24.6999C46.6 24.8999 46.7 25.1999 46.7 25.4999V27.5999C46.7 27.9999 47 28.3999 47.4 28.5999L50.9 29.7999C53.1 30.4999 54.9 32.1999 55.7 34.3999C55.9 34.7999 55.7 35.2999 55.4 35.4999C54.7 36.0999 54 36.5999 53.3 36.9999C53.2 37.0999 53.1 37.1999 52.9 37.1999L52.6 37.3999C52.5 37.4999 52.3 37.5999 52.2 37.5999C52 37.6999 51.8 37.7999 51.6 37.8999C50.9 38.2999 50.1 38.5999 49.3 38.8999C49.4 38.9999 49.2 38.9999 49 39.0999C48.7 39.1999 48.3 39.2999 47.9 39.3999C47.6 39.4999 47.3 39.4999 47.1 39.5999H47C46.8 39.6999 46.5 39.6999 46.3 39.6999C46.1 39.6999 46 39.7999 45.8 39.7999C45.7 39.7999 45.5 39.7999 45.3 39.8999C45.1 39.8999 44.9 39.8999 44.7 39.9999C44.5 39.9999 44.2 39.9999 43.9 40.0999C43.6 39.9999 43.3 39.9999 43 39.9999ZM39.4 37.5999C39.6 37.5999 39.8 37.6999 40 37.6999H40.0999C40.2 37.6999 40.2 37.6999 40.3 37.6999C40.5 37.6999 40.7 37.7999 40.8 37.7999C41 37.7999 41.1 37.7999 41.3 37.7999C41.6 37.7999 41.7999 37.8999 42.0999 37.8999C42.5999 37.8999 43.2 37.8999 43.7 37.8999C43.9 37.8999 44.2 37.8999 44.4 37.7999C44.6 37.7999 44.8 37.7999 45 37.6999C45.1 37.6999 45.3 37.6999 45.4 37.5999C45.6 37.5999 45.6 37.5999 45.7 37.5999H45.8C46 37.5999 46.2 37.4999 46.4 37.4999H46.5C46.7 37.4999 47 37.3999 47.2 37.2999C47.5 37.1999 47.8 37.0999 48.1 36.9999C48.3 36.8999 48.5 36.8999 48.6 36.7999C49.3 36.5999 50.1 36.2999 50.7 35.8999C50.9 35.7999 51.1 35.6999 51.3 35.5999C51.5 35.4999 51.6 35.3999 51.7 35.3999L52 35.1999C52.1 35.0999 52.2 35.0999 52.3 34.9999C52.7 34.6999 53.2 34.3999 53.6 34.0999C53.2 32.9999 52 31.9999 50.6 31.5999L47.1 30.3999C45.8 29.9999 45 28.7999 45 27.5999V26.7999C43.7 27.0999 42.3 27.0999 41 26.7999V27.5999C41 28.8999 40.2 29.9999 39 30.3999L35.5 31.5999C34 31.9999 32.8 32.9999 32.1 34.2999C32.5 34.5999 32.9 34.8999 33.4 35.1999C33.5 35.2999 33.6 35.2999 33.8 35.3999L34.1 35.5999C34.2 35.6999 34.4 35.6999 34.5 35.7999C34.7 35.8999 34.9 35.9999 35 36.0999C35.7 36.4999 36.4 36.7999 37.1 36.9999C37.3 37.0999 37.5 37.0999 37.6 37.1999C37.9 37.2999 38.2 37.3999 38.5999 37.4999C38.7999 37.4999 39.1 37.5999 39.4 37.5999Z" fill="#4A0506"/>
<path d="M43.0001 21.9999C41.7001 21.9999 40.4001 21.5999 39.4001 20.7999C39.0001 20.4999 38.9001 19.7999 39.2001 19.3999C39.5001 18.9999 40.2001 18.8999 40.6001 19.1999C41.9001 20.1999 44.1001 20.1999 45.3001 19.1999C45.7001 18.8999 46.4001 18.8999 46.7001 19.3999C47.0001 19.7999 47.0001 20.4999 46.5001 20.7999C45.6001 21.5999 44.3001 21.9999 43.0001 21.9999Z" fill="#4A0506"/>
<path d="M56 145C55.7 145 55.5 144.9 55.3 144.7C55.1 144.5 55 144.3 55 144C55 143.7 55.1 143.5 55.3 143.3C55.6 143 56 142.9 56.4 143.1C56.5 143.1 56.6 143.2 56.7 143.3C56.9 143.5 57 143.8 57 144C57 144.3 56.9 144.5 56.7 144.7C56.5 144.9 56.3 145 56 145Z" fill="white"/>
<path d="M52 144.7C51.5 144.6 51.1 144.1 51.2 143.6C51.3 143.1 51.8 142.7 52.3 142.8C52.8 142.9 53.2 143.4 53.1 143.9C53 144.4 52.6 144.8 52.1 144.8C52.1 144.7 52.1 144.7 52 144.7ZM48.1 143.9C47.6 143.7 47.3 143.2 47.4 142.7C47.6 142.2 48.1 141.9 48.6 142C49.1 142.2 49.4 142.7 49.3 143.2C49.2 143.6 48.8 143.9 48.3 143.9C48.3 143.9 48.2 143.9 48.1 143.9ZM44.4 142.5C43.9 142.3 43.7 141.7 43.9 141.2C44.1 140.7 44.7 140.5 45.2 140.7C45.7 140.9 45.9 141.5 45.7 142C45.5 142.4 45.2 142.6 44.8 142.6C44.6 142.6 44.5 142.5 44.4 142.5ZM40.9 140.6C40.4 140.3 40.3 139.7 40.6 139.2C40.9 138.7 41.5 138.6 42 138.9C42.5 139.2 42.6 139.8 42.3 140.3C42.1 140.6 41.8 140.8 41.5 140.8C41.2 140.7 41 140.7 40.9 140.6ZM37.7 138.2C37.3 137.8 37.2 137.2 37.6 136.8C38 136.4 38.6 136.3 39 136.7C39.4 137.1 39.5 137.7 39.1 138.1C38.9 138.3 38.6 138.5 38.3 138.5C38.1 138.4 37.9 138.3 37.7 138.2ZM34.8 135.3C34.4 134.9 34.5 134.3 34.9 133.9C35.3 133.5 35.9 133.6 36.3 134C36.7 134.4 36.6 135 36.2 135.4C36 135.6 35.8 135.6 35.5 135.6C35.3 135.7 35 135.6 34.8 135.3ZM32.4 132.1C32.1 131.6 32.2 131 32.7 130.7C33.2 130.4 33.8 130.5 34.1 131C34.4 131.5 34.3 132.1 33.8 132.4C33.6 132.5 33.5 132.6 33.3 132.6C33 132.6 32.6 132.4 32.4 132.1ZM30.5 128.6C30.3 128.1 30.5 127.5 31 127.3C31.5 127.1 32.1 127.3 32.3 127.8C32.5 128.3 32.3 128.9 31.8 129.1C31.7 129.2 31.5 129.2 31.4 129.2C31.1 129.2 30.7 129 30.5 128.6ZM29.1 124.9C29 124.4 29.2 123.8 29.8 123.7C30.3 123.5 30.9 123.8 31 124.4C31.2 124.9 30.9 125.5 30.3 125.6C30.2 125.6 30.1 125.6 30 125.6C29.7 125.6 29.3 125.3 29.1 124.9ZM28.3 121C28.2 120.5 28.6 120 29.1 119.9C29.6 119.8 30.2 120.2 30.2 120.7C30.3 121.2 29.9 121.7 29.3 121.8C29.2 121.8 29.2 121.8 29.2 121.8C28.8 121.9 28.3 121.5 28.3 121Z" fill="white"/>
<path d="M29 118C28.9 118 28.7 118 28.6 117.9C28.5 117.9 28.4 117.8 28.3 117.7C28.1 117.5 28 117.3 28 117C28 116.9 28 116.7 28.1 116.6C28.2 116.5 28.2 116.4 28.3 116.3C28.7 115.9 29.3 115.9 29.7 116.3C29.8 116.4 29.9 116.5 29.9 116.6C29.9 116.7 30 116.8 30 117C30 117.3 29.9 117.5 29.7 117.7C29.5 117.9 29.3 118 29 118Z" fill="white"/>
<path d="M62.9 117C62.8 117 62.6 117 62.5 116.9C62.4 116.9 62.3 116.8 62.2 116.7C62 116.5 61.9 116.3 61.9 116C61.9 115.7 62 115.5 62.2 115.3C62.6 114.9 63.2 114.9 63.6 115.3L63.7 115.4C63.7 115.5 63.8 115.5 63.8 115.6C63.8 115.7 63.8 115.7 63.9 115.8C63.9 115.9 63.9 115.9 63.9 116C63.9 116.3 63.8 116.5 63.6 116.7C63.4 116.9 63.2 117 62.9 117Z" fill="white"/>
<path d="M50.7 121.5C50.6 121 51 120.5 51.6 120.4C52.1 120.3 52.6 120.7 52.7 121.3C52.8 121.8 52.4 122.3 51.8 122.4H51.7C51.2 122.4 50.7 122 50.7 121.5ZM47.3 122.4C46.8 122.3 46.4 121.9 46.4 121.3C46.5 120.8 47 120.3 47.5 120.4C48 120.5 48.4 120.9 48.4 121.5C48.3 122 47.9 122.4 47.4 122.4C47.4 122.4 47.4 122.4 47.3 122.4ZM43 121.4C42.5 121.2 42.2 120.6 42.4 120.1C42.6 119.6 43.2 119.3 43.7 119.5C44.2 119.7 44.5 120.3 44.3 120.8C44.2 121.2 43.8 121.5 43.4 121.5C43.2 121.5 43.1 121.5 43 121.4ZM54.8 120.8C54.6 120.3 54.9 119.7 55.4 119.5C55.9 119.3 56.5 119.6 56.7 120.1C56.9 120.6 56.6 121.2 56.1 121.4C56 121.4 55.9 121.4 55.8 121.4C55.4 121.5 55 121.2 54.8 120.8ZM39 119.5C38.5 119.2 38.4 118.6 38.7 118.1C39 117.6 39.6 117.5 40.1 117.8C40.6 118.1 40.7 118.7 40.4 119.2C40.2 119.5 39.9 119.7 39.6 119.7C39.3 119.6 39.1 119.6 39 119.5ZM58.8 119.2C58.5 118.7 58.6 118.1 59.1 117.8C59.6 117.5 60.2 117.6 60.5 118.1C60.8 118.6 60.6 119.2 60.2 119.5C60 119.6 59.8 119.6 59.7 119.6C59.3 119.6 58.9 119.5 58.8 119.2Z" fill="white"/>
<path d="M36.2 117C36.1 117 35.8999 117 35.7999 116.9C35.6999 116.9 35.6 116.8 35.5 116.7C35.3 116.5 35.2 116.3 35.2 116C35.2 115.7 35.3 115.5 35.5 115.3C35.6 115.3 35.6 115.2 35.7 115.2C35.7 115.2 35.8 115.1 35.9 115.1C36 115.1 35.9999 115.1 36.0999 115C36.3999 114.9 36.8 115 37 115.3C37.2 115.5 37.2999 115.8 37.2999 116C37.2999 116.3 37.2 116.5 37 116.7C36.9 116.8 36.8 116.9 36.7 116.9C36.5 117 36.3 117 36.2 117Z" fill="white"/>
<path d="M142 133C141.7 133 141.5 132.9 141.3 132.7C141.2 132.6 141.1 132.5 141.1 132.4C141 132.3 141 132.2 141 132C141 131.7 141.1 131.5 141.3 131.3C141.4 131.2 141.5 131.1 141.6 131.1C142 130.9 142.4 131 142.7 131.3C142.9 131.5 143 131.8 143 132C143 132.1 143 132.3 142.9 132.4C142.8 132.5 142.8 132.6 142.7 132.7C142.5 132.9 142.3 133 142 133Z" fill="white"/>
<path d="M137.8 132.9C137.3 132.9 136.8 132.4 136.9 131.9C136.9 131.4 137.4 130.9 138 131C138.5 131 139 131.5 138.9 132C138.9 132.5 138.4 132.9 137.8 132.9C137.9 132.9 137.9 132.9 137.8 132.9ZM133.7 132.5C133.1 132.4 132.8 131.9 132.8 131.4C132.9 130.9 133.4 130.5 133.9 130.5C134.4 130.6 134.8 131.1 134.8 131.6C134.7 132.1 134.3 132.5 133.8 132.5H133.7ZM129.6 131.9C129.1 131.8 128.7 131.3 128.8 130.7C128.9 130.2 129.4 129.8 130 129.9C130.5 130 130.9 130.5 130.8 131.1C130.7 131.6 130.3 131.9 129.8 131.9C129.7 131.9 129.6 131.9 129.6 131.9ZM125.5 131C125 130.9 124.6 130.3 124.8 129.8C124.9 129.3 125.5 128.9 126 129.1C126.5 129.2 126.9 129.8 126.7 130.3C126.6 130.8 126.2 131.1 125.7 131.1C125.7 131.1 125.6 131.1 125.5 131ZM121.5 129.9C121 129.7 120.7 129.2 120.9 128.6C121.1 128.1 121.6 127.8 122.2 128C122.7 128.2 123 128.7 122.8 129.3C122.7 129.7 122.3 130 121.8 130C121.7 129.9 121.6 129.9 121.5 129.9ZM117.6 128.4C117.1 128.2 116.9 127.6 117.1 127.1C117.3 126.6 117.9 126.4 118.4 126.6C118.9 126.8 119.1 127.4 118.9 127.9C118.7 128.3 118.4 128.5 118 128.5C117.8 128.5 117.7 128.4 117.6 128.4ZM113.8 126.5C113.3 126.2 113.2 125.6 113.4 125.1C113.7 124.6 114.3 124.5 114.8 124.7C115.3 125 115.4 125.6 115.2 126.1C115 126.4 114.7 126.6 114.3 126.6C114.1 126.6 114 126.6 113.8 126.5ZM110.3 124.1C109.9 123.8 109.8 123.1 110.1 122.7C110.4 122.3 111.1 122.2 111.5 122.5C111.9 122.8 112 123.5 111.7 123.9C111.5 124.1 111.2 124.3 110.9 124.3C110.7 124.3 110.5 124.2 110.3 124.1ZM107.2 121.1C106.8 120.7 106.9 120 107.3 119.7C107.7 119.3 108.4 119.4 108.7 119.8C109 120.2 109 120.8 108.6 121.2C108.4 121.4 108.2 121.4 108 121.4C107.7 121.5 107.4 121.3 107.2 121.1ZM104.9 117.4C104.7 116.9 104.9 116.3 105.4 116.1C105.9 115.9 106.5 116.1 106.7 116.6C106.9 117.1 106.7 117.7 106.2 117.9C106.1 117.9 105.9 118 105.8 118C105.4 118 105.1 117.8 104.9 117.4Z" fill="white"/>
<path d="M105 114C104.9 114 104.7 114 104.6 113.9C104.5 113.8 104.4 113.8 104.3 113.7C104.2 113.6 104.1 113.5 104.1 113.4C104 113.3 104 113.2 104 113C104 112.9 104 112.9 104 112.8C104 112.7 104 112.7 104.1 112.6C104.1 112.5 104.1 112.5 104.2 112.4L104.3 112.3C104.7 111.9 105.3 111.9 105.7 112.3L105.8 112.4C105.8 112.5 105.9 112.5 105.9 112.6C105.9 112.7 105.9 112.7 106 112.8C106 112.9 106 112.9 106 113C106 113.1 106 113.3 105.9 113.4C105.8 113.5 105.8 113.6 105.7 113.7C105.6 113.8 105.5 113.9 105.4 113.9C105.3 113.9 105.1 114 105 114Z" fill="white"/>
<path d="M57 73C56.7 73 56.5 72.9 56.3 72.7C56.1 72.5 56 72.3 56 72C56 71.9 56 71.9 56 71.8C56 71.7 56 71.7 56.1 71.6C56.1 71.5 56.2 71.5 56.2 71.4C56.2 71.3 56.3 71.3 56.3 71.3C56.5 71.1 56.9 71 57.2 71C57.3 71 57.3 71 57.4 71.1C57.5 71.1 57.5 71.2 57.6 71.2L57.7 71.3L57.8 71.4C57.8 71.5 57.9 71.5 57.9 71.6C57.9 71.7 57.9 71.7 58 71.8C58 71.9 58 71.9 58 72C58 72.3 57.9 72.5 57.7 72.7C57.6 72.7 57.6 72.8 57.6 72.8C57.5 72.8 57.5 72.9 57.4 72.9C57.3 72.9 57.3 72.9 57.2 73C57.1 73 57.1 73 57 73Z" fill="white"/>
<path d="M53 72.7001C52.5 72.6001 52.1 72.1001 52.2 71.6001C52.3 71.1001 52.8 70.7001 53.3 70.7001C53.8 70.8001 54.2 71.3001 54.2 71.8001C54.1 72.3001 53.7 72.7001 53.2 72.7001C53.1 72.7001 53.1 72.7001 53 72.7001ZM49.1 71.9001C48.6 71.8001 48.3 71.2001 48.4 70.7001C48.6 70.2001 49.1 69.9001 49.6 70.0001C50.1 70.2001 50.4 70.7001 50.3 71.2001C50.2 71.6001 49.8 71.9001 49.3 71.9001C49.3 71.9001 49.2 71.9001 49.1 71.9001ZM45.4 70.5001C44.9 70.3001 44.7 69.7001 44.9 69.2001C45.1 68.7001 45.7 68.5001 46.2 68.7001C46.7 68.9001 46.9 69.5001 46.7 70.0001C46.5 70.4001 46.2 70.6001 45.8 70.6001C45.6 70.6001 45.5 70.5001 45.4 70.5001ZM41.9 68.6001C41.4 68.3001 41.3 67.7001 41.6 67.2001C41.9 66.7001 42.5 66.6001 43 66.9001C43.5 67.2001 43.6 67.8001 43.3 68.3001C43.1 68.6001 42.8 68.8001 42.4 68.8001C42.2 68.7001 42 68.7001 41.9 68.6001ZM38.7 66.2001C38.3 65.8001 38.2 65.2001 38.6 64.8001C39 64.4001 39.6 64.3001 40 64.7001C40.4 65.1001 40.5 65.7001 40.1 66.1001C39.9 66.3001 39.6 66.4001 39.3 66.4001C39.1 66.4001 38.9 66.3001 38.7 66.2001ZM35.8 63.3001C35.4 62.9001 35.5 62.3001 35.9 61.9001C36.3 61.5001 36.9 61.6001 37.3 62.0001C37.7 62.4001 37.6 63.0001 37.2 63.4001C37 63.6001 36.8 63.6001 36.5 63.6001C36.3 63.7001 36 63.6001 35.8 63.3001ZM33.4 60.1001C33.1 59.6001 33.2 59.0001 33.7 58.7001C34.2 58.4001 34.8 58.5001 35.1 59.0001C35.4 59.5001 35.3 60.1001 34.8 60.4001C34.6 60.5001 34.4 60.6001 34.3 60.6001C34 60.6001 33.6 60.4001 33.4 60.1001ZM31.5 56.6001C31.3 56.1001 31.5 55.5001 32 55.3001C32.5 55.1001 33.1 55.3001 33.3 55.8001C33.5 56.3001 33.3 56.9001 32.8 57.1001C32.7 57.2001 32.5 57.2001 32.4 57.2001C32.1 57.2001 31.7 57.0001 31.5 56.6001ZM30.1 52.9001C30 52.4001 30.2 51.8001 30.8 51.7001C31.3 51.5001 31.9 51.8001 32 52.4001C32.2 52.9001 31.9 53.5001 31.3 53.6001C31.2 53.6001 31.1 53.6001 31 53.6001C30.7 53.6001 30.3 53.3001 30.1 52.9001ZM29.3 49.0001C29.2 48.5001 29.6 47.9001 30.1 47.9001C30.6 47.8001 31.2 48.2001 31.2 48.8001C31.3 49.4001 30.9 49.9001 30.4 49.9001C30.3 49.9001 30.3 49.9001 30.3 49.9001C29.8 49.9001 29.4 49.5001 29.3 49.0001Z" fill="white"/>
<path d="M30 46C29.7 46 29.5 45.9 29.3 45.7C29.1 45.5 29 45.3 29 45C29 44.9 29 44.7 29.1 44.6C29.2 44.5 29.2 44.4 29.3 44.3C29.7 43.9 30.3 43.9 30.7 44.3C30.8 44.4 30.9 44.5 30.9 44.6C30.9 44.7 31 44.8 31 45C31 45.3 30.9 45.5 30.7 45.7C30.6 45.7 30.6 45.8 30.6 45.8C30.5 45.8 30.5 45.9 30.4 45.9C30.3 45.9 30.3 45.9 30.2 46C30.1 46 30.1 46 30 46Z" fill="white"/>
<path d="M69 20.4C68.7 20.4 68.5 20.3 68.3 20.1C68.2 20 68.1 19.9 68.1 19.8C68.1 19.7 68 19.6 68 19.4C68 19.1 68.1 18.9 68.3 18.7C68.6 18.4 69 18.3 69.4 18.5C69.5 18.5 69.6 18.6 69.7 18.7L69.8 18.8C69.8 18.9 69.9 18.9 69.9 19C69.9 19.1 69.9 19.1 70 19.2C70 19.3 70 19.3 70 19.4C70 19.7 69.9 19.9 69.7 20.1C69.6 20.2 69.5 20.3 69.4 20.3C69.3 20.4 69.1 20.4 69 20.4Z" fill="white"/>
<path d="M117 28.4C116.7 28 116.7 27.3 117.2 27C117.6 26.7 118.3 26.7 118.6 27.2C118.9 27.6 118.9 28.3 118.4 28.6C118.2 28.7 118 28.8 117.8 28.8C117.5 28.8 117.2 28.7 117 28.4ZM114.5 25.6C114.1 25.2 114.1 24.6 114.5 24.2C114.9 23.8 115.5 23.8 115.9 24.2C116.3 24.6 116.3 25.2 115.9 25.6C115.7 25.8 115.4 25.9 115.2 25.9C115 25.9 114.8 25.8 114.5 25.6ZM111.8 23C111.4 22.6 111.3 22 111.7 21.6C112 21.2 112.7 21.1 113.1 21.5C113.5 21.9 113.6 22.5 113.2 22.9C113 23.1 112.7 23.3 112.4 23.3C112.2 23.3 112 23.2 111.8 23ZM108.8 20.8C108.3 20.5 108.2 19.9 108.5 19.4C108.8 18.9 109.4 18.8 109.9 19.1C110.4 19.4 110.5 20 110.2 20.5C110 20.8 109.7 20.9 109.4 20.9C109.1 20.9 108.9 20.9 108.8 20.8ZM105.5 18.8C105 18.5 104.8 17.9 105.1 17.5C105.4 17 106 16.8 106.5 17.1C107 17.3 107.2 18 106.9 18.5C106.7 18.8 106.4 19 106 19C105.8 19 105.7 18.9 105.5 18.8ZM71.5 17.9C71.3 17.4 71.5 16.8 72 16.6C72.5 16.4 73.1 16.6 73.3 17.1C73.5 17.6 73.3 18.2 72.8 18.4C72.7 18.5 72.5 18.5 72.4 18.5C72 18.5 71.7 18.3 71.5 17.9ZM102.1 17.3C101.6 17.1 101.3 16.5 101.5 16C101.7 15.5 102.3 15.2 102.8 15.4C103.3 15.6 103.6 16.2 103.4 16.7C103.2 17.1 102.9 17.3 102.5 17.3C102.3 17.3 102.2 17.3 102.1 17.3ZM75 16.3C74.8 15.8 75.1 15.2 75.6 15C76.1 14.8 76.7 15.1 76.9 15.6C77.1 16.1 76.8 16.7 76.3 16.9C76.2 16.9 76.1 17 76 17C75.5 17 75.2 16.7 75 16.3ZM98.5 16.1C98 15.9 97.6 15.4 97.8 14.9C98 14.4 98.5 14.1 99 14.2C99.5 14.3 99.8 14.9 99.7 15.4C99.6 15.8 99.2 16.1 98.7 16.1C98.7 16.1 98.6 16.1 98.5 16.1ZM78.7 15.1C78.6 14.6 78.9 14 79.4 13.9C79.9 13.8 80.5 14.1 80.6 14.6C80.7 15.1 80.4 15.7 79.9 15.8C79.8 15.8 79.7 15.8 79.7 15.8C79.2 15.8 78.8 15.5 78.7 15.1ZM94.9 15.2C94.4 15.1 94 14.6 94.1 14C94.2 13.5 94.7 13.1 95.3 13.2C95.8 13.3 96.2 13.8 96.1 14.4C96 14.9 95.6 15.2 95.1 15.2C95 15.2 94.9 15.2 94.9 15.2ZM82.5 14.2C82.4 13.6 82.8 13.1 83.4 13.1C83.9 13 84.4 13.4 84.5 14C84.6 14.5 84.2 15 83.6 15.1H83.5C83 15.1 82.5 14.7 82.5 14.2ZM91.1 14.8C90.5 14.8 90.1 14.3 90.2 13.7C90.2 13.1 90.7 12.7 91.3 12.8C91.8 12.8 92.3 13.3 92.2 13.9C92.1 14.4 91.7 14.8 91.1 14.8C91.2 14.8 91.1 14.8 91.1 14.8ZM86.3 13.8C86.3 13.2 86.7 12.8 87.3 12.8C87.8 12.8 88.3 13.2 88.3 13.8C88.3 14.4 87.9 14.8 87.3 14.8C86.8 14.7 86.3 14.3 86.3 13.8Z" fill="white"/>
<path d="M120.1 31.9999C120 31.9999 120 31.9999 119.9 31.9999C119.8 31.9999 119.8 31.9999 119.7 31.8999C119.6 31.8999 119.6 31.7999 119.5 31.7999C119.5 31.7999 119.4 31.6999 119.3 31.6999C119.1 31.4999 119 31.1999 119 30.9999C119 30.6999 119.1 30.4999 119.3 30.2999C119.4 30.2999 119.4 30.1999 119.5 30.1999C119.5 30.1999 119.6 30.0999 119.7 30.0999C119.8 30.0999 119.8 30.0999 119.9 29.9999C120.2 29.8999 120.6 29.9999 120.8 30.2999C121 30.4999 121.1 30.6999 121.1 30.9999C121.1 31.0999 121.1 31.0999 121.1 31.1999C121.1 31.2999 121.1 31.2999 121 31.3999C121 31.4999 120.9 31.4999 120.9 31.5999C120.9 31.6999 120.8 31.6999 120.8 31.7999C120.6 31.8999 120.3 31.9999 120.1 31.9999Z" fill="white"/>
<path d="M152.3 135C152 135 151.8 134.9 151.6 134.7C151.4 134.5 151.3 134.3 151.3 134C151.3 133.7 151.4 133.5 151.6 133.3C151.8 133.1 152.2 133 152.5 133C152.6 133 152.6 133 152.7 133.1C152.8 133.1 152.8 133.1 152.9 133.2C152.9 133.2 153 133.3 153.1 133.3C153.3 133.5 153.4 133.8 153.4 134C153.4 134.3 153.3 134.5 153.1 134.7C152.8 134.9 152.6 135 152.3 135Z" fill="white"/>
<path d="M115.7 163.8C115.2 163.8 114.7 163.3 114.7 162.8C114.7 162.2 115.2 161.8 115.7 161.8C116.2 161.8 116.7 162.3 116.7 162.8C116.7 163.4 116.2 163.8 115.7 163.8ZM118.6 162.8C118.5 162.3 118.9 161.8 119.5 161.7C120 161.7 120.5 162.1 120.6 162.6C120.6 163.1 120.2 163.6 119.7 163.7H119.6C119.1 163.7 118.6 163.3 118.6 162.8ZM111.7 163.6C111.2 163.5 110.8 163 110.8 162.5C110.9 162 111.4 161.6 111.9 161.6C112.4 161.7 112.8 162.2 112.8 162.7C112.7 163.2 112.3 163.6 111.8 163.6C111.8 163.6 111.8 163.6 111.7 163.6ZM122.4 162.3C122.3 161.8 122.6 161.2 123.2 161.1C123.7 161 124.3 161.3 124.4 161.9C124.5 162.4 124.2 163 123.6 163.1C123.5 163.1 123.5 163.1 123.4 163.1C122.9 163.1 122.5 162.8 122.4 162.3ZM126.2 161.5C126 161 126.3 160.4 126.9 160.3C127.4 160.1 128 160.4 128.1 161C128.3 161.5 128 162.1 127.4 162.2C127.3 162.2 127.2 162.2 127.1 162.2C126.7 162.2 126.3 161.9 126.2 161.5ZM129.9 160.2C129.7 159.7 129.9 159.1 130.4 158.9C130.9 158.7 131.5 158.9 131.7 159.4C131.9 159.9 131.7 160.5 131.2 160.7C131.1 160.8 130.9 160.8 130.8 160.8C130.4 160.8 130 160.6 129.9 160.2ZM133.4 158.6C133.1 158.1 133.3 157.5 133.8 157.2C134.3 156.9 134.9 157.1 135.2 157.6C135.5 158.1 135.3 158.7 134.8 159C134.6 159.1 134.5 159.1 134.3 159.1C133.9 159.1 133.6 158.9 133.4 158.6ZM136.7 156.6C136.4 156.1 136.5 155.5 136.9 155.2C137.4 154.9 138 155 138.3 155.4C138.6 155.9 138.5 156.5 138.1 156.8C137.9 156.9 137.7 157 137.5 157C137.2 157 136.9 156.9 136.7 156.6ZM139.8 154.3C139.4 153.9 139.5 153.3 139.9 152.9C140.3 152.5 141 152.6 141.3 153C141.7 153.4 141.6 154 141.2 154.4C141 154.6 140.8 154.6 140.5 154.6C140.3 154.6 140 154.5 139.8 154.3ZM142.7 151.7C142.3 151.3 142.3 150.7 142.6 150.3C143 149.9 143.6 149.9 144 150.3C144.4 150.7 144.4 151.3 144 151.7C143.8 151.9 143.5 152 143.3 152C143.1 152 142.9 151.9 142.7 151.7ZM145.3 148.8C144.8 148.5 144.8 147.8 145.1 147.4C145.4 147 146.1 146.9 146.5 147.2C146.9 147.5 147 148.2 146.7 148.6C146.5 148.9 146.2 149 145.9 149C145.7 149 145.5 148.9 145.3 148.8ZM147.5 145.6C147 145.3 146.9 144.7 147.2 144.2C147.5 143.7 148.1 143.6 148.6 143.8C149.1 144.1 149.2 144.7 148.9 145.2C148.7 145.5 148.4 145.7 148 145.7C147.8 145.8 147.7 145.7 147.5 145.6ZM149.4 142.2C148.9 142 148.7 141.4 148.9 140.9C149.1 140.4 149.7 140.2 150.2 140.4C150.7 140.6 150.9 141.2 150.7 141.7C150.5 142.1 150.2 142.3 149.8 142.3C149.7 142.3 149.5 142.3 149.4 142.2ZM151 138.7C150.5 138.5 150.2 137.9 150.4 137.4C150.6 136.9 151.2 136.6 151.7 136.8C152.2 137 152.5 137.5 152.3 138.1C152.2 138.5 151.8 138.8 151.4 138.8C151.2 138.7 151 138.7 151 138.7Z" fill="white"/>
<path d="M108 162.9C107.7 162.9 107.5 162.8 107.3 162.6C107.1 162.4 107 162.2 107 161.9C107 161.8 107 161.6 107.1 161.5C107.1 161.4 107.2 161.3 107.3 161.2C107.7 160.8 108.3 160.8 108.7 161.2C108.8 161.3 108.9 161.4 108.9 161.5C108.9 161.6 109 161.7 109 161.9C109 162.2 108.9 162.4 108.7 162.6C108.5 162.8 108.3 162.9 108 162.9Z" fill="white"/>
</svg>
