<svg width="54" height="109" viewBox="0 0 54 109" fill="none" xmlns="http://www.w3.org/2000/svg">
<path fill-rule="evenodd" clip-rule="evenodd" d="M-2.22982e-06 51.0124C-2.62183e-06 37.4811 5.41266 24.5053 15.0453 14.9391C24.6777 5.37305 37.7408 3.73587e-06 51.3606 2.24504e-06L51.3606 1.74104C38.1987 1.74104 25.5771 6.93357 16.2721 16.1744C6.96732 25.415 1.74103 37.9468 1.74103 51.0124C1.74103 64.078 6.96732 76.6097 16.2721 85.8503C25.1806 94.6974 37.129 99.8338 49.681 100.256L44.7024 95.2769L46.1797 93.7996L53.3602 100.98L46.1797 108.161L44.7024 106.683L49.3981 101.988C36.4912 101.498 24.2141 96.1913 15.0453 87.0857C5.41266 77.5195 -1.83782e-06 64.5436 -2.22982e-06 51.0124Z" fill="#DBD8D8"/>
</svg>
