<svg width="54" height="109" viewBox="0 0 54 109" fill="none" xmlns="http://www.w3.org/2000/svg">
<path fill-rule="evenodd" clip-rule="evenodd" d="M53.3601 51.0124C53.3601 37.4811 47.9474 24.5053 38.3148 14.9391C28.6824 5.37305 15.6193 3.72518e-06 1.99953 2.24504e-06L1.99953 1.74104C15.1614 1.74104 27.783 6.93357 37.088 16.1744C46.3928 25.415 51.6191 37.9468 51.6191 51.0124C51.6191 64.078 46.3928 76.6097 37.088 85.8504C28.1795 94.6974 16.2311 99.8338 3.67912 100.256L8.65774 95.2769L7.18042 93.7996L-7.56947e-05 100.98L7.18042 108.161L8.65774 106.683L3.96203 101.988C16.8689 101.498 29.146 96.1913 38.3148 87.0857C47.9474 77.5195 53.3601 64.5436 53.3601 51.0124Z" fill="#DBD8D8"/>
</svg>
