<svg width="129" height="464" viewBox="0 0 129 464" fill="none" xmlns="http://www.w3.org/2000/svg">
<g opacity="0.1">
<mask id="mask0" mask-type="alpha" maskUnits="userSpaceOnUse" x="0" y="0" width="129" height="464">
<path d="M129 232C129 134.073 77.4471 48.1873 0 0V464C77.4471 415.813 129 329.927 129 232Z" fill="#C4C4C4"/>
</mask>
<g mask="url(#mask0)">
<path fill-rule="evenodd" clip-rule="evenodd" d="M18.454 -4.875H3.65228V9.92674H18.454V-4.875ZM1.65228 -6.875V11.9267H20.454V-6.875H1.65228Z" fill="white"/>
<path fill-rule="evenodd" clip-rule="evenodd" d="M41.8783 18.5488H27.0766V33.3506H41.8783V18.5488ZM25.0766 16.5488V35.3506H43.8783V16.5488H25.0766Z" fill="white"/>
<path fill-rule="evenodd" clip-rule="evenodd" d="M65.9357 42.6064H51.1339V57.4082H65.9357V42.6064ZM49.1339 40.6064V59.4082H67.9357V40.6064H49.1339Z" fill="white"/>
<path fill-rule="evenodd" clip-rule="evenodd" d="M89.3598 66.0312H74.5581V80.833H89.3598V66.0312ZM72.5581 64.0312V82.833H91.3598V64.0312H72.5581Z" fill="white"/>
<path fill-rule="evenodd" clip-rule="evenodd" d="M113.417 90.0889H98.6155V104.891H113.417V90.0889ZM96.6155 88.0889V106.891H115.417V88.0889H96.6155Z" fill="white"/>
<path fill-rule="evenodd" clip-rule="evenodd" d="M17.6 42.8281H2.79822V57.6299H17.6V42.8281ZM0.798218 40.8281V59.6299H19.6V40.8281H0.798218Z" fill="white"/>
<path fill-rule="evenodd" clip-rule="evenodd" d="M41.6573 66.8848H26.8555V81.6865H41.6573V66.8848ZM24.8555 64.8848V83.6865H43.6573V64.8848H24.8555Z" fill="white"/>
<path fill-rule="evenodd" clip-rule="evenodd" d="M65.0816 90.3096H50.2798V105.111H65.0816V90.3096ZM48.2798 88.3096V107.111H67.0816V88.3096H48.2798Z" fill="white"/>
<path fill-rule="evenodd" clip-rule="evenodd" d="M89.1389 114.367H74.3371V129.169H89.1389V114.367ZM72.3371 112.367V131.169H91.1389V112.367H72.3371Z" fill="white"/>
<path fill-rule="evenodd" clip-rule="evenodd" d="M112.563 137.791H97.7614V152.593H112.563V137.791ZM95.7614 135.791V154.593H114.563V135.791H95.7614Z" fill="white"/>
<path fill-rule="evenodd" clip-rule="evenodd" d="M136.62 161.849H121.819V176.65H136.62V161.849ZM119.819 159.849V178.65H138.62V159.849H119.819Z" fill="white"/>
<path fill-rule="evenodd" clip-rule="evenodd" d="M17.3786 91.1641H2.57681V105.966H17.3786V91.1641ZM0.576813 89.1641V107.966H19.3786V89.1641H0.576813Z" fill="white"/>
<path fill-rule="evenodd" clip-rule="evenodd" d="M40.8028 114.588H26.001V129.39H40.8028V114.588ZM24.001 112.588V131.39H42.8028V112.588H24.001Z" fill="white"/>
<path fill-rule="evenodd" clip-rule="evenodd" d="M64.8602 138.646H50.0584V153.447H64.8602V138.646ZM48.0584 136.646V155.447H66.8602V136.646H48.0584Z" fill="white"/>
<path fill-rule="evenodd" clip-rule="evenodd" d="M88.2844 162.069H73.4827V176.871H88.2844V162.069ZM71.4827 160.069V178.871H90.2844V160.069H71.4827Z" fill="white"/>
<path fill-rule="evenodd" clip-rule="evenodd" d="M112.342 186.127H97.54V200.929H112.342V186.127ZM95.54 184.127V202.929H114.342V184.127H95.54Z" fill="white"/>
<path fill-rule="evenodd" clip-rule="evenodd" d="M136.399 210.185H121.597V224.986H136.399V210.185ZM119.597 208.185V226.986H138.399V208.185H119.597Z" fill="white"/>
<path fill-rule="evenodd" clip-rule="evenodd" d="M16.5245 138.867H1.72275V153.669H16.5245V138.867ZM-0.277252 136.867V155.669H18.5245V136.867H-0.277252Z" fill="white"/>
<path fill-rule="evenodd" clip-rule="evenodd" d="M40.5818 162.924H25.7801V177.726H40.5818V162.924ZM23.7801 160.924V179.726H42.5818V160.924H23.7801Z" fill="white"/>
<path fill-rule="evenodd" clip-rule="evenodd" d="M64.006 186.348H49.2043V201.149H64.006V186.348ZM47.2043 184.348V203.149H66.006V184.348H47.2043Z" fill="white"/>
<path fill-rule="evenodd" clip-rule="evenodd" d="M88.0634 210.405H73.2617V225.207H88.0634V210.405ZM71.2617 208.405V227.207H90.0634V208.405H71.2617Z" fill="white"/>
<path fill-rule="evenodd" clip-rule="evenodd" d="M112.121 234.463H97.319V249.265H112.121V234.463ZM95.319 232.463V251.265H114.121V232.463H95.319Z" fill="white"/>
<path fill-rule="evenodd" clip-rule="evenodd" d="M135.545 257.887H120.743V272.688H135.545V257.887ZM118.743 255.887V274.688H137.545V255.887H118.743Z" fill="white"/>
<path fill-rule="evenodd" clip-rule="evenodd" d="M16.3038 187.202H1.50211V202.004H16.3038V187.202ZM-0.497894 185.202V204.004H18.3038V185.202H-0.497894Z" fill="white"/>
<path fill-rule="evenodd" clip-rule="evenodd" d="M39.728 210.626H24.9263V225.428H39.728V210.626ZM22.9263 208.626V227.428H41.728V208.626H22.9263Z" fill="white"/>
<path fill-rule="evenodd" clip-rule="evenodd" d="M63.7854 234.683H48.9836V249.484H63.7854V234.683ZM46.9836 232.683V251.484H65.7854V232.683H46.9836Z" fill="white"/>
<path fill-rule="evenodd" clip-rule="evenodd" d="M87.8426 258.74H73.0409V273.542H87.8426V258.74ZM71.0409 256.74V275.542H89.8426V256.74H71.0409Z" fill="white"/>
<path fill-rule="evenodd" clip-rule="evenodd" d="M111.267 282.165H96.4652V296.967H111.267V282.165ZM94.4652 280.165V298.967H113.267V280.165H94.4652Z" fill="white"/>
<path fill-rule="evenodd" clip-rule="evenodd" d="M135.324 306.223H120.523V321.024H135.324V306.223ZM118.523 304.223V323.024H137.324V304.223H118.523Z" fill="white"/>
<path fill-rule="evenodd" clip-rule="evenodd" d="M15.4494 234.905H0.647613V249.707H15.4494V234.905ZM-1.35239 232.905V251.707H17.4494V232.905H-1.35239Z" fill="white"/>
<path fill-rule="evenodd" clip-rule="evenodd" d="M39.5067 258.962H24.7049V273.764H39.5067V258.962ZM22.7049 256.962V275.764H41.5067V256.962H22.7049Z" fill="white"/>
<path fill-rule="evenodd" clip-rule="evenodd" d="M63.5639 283.02H48.7622V297.821H63.5639V283.02ZM46.7622 281.02V299.821H65.5639V281.02H46.7622Z" fill="white"/>
<path fill-rule="evenodd" clip-rule="evenodd" d="M86.9882 306.443H72.1864V321.245H86.9882V306.443ZM70.1864 304.443V323.245H88.9882V304.443H70.1864Z" fill="white"/>
<path fill-rule="evenodd" clip-rule="evenodd" d="M111.045 330.501H96.2437V345.303H111.045V330.501ZM94.2437 328.501V347.303H113.045V328.501H94.2437Z" fill="white"/>
<path fill-rule="evenodd" clip-rule="evenodd" d="M15.2287 283.24H0.426941V298.042H15.2287V283.24ZM-1.57306 281.24V300.042H17.2287V281.24H-1.57306Z" fill="white"/>
<path fill-rule="evenodd" clip-rule="evenodd" d="M39.286 307.298H24.4842V322.1H39.286V307.298ZM22.4842 305.298V324.1H41.286V305.298H22.4842Z" fill="white"/>
<path fill-rule="evenodd" clip-rule="evenodd" d="M62.7102 330.722H47.9084V345.523H62.7102V330.722ZM45.9084 328.722V347.523H64.7102V328.722H45.9084Z" fill="white"/>
<path fill-rule="evenodd" clip-rule="evenodd" d="M86.7675 354.778H71.9658V369.58H86.7675V354.778ZM69.9658 352.778V371.58H88.7675V352.778H69.9658Z" fill="white"/>
<path fill-rule="evenodd" clip-rule="evenodd" d="M15.0073 331.576H0.205566V346.378H15.0073V331.576ZM-1.79443 329.576V348.378H17.0073V329.576H-1.79443Z" fill="white"/>
<path fill-rule="evenodd" clip-rule="evenodd" d="M38.4315 355H23.6298V369.802H38.4315V355ZM21.6298 353V371.802H40.4315V353H21.6298Z" fill="white"/>
<path fill-rule="evenodd" clip-rule="evenodd" d="M62.4888 379.058H47.6871V393.859H62.4888V379.058ZM45.6871 377.058V395.859H64.4888V377.058H45.6871Z" fill="white"/>
<path fill-rule="evenodd" clip-rule="evenodd" d="M85.913 402.481H71.1113V417.283H85.913V402.481ZM69.1113 400.481V419.283H87.913V400.481H69.1113Z" fill="white"/>
<path fill-rule="evenodd" clip-rule="evenodd" d="M14.1531 379.279H-0.648621V394.081H14.1531V379.279ZM-2.64862 377.279V396.081H16.1531V377.279H-2.64862Z" fill="white"/>
<path fill-rule="evenodd" clip-rule="evenodd" d="M38.2104 403.336H23.4087V418.138H38.2104V403.336ZM21.4087 401.336V420.138H40.2104V401.336H21.4087Z" fill="white"/>
<path fill-rule="evenodd" clip-rule="evenodd" d="M61.6347 426.76H46.8329V441.562H61.6347V426.76ZM44.8329 424.76V443.562H63.6347V424.76H44.8329Z" fill="white"/>
<path fill-rule="evenodd" clip-rule="evenodd" d="M13.9321 427.614H-0.86966V442.416H13.9321V427.614ZM-2.86966 425.614V444.416H15.9321V425.614H-2.86966Z" fill="white"/>
<path fill-rule="evenodd" clip-rule="evenodd" d="M37.3563 451.038H22.5546V465.84H37.3563V451.038ZM20.5546 449.038V467.84H39.3563V449.038H20.5546Z" fill="white"/>
</g>
</g>
</svg>
