<svg width="36" height="56" viewBox="0 0 36 56" fill="none" xmlns="http://www.w3.org/2000/svg">
<path fill-rule="evenodd" clip-rule="evenodd" d="M6.33312 32.1196L13.8574 38.2336C14.4439 38.7105 15.1837 38.9727 15.94 38.9727H19.7316C20.4879 38.9727 21.227 38.7105 21.8143 38.2336L29.3385 32.1196C30.4244 31.2371 31.0467 29.9299 31.0467 28.5309V25.1013C31.0467 24.8933 31.1444 24.6977 31.3109 24.5729L32.9371 23.3529C33.4074 23.0001 33.6888 22.438 33.6888 21.8501V19.817C33.6888 19.453 33.3929 19.1564 33.0283 19.1564H31.7072C31.3419 19.1564 31.0467 18.8605 31.0467 18.4959V11.8905C31.0467 7.88429 27.7869 4.62451 23.7807 4.62451H11.8909C7.88473 4.62451 4.62496 7.88429 4.62496 11.8905V18.4959C4.62496 18.8605 4.32903 19.1564 3.96442 19.1564H2.64333C2.27937 19.1564 1.98279 19.453 1.98279 19.817V21.8501C1.98279 22.4387 2.26352 23.0001 2.73449 23.3529L4.36074 24.5729C4.5272 24.6977 4.62496 24.8933 4.62496 25.1013V28.5309C4.62496 29.9299 5.24719 31.2378 6.33312 32.1196Z" fill="#EFC9AE"/>
<path fill-rule="evenodd" clip-rule="evenodd" d="M33.0283 19.1562H31.7072C31.3426 19.1562 31.0467 18.8603 31.0467 18.4957V11.8902C31.0467 8.31934 28.4554 5.34822 25.0556 4.74316C27.3173 5.88326 28.9059 8.17072 29.0512 12.5508H4.625V14.5324H27.0834C28.178 14.5324 29.0651 15.4195 29.0651 16.514V29.8517C29.0651 29.2684 28.4428 30.5763 27.3569 31.4588L19.832 37.5728C19.2441 38.051 18.5089 38.3119 17.7506 38.3119H13.975C14.5424 38.734 15.232 38.9725 15.9408 38.9725H19.7323C20.4906 38.9725 21.2258 38.7116 21.8143 38.2333L29.3392 32.1193C30.4192 31.2415 31.0467 29.923 31.0467 28.5306V25.1017C31.0467 24.8937 31.1445 24.6975 31.3109 24.5726L32.9372 23.3526C33.4108 22.9979 33.6889 22.4411 33.6889 21.8499V19.8167C33.6889 19.4521 33.3929 19.1562 33.0283 19.1562Z" fill="#E2B698"/>
<path fill-rule="evenodd" clip-rule="evenodd" d="M17.8358 29.7133C16.0253 29.7133 14.2154 29.2377 12.8368 28.2872C12.5363 28.0805 12.461 27.6683 12.6684 27.3684C12.8758 27.0685 13.288 26.9932 13.5872 27.2C15.9302 28.8163 19.7415 28.8163 22.0851 27.2C22.3843 26.9926 22.7958 27.0685 23.0039 27.3684C23.2107 27.6689 23.1354 28.0805 22.8348 28.2872C21.4563 29.2384 19.6457 29.7133 17.8358 29.7133Z" fill="#4A0506"/>
<path fill-rule="evenodd" clip-rule="evenodd" d="M31.7073 12.5507H26.4229C26.1125 12.5507 25.8443 12.3347 25.7776 12.0322C25.7109 11.7297 25.8641 11.4212 26.1455 11.2904C28.5175 10.1926 30.4172 8.60267 31.0467 7.26309C31.0474 7.09862 31.1016 6.95792 31.1907 6.72475C31.2172 6.6554 31.2456 6.58406 31.2627 6.53055C31.2997 6.20358 31.5732 5.95258 31.9028 5.94531C31.9088 5.94531 31.914 5.94531 31.9187 5.94531C32.245 5.94531 32.5231 6.18377 32.5719 6.50743C32.5851 6.59396 32.5812 6.67653 32.5653 6.76174C32.531 7.01605 32.4643 7.27102 32.3672 7.52467V11.8902C32.3678 12.2548 32.0726 12.5507 31.7073 12.5507ZM28.9442 11.2296H31.0467V9.49234C30.4529 10.1166 29.727 10.7058 28.9442 11.2296Z" fill="#4A0506"/>
<path fill-rule="evenodd" clip-rule="evenodd" d="M27.0836 17.1747C27.0836 16.8107 26.7877 16.5142 26.4231 16.5142H20.4782C20.1135 16.5142 19.8176 16.8107 19.8176 17.1747V19.9133C19.8176 20.4166 20.0977 20.8698 20.5475 21.095L22.7181 22.1803C23.0833 22.3626 23.4916 22.459 23.9004 22.459H25.102C26.1945 22.459 27.0836 21.57 27.0836 20.4774V17.1747Z" fill="#FDD6BA"/>
<path fill-rule="evenodd" clip-rule="evenodd" d="M22.4598 20.4774C23.1894 20.4774 23.7808 19.8859 23.7808 19.1563C23.7808 18.4267 23.1894 17.8352 22.4598 17.8352C21.7301 17.8352 21.1387 18.4267 21.1387 19.1563C21.1387 19.8859 21.7301 20.4774 22.4598 20.4774Z" fill="#4A0506"/>
<path fill-rule="evenodd" clip-rule="evenodd" d="M10.57 22.459H11.7722C12.1804 22.459 12.5886 22.3626 12.9539 22.1803L15.1244 21.095C15.5743 20.8698 15.8543 20.4166 15.8543 19.9133V17.1747C15.8543 16.8107 15.5578 16.5142 15.1938 16.5142H9.24892C8.88496 16.5142 8.58838 16.8107 8.58838 17.1747V20.4774C8.58838 21.57 9.47747 22.459 10.57 22.459Z" fill="#FDD6BA"/>
<path fill-rule="evenodd" clip-rule="evenodd" d="M13.212 20.4774C13.9416 20.4774 14.533 19.8859 14.533 19.1563C14.533 18.4267 13.9416 17.8352 13.212 17.8352C12.4823 17.8352 11.8909 18.4267 11.8909 19.1563C11.8909 19.8859 12.4823 20.4774 13.212 20.4774Z" fill="#4A0506"/>
<path fill-rule="evenodd" clip-rule="evenodd" d="M31.7073 17.835H28.4046V17.1745C28.4046 16.082 27.5155 15.1929 26.4229 15.1929H20.4781C19.7885 15.1929 19.1814 15.5476 18.8267 16.0833C18.5182 15.9327 18.1833 15.8534 17.8359 15.8534C17.4884 15.8534 17.1535 15.9327 16.8451 16.0833C16.4904 15.5476 15.8833 15.1929 15.1937 15.1929H9.24884C8.1563 15.1929 7.26721 16.082 7.26721 17.1745V17.835H3.9645C3.59988 17.835 3.30396 18.131 3.30396 18.4956C3.30396 18.8602 3.59988 19.1561 3.9645 19.1561H7.26721V20.4772C7.26721 22.2983 8.74881 23.7799 10.5699 23.7799H11.7721C12.3844 23.7799 12.9968 23.6353 13.5443 23.3618L15.7149 22.2765C16.6159 21.826 17.1753 20.9198 17.1753 19.9131V17.446C17.5717 17.1071 18.1001 17.1071 18.4964 17.446V19.9131C18.4964 20.9204 19.0566 21.826 19.9569 22.2765L22.1274 23.3618C22.675 23.6353 23.288 23.7799 23.9003 23.7799H25.1019C26.923 23.7799 28.4046 22.2983 28.4046 20.4772V19.1561H31.7073C32.0726 19.1561 32.3678 18.8602 32.3678 18.4956C32.3678 18.131 32.0726 17.835 31.7073 17.835ZM15.8543 19.9134C15.8543 20.4167 15.5742 20.8698 15.1244 21.0951L12.9538 22.1803C12.5886 22.3627 12.1804 22.4591 11.7721 22.4591H10.5699C9.47741 22.4591 8.58832 21.57 8.58832 20.4775V17.1748C8.58832 16.8108 8.8849 16.5142 9.24886 16.5142H15.1937C15.5577 16.5142 15.8543 16.8108 15.8543 17.1748V19.9134ZM27.0835 20.4775C27.0835 21.57 26.1945 22.4591 25.1019 22.4591H23.9004C23.4922 22.4591 23.084 22.3627 22.7187 22.1803L20.5481 21.0951C20.0977 20.8698 19.8176 20.4167 19.8176 19.9134V17.1748C19.8176 16.8108 20.1135 16.5142 20.4781 16.5142H26.423C26.7876 16.5142 27.0835 16.8108 27.0835 17.1748V20.4775Z" fill="#4A0506"/>
<path fill-rule="evenodd" clip-rule="evenodd" d="M33.0284 17.8352H32.3679V11.8903C32.3679 7.15551 28.5156 3.30322 23.7808 3.30322H11.8911C7.15632 3.30322 3.30403 7.15551 3.30403 11.8903V17.8352H2.64349C1.55096 17.8352 0.661865 18.7242 0.661865 19.8168V21.8499C0.661865 22.852 1.14076 23.8091 1.942 24.4095L3.30403 25.4314V25.7617V28.5307C3.30403 30.3287 4.10461 32.0104 5.50034 33.1445L13.0246 39.2585C13.8456 39.9257 14.8814 40.2936 15.9402 40.2936H19.7317C20.7899 40.2936 21.825 39.9257 22.6474 39.2592L30.1723 33.1452C31.5673 32.0104 32.3679 30.3287 32.3679 28.5307V25.7617V25.4314L33.7299 24.4102C34.5312 23.8091 35.0101 22.852 35.0101 21.8499V19.8168C35.0101 18.7242 34.121 17.8352 33.0284 17.8352ZM33.6889 21.8501C33.6889 22.4386 33.4075 23.0008 32.9372 23.3535L32.3678 23.7802V23.1197C32.3678 22.755 32.0725 22.4591 31.7072 22.4591C31.342 22.4591 31.0467 22.755 31.0467 23.1197V25.1013V25.7618V28.5308C31.0467 29.9292 30.4245 31.2371 29.3385 32.1195L21.8143 38.2335C21.2271 38.7104 20.4879 38.9727 19.7316 38.9727H15.9401C15.1831 38.9727 14.444 38.7104 13.8574 38.2335L6.33316 32.1195C5.24723 31.2377 4.625 29.9299 4.625 28.5308V25.7618V25.1013V23.1197C4.625 22.755 4.32973 22.4591 3.96445 22.4591C3.59917 22.4591 3.30391 22.755 3.30391 23.1197V23.7802L2.73452 23.3528C2.26356 23.0001 1.98283 22.438 1.98283 21.8501V19.8169C1.98283 19.453 2.27941 19.1564 2.64337 19.1564H3.96445C4.32907 19.1564 4.625 18.8605 4.625 18.4959V11.8904C4.625 7.88425 7.88477 4.62448 11.891 4.62448H23.7807C27.7869 4.62448 31.0467 7.88425 31.0467 11.8904V18.4959C31.0467 18.8605 31.342 19.1564 31.7072 19.1564H33.0283C33.3929 19.1564 33.6889 19.453 33.6889 19.8169V21.8501Z" fill="#4A0506"/>
<path fill-rule="evenodd" clip-rule="evenodd" d="M21.7854 1.32153C21.7794 1.32153 21.7728 1.32153 21.7675 1.32153C19.6485 1.32285 17.4311 1.54348 15.1753 1.97811C9.06266 3.1552 3.74464 5.79142 1.94202 8.53796C1.40962 9.34844 1.21938 10.1167 1.37593 10.8201C1.65336 12.0798 2.9903 12.8929 4.06302 13.354C7.22834 14.7021 12.516 14.9023 17.8584 13.8765C20.2265 13.4207 22.4373 12.7714 24.4275 11.9477C28.7706 10.1543 31.5528 7.75522 31.7021 5.68045C31.7021 5.6613 31.7021 5.64082 31.7028 5.62827C31.716 5.40897 31.7008 5.21015 31.6598 5.03642C31.6592 5.03312 31.6585 5.02982 31.6572 5.02585C31.1651 2.80907 27.1985 1.32153 21.7854 1.32153Z" fill="#70B7E5"/>
<path fill-rule="evenodd" clip-rule="evenodd" d="M11.2286 15.855C8.2231 15.855 5.54658 15.4217 3.54316 14.5683C1.59588 13.7314 0.400955 12.5338 0.0858767 11.105C-0.150597 10.0409 0.10173 8.93251 0.837574 7.81223C2.85487 4.73939 8.38427 1.94001 14.9256 0.680359C17.2633 0.230529 19.5646 0.00132108 21.7662 0C21.7728 0 21.7801 0 21.7867 0C28.0189 0 32.2919 1.81319 32.9459 4.73411C33.0146 5.02408 33.041 5.34048 33.0232 5.67538C33.0232 5.69652 33.0232 5.71832 33.0225 5.73219C32.8626 8.3618 29.8387 11.1414 24.9328 13.1673C22.8601 14.0253 20.564 14.7004 18.1081 15.1727C15.7315 15.6298 13.3945 15.855 11.2286 15.855ZM21.7853 1.3215C21.7794 1.3215 21.7728 1.3215 21.7675 1.3215C19.6485 1.32282 17.431 1.54344 15.1753 1.97808C9.06261 3.15516 3.74458 5.79139 1.94196 8.53792C1.40957 9.34841 1.21933 10.1166 1.37588 10.8201C1.65331 12.0798 2.99024 12.8929 4.06297 13.3539C7.22828 14.7021 12.5159 14.9022 17.8584 13.8764C20.2264 13.4207 22.4373 12.7713 24.4275 11.9476C28.7706 10.1543 31.5528 7.75518 31.702 5.68042C31.702 5.66126 31.702 5.64078 31.7027 5.62823C31.7159 5.40893 31.7007 5.21011 31.6598 5.03639C31.6591 5.03308 31.6584 5.02978 31.6571 5.02582C31.165 2.80904 27.1985 1.3215 21.7853 1.3215Z" fill="#4A0506"/>
<path fill-rule="evenodd" clip-rule="evenodd" d="M31.6598 5.03636C31.6591 5.03305 31.6584 5.02975 31.6571 5.02579C31.4345 4.02242 30.4946 3.17099 29.0361 2.53687C29.3644 2.89884 29.5824 3.29187 29.6755 3.71131C29.6768 3.71461 29.6775 3.71791 29.6781 3.72188C29.7191 3.8956 29.7343 4.09442 29.7211 4.31372C29.7204 4.32627 29.7204 4.34609 29.7204 4.36591C29.5711 6.44133 26.7889 8.83976 22.4459 10.6331C20.455 11.4575 18.2448 12.1061 15.8768 12.5619C10.533 13.5877 5.24732 13.3883 2.08068 12.0394C2.06615 12.0328 2.0503 12.0249 2.03577 12.0189C2.59128 12.6227 3.37931 13.0613 4.06231 13.3546C7.22895 14.7034 12.5146 14.9029 17.8584 13.8771C20.2264 13.4213 22.4373 12.772 24.4275 11.9483C28.7706 10.1549 31.5528 7.75581 31.702 5.68105C31.702 5.66189 31.702 5.64141 31.7027 5.62886C31.7159 5.4089 31.7007 5.21008 31.6598 5.03636Z" fill="#4E9CD5"/>
<path fill-rule="evenodd" clip-rule="evenodd" d="M16.5142 7.03977C16.2004 7.03977 15.9223 6.81584 15.8649 6.49614C15.7169 5.67112 15.2003 5.13476 14.3575 4.48743C14.0682 4.26549 14.014 3.85067 14.236 3.56135C14.4579 3.27203 14.8727 3.21787 15.162 3.43981C16.0016 4.08516 16.9178 4.88838 17.1648 6.26231C17.2295 6.62098 16.9904 6.96446 16.6311 7.0292C16.5921 7.03646 16.5531 7.03977 16.5142 7.03977Z" fill="#4A0506"/>
<rect x="3.9646" y="34.3484" width="27.7428" height="6.60542" fill="#DE333F"/>
<path fill-rule="evenodd" clip-rule="evenodd" d="M32.3678 42.2752H3.30397C2.93936 42.2752 2.64343 41.9799 2.64343 41.6146V33.6881C2.64343 33.3229 2.93936 33.0276 3.30397 33.0276H32.3678C32.7331 33.0276 33.0284 33.3229 33.0284 33.6881V41.6146C33.0284 41.9799 32.7331 42.2752 32.3678 42.2752ZM3.96455 40.9539H31.7073V34.3485H3.96455V40.9539Z" fill="#4A0506"/>
<rect x="28.4045" y="34.3484" width="1.32108" height="6.60542" fill="#C61C31"/>
<path fill-rule="evenodd" clip-rule="evenodd" d="M15.8544 34.3484V36.9139C15.8544 38.0507 14.9329 38.9722 13.7961 38.9722H3.9646V40.9538H16.5149V38.9722V34.3484H15.8544Z" fill="#C61C31"/>
<path fill-rule="evenodd" clip-rule="evenodd" d="M27.0833 50.2017V33.6881C27.0833 33.3235 26.7874 33.0276 26.4228 33.0276H17.7228C17.7954 33.2337 17.8357 33.4563 17.8357 33.6881V50.2017H27.0833Z" fill="#DE333F"/>
<path fill-rule="evenodd" clip-rule="evenodd" d="M26.423 31.7065H15.8543C14.7618 31.7065 13.8727 32.5956 13.8727 33.6882C13.8727 34.0534 14.1686 34.3487 14.5332 34.3487H16.5149V50.8623V54.8255C16.5149 55.1908 16.8108 55.4861 17.1754 55.4861C17.54 55.4861 17.8359 55.1908 17.8359 54.8255V51.5228H19.157V54.8255C19.157 55.1908 19.4523 55.4861 19.8176 55.4861C20.1828 55.4861 20.4781 55.1908 20.4781 54.8255V51.5228H21.7992V54.8255C21.7992 55.1908 22.0945 55.4861 22.4597 55.4861C22.825 55.4861 23.1203 55.1908 23.1203 54.8255V51.5228H24.4414V54.8255C24.4414 55.1908 24.7366 55.4861 25.1019 55.4861C25.4672 55.4861 25.7624 55.1908 25.7624 54.8255V51.5228H27.0835V54.8255C27.0835 55.1908 27.3788 55.4861 27.7441 55.4861C28.1094 55.4861 28.4046 55.1908 28.4046 54.8255V50.8623V33.6882C28.4046 32.5956 27.5155 31.7065 26.423 31.7065ZM17.8358 33.6881C17.8358 33.5606 17.8212 33.4371 17.7981 33.3162C17.7908 33.2766 17.7776 33.2396 17.7677 33.2006C17.7532 33.1425 17.742 33.083 17.7221 33.0276H26.4228C26.7874 33.0276 27.0833 33.3235 27.0833 33.6881V50.2017H17.8358V33.6881Z" fill="#4A0506"/>
<path fill-rule="evenodd" clip-rule="evenodd" d="M26.4231 33.0276H25.8755V46.899C25.8755 47.9935 24.9884 48.8806 23.8939 48.8806H17.8361V50.2017H27.0837V33.6881C27.0837 33.3235 26.7877 33.0276 26.4231 33.0276Z" fill="#C61C31"/>
<path fill-rule="evenodd" clip-rule="evenodd" d="M31.0467 11.2297V9.49243C30.4529 10.1173 29.727 10.7058 28.9442 11.2297H31.0467Z" fill="#3689C9"/>
</svg>
