<svg width="44" height="35" viewBox="0 0 44 35" fill="none" xmlns="http://www.w3.org/2000/svg">
<path d="M4.90796 3.17139H38.3422V34.0003H4.90796V3.17139Z" fill="#F3AD3D"/>
<path fill-rule="evenodd" clip-rule="evenodd" d="M3.90796 3.17139C3.90796 2.6191 4.35567 2.17139 4.90796 2.17139H38.3422C38.8945 2.17139 39.3422 2.6191 39.3422 3.17139V34.0003C39.3422 34.5526 38.8945 35.0003 38.3422 35.0003H4.90796C4.35567 35.0003 3.90796 34.5526 3.90796 34.0003V3.17139ZM5.90796 4.17139V33.0003H37.3422V4.17139H5.90796Z" fill="#4A0506"/>
<path d="M4.90796 3.17139H38.3422V34.0003H4.90796V3.17139Z" fill="#F3AD3D"/>
<path fill-rule="evenodd" clip-rule="evenodd" d="M6.10352e-05 2.08553C6.10352e-05 0.933723 0.933782 0 2.08559 0H41.1645C42.3163 0 43.2501 0.933724 43.2501 2.08553C43.2501 3.23733 42.3163 4.17105 41.1645 4.17105H39.3422V34.0003C39.3422 34.5526 38.8945 35.0003 38.3422 35.0003H4.90796C4.35567 35.0003 3.90796 34.5526 3.90796 34.0003V4.17105H2.08559C0.933779 4.17105 6.10352e-05 3.23733 6.10352e-05 2.08553ZM14.7632 4.17139H5.90796V33.0003H37.3422V4.17139H28.4869V16.6319C28.4869 17.1842 28.0392 17.6319 27.4869 17.6319H15.7632C15.211 17.6319 14.7632 17.1842 14.7632 16.6319V4.17139Z" fill="#4A0506"/>
<path d="M30.5264 25.75H35.7369V30.9605H30.5264V25.75Z" fill="white"/>
<path fill-rule="evenodd" clip-rule="evenodd" d="M29.5264 25.75C29.5264 25.1977 29.9741 24.75 30.5264 24.75H35.7369C36.2892 24.75 36.7369 25.1977 36.7369 25.75V30.9605C36.7369 31.5128 36.2892 31.9605 35.7369 31.9605H30.5264C29.9741 31.9605 29.5264 31.5128 29.5264 30.9605V25.75ZM31.5264 26.75V29.9605H34.7369V26.75H31.5264Z" fill="#4A0506"/>
</svg>
