<svg width="40" height="38" viewBox="0 0 40 38" fill="none" xmlns="http://www.w3.org/2000/svg">
<rect x="4.87195" y="16.564" width="30.2051" height="16.5641" fill="#B9E5FB"/>
<path fill-rule="evenodd" clip-rule="evenodd" d="M10.2309 22.8973C11.0381 22.8973 11.6924 22.243 11.6924 21.4358C11.6924 20.6286 11.0381 19.9742 10.2309 19.9742C9.4237 19.9742 8.76935 20.6286 8.76935 21.4358C8.76935 22.243 9.4237 22.8973 10.2309 22.8973Z" fill="#FFCB5B"/>
<path fill-rule="evenodd" clip-rule="evenodd" d="M10.2309 23.8717C8.88773 23.8717 7.79498 22.7789 7.79498 21.4358C7.79498 20.0926 8.88773 18.9999 10.2309 18.9999C11.574 18.9999 12.6668 20.0926 12.6668 21.4358C12.6668 22.7789 11.574 23.8717 10.2309 23.8717ZM10.2309 19.9742C9.4251 19.9742 8.76936 20.63 8.76936 21.4358C8.76936 22.2416 9.4251 22.8973 10.2309 22.8973C11.0367 22.8973 11.6924 22.2416 11.6924 21.4358C11.6924 20.63 11.0367 19.9742 10.2309 19.9742Z" fill="#4A0506"/>
<path fill-rule="evenodd" clip-rule="evenodd" d="M4.58647 34.1024L1.66339 37.0255H38.2856L35.3626 34.1024H4.58647Z" fill="white"/>
<path fill-rule="evenodd" clip-rule="evenodd" d="M39.4617 37.9998H0.487333C0.290512 37.9998 0.112692 37.8815 0.0371789 37.6993C-0.0383339 37.5171 0.00356349 37.3076 0.142897 37.1682L4.04033 33.2708C4.13143 33.1792 4.25567 33.1281 4.38477 33.1281H35.5643C35.6938 33.1281 35.8176 33.1792 35.9087 33.2708L39.8061 37.1682C39.9455 37.3076 39.9874 37.5171 39.9118 37.6993C39.8368 37.8815 39.6585 37.9998 39.4617 37.9998ZM1.66336 37.0255H38.2856L35.3625 34.1024H4.58644L1.66336 37.0255Z" fill="#4A0506"/>
<path fill-rule="evenodd" clip-rule="evenodd" d="M3.89756 33.4135V16.2784L0.974487 13.3553V36.3366L3.89756 33.4135Z" fill="white"/>
<path fill-rule="evenodd" clip-rule="evenodd" d="M0.487424 37.9999C0.424577 37.9999 0.361244 37.9882 0.300834 37.9629C0.119116 37.8879 0.000244141 37.7095 0.000244141 37.5127V12.1794C0.000244141 11.9826 0.119116 11.8048 0.300834 11.7292C0.483526 11.6537 0.692039 11.6951 0.831859 11.835L4.7293 15.7324C4.82088 15.8235 4.87204 15.9477 4.87204 16.0768V33.6153C4.87204 33.7449 4.82088 33.8686 4.7293 33.9597L0.831859 37.8572C0.738808 37.9502 0.61409 37.9999 0.487424 37.9999ZM0.974489 13.3553V36.3366L3.89757 33.4135V16.2784L0.974489 13.3553ZM4.38475 33.6153H4.38962H4.38475Z" fill="#4A0506"/>
<path fill-rule="evenodd" clip-rule="evenodd" d="M38.9745 36.3366V13.3553L36.0514 16.2784V33.4135L38.9745 36.3366Z" fill="white"/>
<path fill-rule="evenodd" clip-rule="evenodd" d="M39.4616 37.9998C39.335 37.9998 39.2103 37.9501 39.1172 37.8571L35.2198 33.9597C35.1282 33.8685 35.077 33.7448 35.077 33.6152V16.0768C35.077 15.9476 35.1282 15.8234 35.2198 15.7323L39.1172 11.8349C39.2565 11.6955 39.466 11.6541 39.6482 11.7292C39.8304 11.8047 39.9488 11.9825 39.9488 12.1793V37.5126C39.9488 37.7095 39.8304 37.8878 39.6482 37.9628C39.5878 37.9881 39.5245 37.9998 39.4616 37.9998ZM36.0514 33.4136L38.9745 36.3367V13.3554L36.0514 16.2785V33.4136Z" fill="#4A0506"/>
<path fill-rule="evenodd" clip-rule="evenodd" d="M35.3626 15.5896L38.2856 12.6665H1.66339L4.58647 15.5896H35.3626Z" fill="white"/>
<path fill-rule="evenodd" clip-rule="evenodd" d="M35.5643 16.5642H4.38477C4.25567 16.5642 4.13143 16.513 4.04033 16.4214L0.142897 12.524C0.00356349 12.3847 -0.0383339 12.1752 0.0371789 11.993C0.112692 11.8113 0.290512 11.6924 0.487333 11.6924H39.4617C39.6585 11.6924 39.8368 11.8113 39.9118 11.993C39.9874 12.1752 39.9455 12.3847 39.8061 12.524L35.9087 16.4214C35.8176 16.513 35.6938 16.5642 35.5643 16.5642ZM4.58644 15.5895H35.3625L38.2856 12.6664H1.66336L4.58644 15.5895Z" fill="#4A0506"/>
<path fill-rule="evenodd" clip-rule="evenodd" d="M19.1224 28.6319C18.4662 29.0426 17.6458 29.1157 16.9267 28.8282L11.3826 26.6106C10.9792 26.4489 10.5296 26.4757 10.1471 26.6808L4.87195 29.522V33.1281H35.0771V26.0221L34.6912 25.6362C34.2669 25.2119 33.635 25.0896 33.0816 25.3259L28.013 27.4982C27.5726 27.6873 27.0893 27.7423 26.6182 27.6556L22.578 26.9219C22.2189 26.8552 21.8521 26.9268 21.5418 27.1202L19.1224 28.6319Z" fill="#71BA57"/>
<path fill-rule="evenodd" clip-rule="evenodd" d="M10.988 20.1914C11.1234 20.4126 11.2052 20.6703 11.2052 20.9485C11.2052 21.7557 10.551 22.41 9.74371 22.41C9.46553 22.41 9.20781 22.3282 8.98663 22.1927C9.24289 22.6137 9.70181 22.8972 10.2309 22.8972C11.0381 22.8972 11.6924 22.2429 11.6924 21.4357C11.6924 20.9066 11.4089 20.4477 10.988 20.1914Z" fill="#F6B545"/>
<path fill-rule="evenodd" clip-rule="evenodd" d="M10.7181 31.6665C8.51849 31.6665 6.46113 31.8921 4.87195 32.3052V33.128H18.6099C17.6502 32.466 14.94 31.6665 10.7181 31.6665Z" fill="#368ACA"/>
<path fill-rule="evenodd" clip-rule="evenodd" d="M4.87195 29.522L10.1476 26.6812C10.5301 26.4761 10.9797 26.4493 11.3831 26.6111L16.9272 28.8287C17.6463 29.1161 18.4667 29.0426 19.1229 28.6324L21.5423 27.1206C21.8526 26.9272 22.2194 26.8556 22.5785 26.9224L26.6187 27.6561C27.0903 27.7428 27.5731 27.6872 28.0135 27.4987L33.0821 25.3264C33.6355 25.0901 34.2674 25.2124 34.6917 25.6367L35.0771 26.0221V24.6916C34.3911 24.1971 33.4957 24.0889 32.6982 24.4304L27.6291 26.6028C27.3645 26.7163 27.0761 26.748 26.7921 26.6973L22.7524 25.9631C22.1537 25.8535 21.5418 25.9709 21.0254 26.2939L18.606 27.8061C18.2119 28.0521 17.7194 28.0965 17.2887 27.9235L11.7446 25.7059C11.0728 25.4365 10.322 25.4793 9.68479 25.8228L4.87195 28.4151V29.522Z" fill="#4A0506"/>
<path fill-rule="evenodd" clip-rule="evenodd" d="M32.154 25.9856C32.154 24.8183 31.8397 23.6992 31.2459 22.7478C31.1119 22.5329 30.9102 22.4102 30.6924 22.4102C30.4747 22.4102 30.273 22.5329 30.139 22.7473C29.5451 23.6992 29.2309 24.8183 29.2309 25.9856C29.2309 26.2866 29.2523 26.5887 29.2942 26.8844C29.4384 27.8973 30.137 28.2563 30.6924 28.2563C31.2478 28.2563 31.9464 27.8973 32.0906 26.8844C32.1325 26.5887 32.154 26.2866 32.154 25.9856Z" fill="#71BA57"/>
<path fill-rule="evenodd" clip-rule="evenodd" d="M31.2459 22.7472C31.1475 22.5889 31.0116 22.4817 30.86 22.4359C31.3862 23.3489 31.6668 24.4017 31.6668 25.4983C31.6668 25.7994 31.6454 26.1015 31.6035 26.3972C31.4593 27.41 30.7607 27.7691 30.2053 27.7691C29.9904 27.7691 29.7546 27.7135 29.5374 27.5888C29.8258 28.0662 30.2944 28.2562 30.6925 28.2562C31.2478 28.2562 31.9465 27.8972 32.0907 26.8843C32.1326 26.5891 32.154 26.2866 32.154 25.9855C32.154 24.8182 31.8398 23.6992 31.2459 22.7472Z" fill="#50A84A"/>
<path fill-rule="evenodd" clip-rule="evenodd" d="M32.0726 22.2318C31.7613 21.733 31.2459 21.4358 30.6924 21.4358C30.139 21.4358 29.6236 21.733 29.3122 22.2318C28.6214 23.3377 28.2565 24.6356 28.2565 25.9856C28.2565 26.3324 28.2814 26.6808 28.3291 27.0213C28.5123 28.306 29.34 28.9871 30.2052 29.1722V30.6922C30.2052 30.9616 30.423 31.1794 30.6924 31.1794C30.9618 31.1794 31.1796 30.9616 31.1796 30.6922V29.1722C32.0448 28.9871 32.8726 28.306 33.0557 27.0213C33.1035 26.6808 33.1283 26.3324 33.1283 25.9856C33.1283 24.6356 32.7634 23.3377 32.0726 22.2318ZM32.0906 26.8845C31.9464 27.8974 31.2478 28.2564 30.6924 28.2564C30.1371 28.2564 29.4384 27.8974 29.2942 26.8845C29.2523 26.5888 29.2309 26.2867 29.2309 25.9857C29.2309 24.8184 29.5451 23.6993 30.139 22.7479C30.273 22.533 30.4747 22.4103 30.6924 22.4103C30.9102 22.4103 31.1119 22.533 31.2459 22.7474C31.8397 23.6993 32.154 24.8184 32.154 25.9857C32.154 26.2867 32.1325 26.5888 32.0906 26.8845Z" fill="#4A0506"/>
<path fill-rule="evenodd" clip-rule="evenodd" d="M25.3335 25.4048C25.3335 24.4076 25.0996 23.4522 24.6563 22.6421C24.5759 22.4949 24.4678 22.4102 24.3591 22.4102C24.2505 22.4102 24.1423 22.4949 24.0619 22.6425C23.6186 23.4527 23.3848 24.4081 23.3848 25.4048C23.3848 25.6611 23.4004 25.9203 23.432 26.1746C23.5338 26.9916 23.9952 27.282 24.3591 27.282C24.723 27.282 25.1844 26.9916 25.2862 26.1741C25.3179 25.9203 25.3335 25.6616 25.3335 25.4048Z" fill="#71BA57"/>
<path fill-rule="evenodd" clip-rule="evenodd" d="M25.5118 22.1753C25.2594 21.712 24.8283 21.4358 24.3591 21.4358C23.89 21.4358 23.4588 21.712 23.2065 22.1753C22.6857 23.1283 22.4104 24.2454 22.4104 25.4048C22.4104 25.7006 22.4289 26.0002 22.465 26.2944C22.6009 27.3828 23.2113 27.981 23.8719 28.1774V29.2307C23.8719 29.5001 24.0897 29.7178 24.3591 29.7178C24.6285 29.7178 24.8463 29.5001 24.8463 29.2307V28.1774C25.5064 27.981 26.1173 27.3828 26.2533 26.2935C26.2893 26.0002 26.3078 25.701 26.3078 25.4048C26.3078 24.2454 26.0326 23.1283 25.5118 22.1753ZM25.2862 26.1742C25.1844 26.9917 24.723 27.2821 24.3591 27.2821C23.9952 27.2821 23.5338 26.9917 23.432 26.1752C23.4003 25.9204 23.3847 25.6617 23.3847 25.4049C23.3847 24.4077 23.6186 23.4523 24.0619 22.6422C24.1423 22.495 24.2505 22.4103 24.3591 22.4103C24.4677 22.4103 24.5759 22.495 24.6563 22.6426C25.0996 23.4528 25.3335 24.4082 25.3335 25.4049C25.3335 25.6617 25.3179 25.9204 25.2862 26.1742Z" fill="#4A0506"/>
<path fill-rule="evenodd" clip-rule="evenodd" d="M28.7437 26.9599C28.7437 25.7926 28.4295 24.6736 27.8356 23.7221C27.7016 23.5073 27.4999 23.3845 27.2822 23.3845C27.0644 23.3845 26.8627 23.5073 26.7287 23.7216C26.1348 24.6736 25.8206 25.7926 25.8206 26.9599C25.8206 27.261 25.8421 27.5631 25.884 27.8588C26.0282 28.8716 26.7268 29.2307 27.2822 29.2307C27.8375 29.2307 28.5362 28.8716 28.6804 27.8588C28.7223 27.5631 28.7437 27.261 28.7437 26.9599Z" fill="#71BA57"/>
<path fill-rule="evenodd" clip-rule="evenodd" d="M28.6624 23.2062C28.3511 22.7073 27.8356 22.4102 27.2822 22.4102C26.7288 22.4102 26.2133 22.7073 25.902 23.2062C25.2112 24.3121 24.8463 25.61 24.8463 26.9599C24.8463 27.3068 24.8712 27.6551 24.9189 27.9957C25.1021 29.2804 25.9298 29.9614 26.795 30.1466V31.6666C26.795 31.936 27.0128 32.1537 27.2822 32.1537C27.5516 32.1537 27.7694 31.936 27.7694 31.6666V30.1466C28.6346 29.9614 29.4623 29.2804 29.6455 27.9957C29.6933 27.6551 29.7181 27.3068 29.7181 26.9599C29.7181 25.61 29.3532 24.3121 28.6624 23.2062ZM28.6804 27.8589C28.5362 28.8717 27.8376 29.2308 27.2822 29.2308C26.7268 29.2308 26.0282 28.8717 25.884 27.8589C25.8421 27.5632 25.8206 27.2611 25.8206 26.96C25.8206 25.7927 26.1349 24.6737 26.7287 23.7222C26.8627 23.5074 27.0644 23.3846 27.2822 23.3846C27.5 23.3846 27.7016 23.5074 27.8356 23.7217C28.4295 24.6737 28.7437 25.7927 28.7437 26.96C28.7437 27.2611 28.7223 27.5632 28.6804 27.8589Z" fill="#4A0506"/>
<path fill-rule="evenodd" clip-rule="evenodd" d="M27.8356 23.7216C27.7372 23.5633 27.6013 23.4561 27.4498 23.4103C27.9759 24.3233 28.2565 25.376 28.2565 26.4727C28.2565 26.7738 28.2351 27.0758 28.1932 27.3715C28.049 28.3844 27.3504 28.7434 26.795 28.7434C26.5802 28.7434 26.3444 28.6879 26.1271 28.5632C26.4155 29.0406 26.8842 29.2306 27.2822 29.2306C27.8376 29.2306 28.5362 28.8716 28.6804 27.8587C28.7223 27.5635 28.7437 27.2609 28.7437 26.9599C28.7437 25.7926 28.4295 24.6735 27.8356 23.7216Z" fill="#50A84A"/>
<path fill-rule="evenodd" clip-rule="evenodd" d="M10.7181 30.6921C8.54869 30.6921 6.50351 30.9075 4.87195 31.3016V32.3052C6.46113 31.8921 8.51849 31.6665 10.7181 31.6665C14.94 31.6665 17.6502 32.466 18.6099 33.128H19.8552C19.1356 31.5281 14.9093 30.6921 10.7181 30.6921Z" fill="#4A0506"/>
<rect x="29.2309" y="12.6666" width="1.94872" height="2.92308" fill="#C3D4DD"/>
<path fill-rule="evenodd" clip-rule="evenodd" d="M28.3403 18.5128H25.8206V16.5641H30.6924L29.0292 18.2273C28.8465 18.41 28.5985 18.5128 28.3403 18.5128Z" fill="#8FC9E3"/>
<path fill-rule="evenodd" clip-rule="evenodd" d="M11.2053 17.5385H26.3078V16.0769C26.3078 15.2712 26.9636 14.6154 27.7694 14.6154H29.2309V3.89746C29.2309 3.62902 29.0126 3.41028 28.7437 3.41028H11.2053C10.9368 3.41028 10.7181 3.62902 10.7181 3.89746V17.0513C10.7181 17.3197 10.9368 17.5385 11.2053 17.5385Z" fill="white"/>
<path fill-rule="evenodd" clip-rule="evenodd" d="M26.795 18.5128H11.2053C10.3995 18.5128 9.74371 17.8571 9.74371 17.0513V3.89745C9.74371 3.09166 10.3995 2.43591 11.2053 2.43591H28.7437C29.5495 2.43591 30.2053 3.09166 30.2053 3.89745V15.1026C30.2053 15.3715 29.9875 15.5898 29.7181 15.5898H27.7694C27.5004 15.5898 27.2822 15.8085 27.2822 16.0769V18.0257C27.2822 18.2946 27.0644 18.5128 26.795 18.5128ZM11.2053 3.41038C10.9368 3.41038 10.7181 3.62912 10.7181 3.89756V17.0514C10.7181 17.3198 10.9368 17.5386 11.2053 17.5386H26.3078V16.077C26.3078 15.2713 26.9636 14.6155 27.7694 14.6155H29.2309V3.89756C29.2309 3.62912 29.0126 3.41038 28.7437 3.41038H11.2053Z" fill="#4A0506"/>
<path fill-rule="evenodd" clip-rule="evenodd" d="M29.2309 3.89746C29.2309 3.62902 29.0126 3.41028 28.7437 3.41028H11.2053C10.9368 3.41028 10.7181 3.62902 10.7181 3.89746V5.359H29.2309V3.89746Z" fill="#DE333F"/>
<path fill-rule="evenodd" clip-rule="evenodd" d="M14.1284 10.718C14.6665 10.718 15.1027 10.2818 15.1027 9.74365C15.1027 9.20552 14.6665 8.76929 14.1284 8.76929C13.5902 8.76929 13.154 9.20552 13.154 9.74365C13.154 10.2818 13.5902 10.718 14.1284 10.718Z" fill="#8FAAC0"/>
<path fill-rule="evenodd" clip-rule="evenodd" d="M18.0258 10.718C18.5639 10.718 19.0001 10.2818 19.0001 9.74365C19.0001 9.20552 18.5639 8.76929 18.0258 8.76929C17.4876 8.76929 17.0514 9.20552 17.0514 9.74365C17.0514 10.2818 17.4876 10.718 18.0258 10.718Z" fill="#8FAAC0"/>
<path fill-rule="evenodd" clip-rule="evenodd" d="M21.9232 10.718C22.4613 10.718 22.8976 10.2818 22.8976 9.74365C22.8976 9.20552 22.4613 8.76929 21.9232 8.76929C21.3851 8.76929 20.9489 9.20552 20.9489 9.74365C20.9489 10.2818 21.3851 10.718 21.9232 10.718Z" fill="#8FAAC0"/>
<path fill-rule="evenodd" clip-rule="evenodd" d="M25.8207 10.718C26.3588 10.718 26.795 10.2818 26.795 9.74365C26.795 9.20552 26.3588 8.76929 25.8207 8.76929C25.2825 8.76929 24.8463 9.20552 24.8463 9.74365C24.8463 10.2818 25.2825 10.718 25.8207 10.718Z" fill="#8FAAC0"/>
<path fill-rule="evenodd" clip-rule="evenodd" d="M14.1284 14.1282C14.6665 14.1282 15.1027 13.6919 15.1027 13.1538C15.1027 12.6157 14.6665 12.1794 14.1284 12.1794C13.5902 12.1794 13.154 12.6157 13.154 13.1538C13.154 13.6919 13.5902 14.1282 14.1284 14.1282Z" fill="#8FAAC0"/>
<path fill-rule="evenodd" clip-rule="evenodd" d="M18.0258 14.1282C18.5639 14.1282 19.0001 13.6919 19.0001 13.1538C19.0001 12.6157 18.5639 12.1794 18.0258 12.1794C17.4876 12.1794 17.0514 12.6157 17.0514 13.1538C17.0514 13.6919 17.4876 14.1282 18.0258 14.1282Z" fill="#DE333F"/>
<path fill-rule="evenodd" clip-rule="evenodd" d="M21.9232 14.1282C22.4613 14.1282 22.8976 13.6919 22.8976 13.1538C22.8976 12.6157 22.4613 12.1794 21.9232 12.1794C21.3851 12.1794 20.9489 12.6157 20.9489 13.1538C20.9489 13.6919 21.3851 14.1282 21.9232 14.1282Z" fill="#DE333F"/>
<path fill-rule="evenodd" clip-rule="evenodd" d="M25.8207 14.1282C26.3588 14.1282 26.795 13.6919 26.795 13.1538C26.795 12.6157 26.3588 12.1794 25.8207 12.1794C25.2825 12.1794 24.8463 12.6157 24.8463 13.1538C24.8463 13.6919 25.2825 14.1282 25.8207 14.1282Z" fill="#DE333F"/>
<path fill-rule="evenodd" clip-rule="evenodd" d="M27.7693 15.5897C27.5004 15.5897 27.2822 15.8085 27.2822 16.0769V16.8496L28.542 15.5897H27.7693Z" fill="#B1C4D4"/>
<path fill-rule="evenodd" clip-rule="evenodd" d="M26.795 18.5128C26.7321 18.5128 26.6688 18.5006 26.6084 18.4758C26.4262 18.4003 26.3078 18.2224 26.3078 18.0256V16.0769C26.3078 15.2711 26.9635 14.6154 27.7693 14.6154H29.7181C29.9149 14.6154 30.0932 14.7342 30.1682 14.9159C30.2437 15.0982 30.2018 15.3076 30.0625 15.447L27.1394 18.37C27.0464 18.4631 26.9216 18.5128 26.795 18.5128ZM27.7694 15.5896C27.5004 15.5896 27.2822 15.8084 27.2822 16.0768V16.8495L28.542 15.5896H27.7694Z" fill="#4A0506"/>
<path fill-rule="evenodd" clip-rule="evenodd" d="M16.077 3.89744C16.3455 3.89744 16.5642 3.6787 16.5642 3.41026V1.46154C16.5642 1.19311 16.3455 0.974365 16.077 0.974365C15.8086 0.974365 15.5898 1.19311 15.5898 1.46154V3.41026C15.5898 3.6787 15.8086 3.89744 16.077 3.89744Z" fill="white"/>
<path fill-rule="evenodd" clip-rule="evenodd" d="M16.0771 4.87179C15.2713 4.87179 14.6155 4.21605 14.6155 3.41026V1.46154C14.6155 0.655744 15.2713 0 16.0771 0C16.8829 0 17.5386 0.655744 17.5386 1.46154V3.41026C17.5386 4.21605 16.8829 4.87179 16.0771 4.87179ZM16.0771 0.974359C15.8086 0.974359 15.5899 1.1931 15.5899 1.46154V3.41026C15.5899 3.67869 15.8086 3.89744 16.0771 3.89744C16.3455 3.89744 16.5642 3.67869 16.5642 3.41026V1.46154C16.5642 1.1931 16.3455 0.974359 16.0771 0.974359Z" fill="#4A0506"/>
<path fill-rule="evenodd" clip-rule="evenodd" d="M23.8719 3.89744C24.1409 3.89744 24.3591 3.6787 24.3591 3.41026V1.46154C24.3591 1.19311 24.1409 0.974365 23.8719 0.974365C23.603 0.974365 23.3848 1.19311 23.3848 1.46154V3.41026C23.3848 3.6787 23.603 3.89744 23.8719 3.89744Z" fill="white"/>
<path fill-rule="evenodd" clip-rule="evenodd" d="M23.8719 4.87179C23.0661 4.87179 22.4104 4.21605 22.4104 3.41026V1.46154C22.4104 0.655744 23.0661 0 23.8719 0C24.6777 0 25.3335 0.655744 25.3335 1.46154V3.41026C25.3335 4.21605 24.6777 4.87179 23.8719 4.87179ZM23.8719 0.974359C23.603 0.974359 23.3847 1.1931 23.3847 1.46154V3.41026C23.3847 3.67869 23.603 3.89744 23.8719 3.89744C24.1408 3.89744 24.3591 3.67869 24.3591 3.41026V1.46154C24.3591 1.1931 24.1408 0.974359 23.8719 0.974359Z" fill="#4A0506"/>
<rect x="10.7181" y="5.35901" width="18.5128" height="0.974359" fill="#4A0506"/>
</svg>
