<svg width="48" height="48" viewBox="0 0 48 48" fill="none" xmlns="http://www.w3.org/2000/svg">
<path fill-rule="evenodd" clip-rule="evenodd" d="M33.6 13.1997V28.7997H14.4V13.1997H33.6Z" fill="#368ACA"/>
<path fill-rule="evenodd" clip-rule="evenodd" d="M33.9516 29.9998L37.5516 33.5998H10.4484L14.0484 29.9998H33.9516Z" fill="white"/>
<path fill-rule="evenodd" clip-rule="evenodd" d="M8.99998 34.7998H39C39.2424 34.7998 39.4614 34.654 39.5544 34.4296C39.6474 34.2052 39.5958 33.9472 39.4242 33.7756L34.6242 28.9756C34.512 28.8628 34.359 28.7998 34.2 28.7998H13.8C13.6404 28.7998 13.488 28.8628 13.3758 28.9756L8.57579 33.7756C8.40419 33.9472 8.35258 34.2052 8.44559 34.4296C8.53798 34.654 8.75759 34.7998 8.99998 34.7998ZM37.5515 33.6H10.4483L14.0483 30H33.9515L37.5515 33.6Z" fill="#4A0506"/>
<path fill-rule="evenodd" clip-rule="evenodd" d="M14.0484 11.9997L10.4484 8.39966H37.5516L33.9516 11.9997H14.0484Z" fill="white"/>
<path fill-rule="evenodd" clip-rule="evenodd" d="M13.8001 13.2002H34.2001C34.3591 13.2002 34.5121 13.1372 34.6243 13.0244L39.4243 8.2244C39.5959 8.0528 39.6475 7.7948 39.5545 7.5704C39.4615 7.3466 39.2425 7.2002 39.0001 7.2002H9.00011C8.75771 7.2002 8.53811 7.3466 8.44571 7.5704C8.35271 7.7948 8.40431 8.0528 8.57591 8.2244L13.3759 13.0244C13.4881 13.1372 13.6405 13.2002 13.8001 13.2002ZM33.9516 11.9995H14.0484L10.4484 8.39951H37.5516L33.9516 11.9995Z" fill="#4A0506"/>
<path fill-rule="evenodd" clip-rule="evenodd" d="M34.8 29.1512V12.848L38.4 9.24805V32.7512L34.8 29.1512Z" fill="white"/>
<path fill-rule="evenodd" clip-rule="evenodd" d="M39 34.8002C39.0774 34.8002 39.1554 34.7858 39.2298 34.7546C39.4536 34.6622 39.6 34.4426 39.6 34.2002V7.8002C39.6 7.5578 39.4536 7.3388 39.2298 7.2458C39.006 7.1528 38.748 7.2038 38.5758 7.376L33.7758 12.176C33.663 12.2882 33.6 12.4412 33.6 12.6002V29.4002C33.6 29.5598 33.663 29.7122 33.7758 29.8244L38.5758 34.6244C38.6904 34.739 38.844 34.8002 39 34.8002ZM38.4 9.24819V32.7514L34.8 29.1514V12.8482L38.4 9.24819Z" fill="#4A0506"/>
<path fill-rule="evenodd" clip-rule="evenodd" d="M9.60001 32.7512V9.24805L13.2 12.848V29.1512L9.60001 32.7512Z" fill="white"/>
<path fill-rule="evenodd" clip-rule="evenodd" d="M9.00002 34.7996C9.15602 34.7996 9.30962 34.7384 9.42422 34.6238L14.2242 29.8238C14.337 29.7116 14.4 29.5592 14.4 29.3996V12.5996C14.4 12.4406 14.337 12.2876 14.2242 12.1754L9.42422 7.37535C9.25202 7.20375 8.99402 7.15275 8.77022 7.24515C8.54582 7.33815 8.40002 7.55715 8.40002 7.79955V34.1996C8.40002 34.442 8.54582 34.6616 8.77022 34.754C8.84462 34.7852 8.92262 34.7996 9.00002 34.7996ZM13.2 29.1511L9.6 32.7512V9.24795L13.2 12.8479V29.1511Z" fill="#4A0506"/>
<path fill-rule="evenodd" clip-rule="evenodd" d="M28.7999 20.9994C27.8058 20.9994 26.9999 20.1935 26.9999 19.1994C26.9999 18.2053 27.8058 17.3994 28.7999 17.3994C29.794 17.3994 30.5999 18.2053 30.5999 19.1994C30.5999 20.1935 29.794 20.9994 28.7999 20.9994Z" fill="#DE333F"/>
<path fill-rule="evenodd" clip-rule="evenodd" d="M28.7999 22.1997C30.4541 22.1997 31.7999 20.8539 31.7999 19.1997C31.7999 17.5455 30.4541 16.1997 28.7999 16.1997C27.1457 16.1997 25.7999 17.5455 25.7999 19.1997C25.7999 20.8539 27.1457 22.1997 28.7999 22.1997ZM28.7999 17.3995C29.7923 17.3995 30.5999 18.2071 30.5999 19.1995C30.5999 20.1919 29.7923 20.9995 28.7999 20.9995C27.8075 20.9995 26.9999 20.1919 26.9999 19.1995C26.9999 18.2071 27.8075 17.3995 28.7999 17.3995Z" fill="#4A0506"/>
<rect width="3" height="3" transform="matrix(-1 0 0 1 19.8 23.3994)" fill="white"/>
<path fill-rule="evenodd" clip-rule="evenodd" d="M16.1999 27.5997H20.3999C20.7317 27.5997 20.9999 27.3315 20.9999 26.9997V22.7997C20.9999 22.4685 20.7317 22.1997 20.3999 22.1997H16.1999C15.8681 22.1997 15.5999 22.4685 15.5999 22.7997V26.9997C15.5999 27.3315 15.8681 27.5997 16.1999 27.5997ZM19.8 26.3995H16.8V23.3995H19.8V26.3995Z" fill="#4A0506"/>
<path fill-rule="evenodd" clip-rule="evenodd" d="M26.3999 24.5997H31.1999C31.5311 24.5997 31.7999 24.3309 31.7999 23.9997C31.7999 23.6685 31.5311 23.3997 31.1999 23.3997H26.3999C26.0687 23.3997 25.7999 23.6685 25.7999 23.9997C25.7999 24.3309 26.0687 24.5997 26.3999 24.5997Z" fill="#4A0506"/>
<path fill-rule="evenodd" clip-rule="evenodd" d="M19.2 19.8C19.3536 19.8 19.5072 19.7412 19.6242 19.6242L21 18.2484L22.3758 19.6242C22.6104 19.8588 22.9896 19.8588 23.2242 19.6242L24.6 18.2484L25.9758 19.6242C26.2104 19.8588 26.5896 19.8588 26.8242 19.6242C27.0588 19.3896 27.0588 19.0104 26.8242 18.7758L25.0242 16.9758C24.7896 16.7412 24.4104 16.7412 24.1758 16.9758L22.8 18.3516L21.4242 16.9758C21.1896 16.7412 20.8104 16.7412 20.5758 16.9758L18.7758 18.7758C18.5412 19.0104 18.5412 19.3896 18.7758 19.6242C18.8928 19.7412 19.0464 19.8 19.2 19.8Z" fill="#4A0506"/>
<path fill-rule="evenodd" clip-rule="evenodd" d="M31.8 26.3999L29.4 27.5999L31.8 26.3999Z" fill="white"/>
<path fill-rule="evenodd" clip-rule="evenodd" d="M29.4005 28.1994C29.4905 28.1994 29.5823 28.179 29.6681 28.1364L32.0681 26.9364C32.3645 26.7882 32.4845 26.4276 32.3363 26.1312C32.1881 25.8348 31.8281 25.7154 31.5311 25.863L29.1311 27.063C28.8347 27.2112 28.7147 27.5718 28.8629 27.8682C28.9685 28.0782 29.1803 28.1994 29.4005 28.1994Z" fill="#4A0506"/>
<path fill-rule="evenodd" clip-rule="evenodd" d="M15.6 17.9998C15.9318 17.9998 16.2 17.731 16.2 17.3998C16.2 16.0762 17.2764 14.9998 18.6 14.9998C18.9318 14.9998 19.2 14.731 19.2 14.3998C19.2 14.0686 18.9318 13.7998 18.6 13.7998C16.6146 13.7998 15 15.4144 15 17.3998C15 17.731 15.2682 17.9998 15.6 17.9998Z" fill="#4A0506"/>
<path fill-rule="evenodd" clip-rule="evenodd" d="M22.8 27.5997C22.4687 27.5997 22.2 27.331 22.2 26.9997C22.2 26.6683 22.4687 26.3997 22.8 26.3997C23.1314 26.3997 23.4 26.6683 23.4 26.9997C23.4 27.331 23.1314 27.5997 22.8 27.5997Z" fill="#4A0506"/>
<path fill-rule="evenodd" clip-rule="evenodd" d="M22.8 25.7996C22.4687 25.7996 22.2 25.531 22.2 25.1996C22.2 24.8682 22.4687 24.5996 22.8 24.5996C23.1314 24.5996 23.4 24.8682 23.4 25.1996C23.4 25.531 23.1314 25.7996 22.8 25.7996Z" fill="#4A0506"/>
<path fill-rule="evenodd" clip-rule="evenodd" d="M22.8 23.9998C22.4687 23.9998 22.2 23.7312 22.2 23.3998C22.2 23.0684 22.4687 22.7998 22.8 22.7998C23.1314 22.7998 23.4 23.0684 23.4 23.3998C23.4 23.7312 23.1314 23.9998 22.8 23.9998Z" fill="#4A0506"/>
<path fill-rule="evenodd" clip-rule="evenodd" d="M42.6 36.5391V37.7019C32.6952 40.2111 15.3048 40.2111 5.40004 37.7019V36.5391C15.5622 39.0363 32.4372 39.0375 42.6 36.5391Z" fill="#DE333F"/>
<path fill-rule="evenodd" clip-rule="evenodd" d="M24 40.812C31.0998 40.812 38.1996 40.1238 43.3548 38.7462C43.6176 38.676 43.8 38.4378 43.8 38.166V35.766C43.8 35.5794 43.713 35.4036 43.5654 35.2902C43.4178 35.1768 43.2258 35.1372 43.0452 35.1864C33.078 37.8492 14.9227 37.8492 4.95485 35.1864C4.77425 35.1372 4.58225 35.1762 4.43465 35.2902C4.28705 35.4042 4.20005 35.58 4.20005 35.766V38.166C4.20005 38.4378 4.38305 38.676 4.64525 38.7456C9.80045 40.1232 16.9002 40.812 24 40.812ZM42.6001 37.7026C32.6953 40.2118 15.3049 40.2118 5.40006 37.7026V36.5398C15.5623 39.0364 32.4373 39.0376 42.6001 36.5398V37.7026Z" fill="#4A0506"/>
<path fill-rule="evenodd" clip-rule="evenodd" d="M1.20007 38.3493V37.1685C2.26627 36.9777 3.27127 36.7665 4.20007 36.5391V37.7019C3.27787 37.9365 2.27287 38.1531 1.20007 38.3493Z" fill="#DE333F"/>
<path fill-rule="evenodd" clip-rule="evenodd" d="M0.600086 39.6636C0.633686 39.6636 0.667286 39.6606 0.700886 39.6546C2.25489 39.39 3.68649 39.084 4.95489 38.7444C5.21709 38.6754 5.40009 38.4372 5.40009 38.1654V35.7654C5.40009 35.5788 5.31309 35.403 5.16549 35.2896C5.01729 35.1762 4.82529 35.136 4.64529 35.1858C3.41169 35.5152 2.01669 35.8134 0.499286 36.0726C0.211286 36.1212 8.58307e-05 36.3714 8.58307e-05 36.6636V39.0636C8.58307e-05 39.2406 0.0780854 39.408 0.213086 39.5226C0.322286 39.6144 0.459686 39.6636 0.600086 39.6636ZM4.19996 37.7022C3.27776 37.9362 2.27276 38.1528 1.19996 38.349V37.1682C2.26616 36.9774 3.27116 36.7662 4.19996 36.5388V37.7022Z" fill="#4A0506"/>
<path fill-rule="evenodd" clip-rule="evenodd" d="M43.8 37.7026V36.5398C44.7294 36.7672 45.7338 36.9778 46.8 37.1692V38.35C45.7278 38.1532 44.7228 37.9366 43.8 37.7026Z" fill="#DE333F"/>
<path fill-rule="evenodd" clip-rule="evenodd" d="M47.4001 39.6639C47.5405 39.6639 47.6779 39.6147 47.7871 39.5229C47.9221 39.4089 48.0001 39.2409 48.0001 39.0639V36.6639C48.0001 36.3717 47.7889 36.1215 47.5009 36.0729C45.9841 35.8137 44.5885 35.5155 43.3549 35.1861C43.1749 35.1375 42.9823 35.1759 42.8347 35.2899C42.6871 35.4039 42.6001 35.5797 42.6001 35.7657V38.1657C42.6001 38.4375 42.7825 38.6757 43.0453 38.7453C44.3149 39.0843 45.7459 39.3903 47.2993 39.6555C47.3329 39.6615 47.3665 39.6639 47.4001 39.6639ZM46.8001 37.1686V38.3494C45.7279 38.1532 44.7229 37.9366 43.8001 37.7026V36.5398C44.7295 36.7666 45.7339 36.9778 46.8001 37.1686Z" fill="#4A0506"/>
<rect width="15.6" height="1.2" transform="matrix(-1 0 0 1 31.8 3)" fill="#FFCB5B"/>
<path fill-rule="evenodd" clip-rule="evenodd" d="M15.6001 1.8H23.4001V0.6C23.4001 0.2688 23.6689 0 24.0001 0C24.3313 0 24.6001 0.2688 24.6001 0.6V1.8H32.4001C32.7313 1.8 33.0001 2.0688 33.0001 2.4V4.8C33.0001 5.1312 32.7313 5.4 32.4001 5.4H15.6001C15.2683 5.4 15.0001 5.1312 15.0001 4.8V2.4C15.0001 2.0688 15.2683 1.8 15.6001 1.8ZM16.2001 4.2H31.8001V3H16.2001V4.2Z" fill="#4A0506"/>
<path fill-rule="evenodd" clip-rule="evenodd" d="M0.60006 46.8001H3.00006H3.34026C3.59106 46.5613 3.88806 46.4047 4.20006 46.3129V34.0897C3.50346 33.8413 3.00006 33.1813 3.00006 32.4001C3.00006 31.4077 3.80766 30.6001 4.80006 30.6001C5.79246 30.6001 6.60006 31.4077 6.60006 32.4001C6.60006 33.1813 6.09666 33.8413 5.40006 34.0897V46.3129C5.71206 46.4053 6.00846 46.5613 6.25986 46.8001H6.60006H41.4001H41.7403C41.9917 46.5613 42.2881 46.4047 42.6001 46.3129V34.0897C41.9035 33.8413 41.4001 33.1813 41.4001 32.4001C41.4001 31.4077 42.2077 30.6001 43.2001 30.6001C44.1925 30.6001 45.0001 31.4077 45.0001 32.4001C45.0001 33.1813 44.4967 33.8413 43.8001 34.0897V46.3129C44.1121 46.4047 44.4085 46.5613 44.6599 46.8001H45.0001H47.4001C47.7313 46.8001 48.0001 47.0683 48.0001 47.4001C48.0001 47.7319 47.7313 48.0001 47.4001 48.0001H45.0001H44.4001H42.0001H41.4001H6.60006H6.00006H3.60006H3.00006H0.60006C0.268261 48.0001 6.10352e-05 47.7319 6.10352e-05 47.4001C6.10352e-05 47.0683 0.268261 46.8001 0.60006 46.8001ZM43.2001 31.8C42.8695 31.8 42.6001 32.0688 42.6001 32.4C42.6001 32.7312 42.8695 33 43.2001 33C43.5307 33 43.8001 32.7312 43.8001 32.4C43.8001 32.0688 43.5307 31.8 43.2001 31.8ZM4.80006 33C5.13126 33 5.40006 32.7312 5.40006 32.4C5.40006 32.0688 5.13126 31.8 4.80006 31.8C4.46886 31.8 4.20006 32.0688 4.20006 32.4C4.20006 32.7312 4.46886 33 4.80006 33Z" fill="#4A0506"/>
</svg>
