<svg width="43" height="63" viewBox="0 0 43 63" fill="none" xmlns="http://www.w3.org/2000/svg">
<path d="M1 9C1 4.58172 4.58172 1 9 1H33.6667C38.0849 1 41.6667 4.58172 41.6667 9V54C41.6667 58.4183 38.0849 62 33.6667 62H9.00001C4.58173 62 1 58.4183 1 54V9Z" fill="#B9E5FB"/>
<path d="M1 10.0371H41.6667V47.3149H1V10.0371Z" fill="#368ACA"/>
<path fill-rule="evenodd" clip-rule="evenodd" d="M9 0.5C4.30558 0.5 0.5 4.30558 0.5 9V9.53711V47.8149V54C0.5 58.6944 4.30559 62.5 9.00001 62.5H33.6667C38.3611 62.5 42.1667 58.6944 42.1667 54V47.8149V9.53711V9C42.1667 4.30558 38.3611 0.5 33.6667 0.5H9ZM41.1667 9.53711V9C41.1667 4.85787 37.8088 1.5 33.6667 1.5H9C4.85786 1.5 1.5 4.85787 1.5 9V9.53711H41.1667ZM1.5 10.5371V46.8149H41.1667V10.5371H1.5ZM41.1667 47.8149H1.5V54C1.5 58.1421 4.85787 61.5 9.00001 61.5H33.6667C37.8088 61.5 41.1667 58.1421 41.1667 54V47.8149Z" fill="#4A0506"/>
<path d="M19.0741 6.64818C19.0741 6.02431 19.5798 5.51855 20.2037 5.51855H28.1111C28.735 5.51855 29.2408 6.02431 29.2408 6.64818C29.2408 7.27206 28.735 7.77781 28.1111 7.77781H20.2037C19.5798 7.77781 19.0741 7.27206 19.0741 6.64818Z" fill="#1A1717"/>
<path fill-rule="evenodd" clip-rule="evenodd" d="M18.5741 6.64818C18.5741 5.74816 19.3037 5.01855 20.2037 5.01855H28.1111C29.0112 5.01855 29.7408 5.74816 29.7408 6.64818C29.7408 7.5482 29.0112 8.27781 28.1111 8.27781H20.2037C19.3037 8.27781 18.5741 7.5482 18.5741 6.64818ZM20.2037 6.01855C19.856 6.01855 19.5741 6.30045 19.5741 6.64818C19.5741 6.99592 19.856 7.27781 20.2037 7.27781H28.1111C28.4589 7.27781 28.7408 6.99592 28.7408 6.64818C28.7408 6.30045 28.4589 6.01855 28.1111 6.01855H20.2037Z" fill="#4A0506"/>
<path d="M15.6852 54.6578C15.6852 52.4742 17.4553 50.7041 19.6389 50.7041H21.8981C24.0817 50.7041 25.8518 52.4742 25.8518 54.6578C25.8518 56.8414 24.0817 58.6115 21.8981 58.6115H19.6389C17.4553 58.6115 15.6852 56.8414 15.6852 54.6578Z" fill="#F1A12C"/>
<path fill-rule="evenodd" clip-rule="evenodd" d="M15.1852 54.6578C15.1852 52.1981 17.1792 50.2041 19.6389 50.2041H21.8981C24.3579 50.2041 26.3518 52.1981 26.3518 54.6578C26.3518 57.1175 24.3579 59.1115 21.8981 59.1115H19.6389C17.1792 59.1115 15.1852 57.1175 15.1852 54.6578ZM19.6389 51.2041C17.7315 51.2041 16.1852 52.7504 16.1852 54.6578C16.1852 56.5652 17.7315 58.1115 19.6389 58.1115H21.8981C23.8056 58.1115 25.3518 56.5652 25.3518 54.6578C25.3518 52.7504 23.8056 51.2041 21.8981 51.2041H19.6389Z" fill="#4A0506"/>
<path fill-rule="evenodd" clip-rule="evenodd" d="M13.4259 29.2412C10.9304 29.2412 8.90739 31.2642 8.90739 33.7597C8.90739 34.5827 9.12743 35.3544 9.51189 36.019H7.77776C7.15389 36.019 6.64813 36.5247 6.64813 37.1486C6.64813 37.7725 7.15389 38.2782 7.77776 38.2782H13.4259H20.2037H28.1111C30.6066 38.2782 32.6296 36.2552 32.6296 33.7597C32.6296 31.2642 30.6066 29.2412 28.1111 29.2412H13.4259Z" fill="#B9E5FB"/>
<path fill-rule="evenodd" clip-rule="evenodd" d="M13.4259 29.7412C11.2065 29.7412 9.40739 31.5404 9.40739 33.7597C9.40739 34.4925 9.60307 35.1781 9.94469 35.7686L10.3788 36.519H7.77776C7.43003 36.519 7.14813 36.8009 7.14813 37.1486C7.14813 37.4964 7.43003 37.7782 7.77776 37.7782H28.1111C30.3305 37.7782 32.1296 35.9791 32.1296 33.7597C32.1296 31.5404 30.3305 29.7412 28.1111 29.7412H13.4259ZM8.40739 33.7597C8.40739 30.9881 10.6543 28.7412 13.4259 28.7412H28.1111C30.8827 28.7412 33.1296 30.9881 33.1296 33.7597C33.1296 36.5314 30.8827 38.7782 28.1111 38.7782H7.77776C6.87774 38.7782 6.14813 38.0486 6.14813 37.1486C6.14813 36.2486 6.87774 35.519 7.77776 35.519H8.72455C8.51948 34.9712 8.40739 34.3782 8.40739 33.7597Z" fill="#4A0506"/>
<path d="M13.4259 33.7595C13.4259 33.1356 13.9317 32.6299 14.5555 32.6299H26.9815C27.6053 32.6299 28.1111 33.1356 28.1111 33.7595C28.1111 34.3834 27.6053 34.8891 26.9815 34.8891H14.5555C13.9317 34.8891 13.4259 34.3834 13.4259 33.7595Z" fill="white"/>
<path fill-rule="evenodd" clip-rule="evenodd" d="M29.2407 14.5557C31.7362 14.5557 33.7592 16.5787 33.7592 19.0742C33.7592 19.8972 33.5392 20.6688 33.1547 21.3334H34.8889C35.5127 21.3334 36.0185 21.8392 36.0185 22.4631C36.0185 23.0869 35.5127 23.5927 34.8889 23.5927H29.2407H22.4629H14.5555C12.06 23.5927 10.037 21.5697 10.037 19.0742C10.037 16.5787 12.06 14.5557 14.5555 14.5557H29.2407Z" fill="#2153CE"/>
<path fill-rule="evenodd" clip-rule="evenodd" d="M29.2407 15.0557C31.4601 15.0557 33.2592 16.8548 33.2592 19.0742C33.2592 19.807 33.0636 20.4925 32.7219 21.0831L32.2879 21.8334H34.8889C35.2366 21.8334 35.5185 22.1153 35.5185 22.4631C35.5185 22.8108 35.2366 23.0927 34.8889 23.0927H14.5555C12.3362 23.0927 10.537 21.2935 10.537 19.0742C10.537 16.8548 12.3362 15.0557 14.5555 15.0557H29.2407ZM34.2592 19.0742C34.2592 16.3025 32.0124 14.0557 29.2407 14.0557H14.5555C11.7839 14.0557 9.53701 16.3025 9.53701 19.0742C9.53701 21.8458 11.7839 24.0927 14.5555 24.0927H34.8889C35.7889 24.0927 36.5185 23.3631 36.5185 22.4631C36.5185 21.5631 35.7889 20.8334 34.8889 20.8334H33.9421C34.1471 20.2856 34.2592 19.6927 34.2592 19.0742Z" fill="#4A0506"/>
<path d="M29.2407 19.074C29.2407 18.4501 28.735 17.9443 28.1111 17.9443H15.6852C15.0613 17.9443 14.5555 18.4501 14.5555 19.074C14.5555 19.6978 15.0613 20.2036 15.6852 20.2036H28.1111C28.735 20.2036 29.2407 19.6978 29.2407 19.074Z" fill="white"/>
<path d="M13.4259 6.64818C13.4259 6.02431 13.9317 5.51855 14.5555 5.51855C15.1794 5.51855 15.6852 6.02431 15.6852 6.64818C15.6852 7.27206 15.1794 7.77781 14.5555 7.77781C13.9317 7.77781 13.4259 7.27206 13.4259 6.64818Z" fill="#1A1717"/>
<path fill-rule="evenodd" clip-rule="evenodd" d="M12.9259 6.64818C12.9259 5.74816 13.6555 5.01855 14.5555 5.01855C15.4556 5.01855 16.1852 5.74816 16.1852 6.64818C16.1852 7.5482 15.4556 8.27781 14.5555 8.27781C13.6555 8.27781 12.9259 7.5482 12.9259 6.64818ZM14.5555 6.01855C14.2078 6.01855 13.9259 6.30045 13.9259 6.64818C13.9259 6.99592 14.2078 7.27781 14.5555 7.27781C14.9033 7.27781 15.1852 6.99592 15.1852 6.64818C15.1852 6.30045 14.9033 6.01855 14.5555 6.01855Z" fill="#4A0506"/>
</svg>
