<svg width="42" height="56" viewBox="0 0 42 56" fill="none" xmlns="http://www.w3.org/2000/svg">
<path fill-rule="evenodd" clip-rule="evenodd" d="M27.881 0.5H9.76208V37.1172H6.10352e-05V41.1172H9.76208V55.8443H14.7621V41.1172H26.858V37.1172H14.7621V27.3968H27.881C35.3084 27.3968 41.3294 21.3757 41.3294 13.9484C41.3294 6.52106 35.3084 0.5 27.881 0.5ZM27.881 22.3968H14.7621V5.5H27.881C32.5469 5.5 36.3294 9.28248 36.3294 13.9484C36.3294 18.6143 32.5469 22.3968 27.881 22.3968Z" fill="#26348B"/>
</svg>
