<svg width="84" height="82" viewBox="0 0 84 82" fill="none" xmlns="http://www.w3.org/2000/svg">
<mask id="path-1-inside-1" fill="white">
<path d="M40.5588 8.68782C40.0913 7.11457 39.264 5.65887 38.1371 4.4264C37.0102 3.19393 35.6118 2.21562 34.0436 1.56248C32.4754 0.909343 30.7766 0.597774 29.0707 0.65039C27.3647 0.703007 25.6943 1.11849 24.1808 1.86668C22.6673 2.61486 21.3487 3.67698 20.3206 4.97591C19.2925 6.27485 18.5808 7.77801 18.2371 9.37628C17.8934 10.9745 17.9264 12.6278 18.3336 14.2161C18.7409 15.8043 19.5122 17.2876 20.5916 18.5584L29.5 11.6464L40.5588 8.68782Z"/>
</mask>
<path d="M40.5588 8.68782C40.0913 7.11457 39.264 5.65887 38.1371 4.4264C37.0102 3.19393 35.6118 2.21562 34.0436 1.56248C32.4754 0.909343 30.7766 0.597774 29.0707 0.65039C27.3647 0.703007 25.6943 1.11849 24.1808 1.86668C22.6673 2.61486 21.3487 3.67698 20.3206 4.97591C19.2925 6.27485 18.5808 7.77801 18.2371 9.37628C17.8934 10.9745 17.9264 12.6278 18.3336 14.2161C18.7409 15.8043 19.5122 17.2876 20.5916 18.5584L29.5 11.6464L40.5588 8.68782Z" fill="#FFCB5B" stroke="#4A0506" stroke-width="4" mask="url(#path-1-inside-1)"/>
<circle cx="45.5" cy="43.1465" r="37.5" fill="#B9E5FB" stroke="#4A0506" stroke-width="2"/>
<path d="M24.0898 11.6465C23.5375 11.6465 23.0898 12.0942 23.0898 12.6465C23.0898 13.1988 23.5375 13.6465 24.0898 13.6465V11.6465ZM33.5749 13.6465C34.1271 13.6465 34.5749 13.1988 34.5749 12.6465C34.5749 12.0942 34.1271 11.6465 33.5749 11.6465V13.6465ZM16.3293 19.0434C15.7771 19.0434 15.3293 19.4911 15.3293 20.0434C15.3293 20.5957 15.7771 21.0434 16.3293 21.0434V19.0434ZM39.6108 21.0434C40.1631 21.0434 40.6108 20.5957 40.6108 20.0434C40.6108 19.4911 40.1631 19.0434 39.6108 19.0434V21.0434ZM54.2695 19.0434C53.7172 19.0434 53.2695 19.4911 53.2695 20.0434C53.2695 20.5957 53.7172 21.0434 54.2695 21.0434V19.0434ZM59.8742 21.0434C60.4265 21.0434 60.8742 20.5957 60.8742 20.0434C60.8742 19.4911 60.4265 19.0434 59.8742 19.0434V21.0434ZM46.9401 21.0434C47.4924 21.0434 47.9401 20.5957 47.9401 20.0434C47.9401 19.4911 47.4924 19.0434 46.9401 19.0434V21.0434ZM43.0599 19.0434C42.5076 19.0434 42.0599 19.4911 42.0599 20.0434C42.0599 20.5957 42.5076 21.0434 43.0599 21.0434V19.0434ZM63.3234 19.0434C62.7711 19.0434 62.3234 19.4911 62.3234 20.0434C62.3234 20.5957 62.7711 21.0434 63.3234 21.0434V19.0434ZM74.5 21.0434C75.0523 21.0434 75.5 20.5957 75.5 20.0434C75.5 19.4911 75.0523 19.0434 74.5 19.0434V21.0434ZM16.3293 34.9671C16.8816 34.9671 17.3293 34.5194 17.3293 33.9671C17.3293 33.4148 16.8816 32.9671 16.3293 32.9671V34.9671ZM10.2934 32.9671C9.74113 32.9671 9.29341 33.4148 9.29341 33.9671C9.29341 34.5194 9.74113 34.9671 10.2934 34.9671V32.9671ZM21.503 41.9289C22.0553 41.9289 22.503 41.4812 22.503 40.9289C22.503 40.3766 22.0553 39.9289 21.503 39.9289V41.9289ZM9 39.9289C8.44772 39.9289 8 40.3766 8 40.9289C8 41.4812 8.44772 41.9289 9 41.9289V39.9289ZM68.0659 45.1503C67.5136 45.1503 67.0659 45.598 67.0659 46.1503C67.0659 46.7026 67.5136 47.1503 68.0659 47.1503V45.1503ZM82.5 47.1503C83.0523 47.1503 83.5 46.7026 83.5 46.1503C83.5 45.598 83.0523 45.1503 82.5 45.1503V47.1503ZM73.6707 52.1121C73.1184 52.1121 72.6707 52.5598 72.6707 53.1121C72.6707 53.6644 73.1184 54.1121 73.6707 54.1121V52.1121ZM81 54.1121C81.5523 54.1121 82 53.6644 82 53.1121C82 52.5598 81.5523 52.1121 81 52.1121V54.1121ZM49.9581 68.6465C49.4058 68.6465 48.9581 69.0942 48.9581 69.6465C48.9581 70.1988 49.4058 70.6465 49.9581 70.6465V68.6465ZM54.2695 70.6465C54.8217 70.6465 55.2695 70.1988 55.2695 69.6465C55.2695 69.0942 54.8217 68.6465 54.2695 68.6465V70.6465ZM58.5808 68.6465C58.0286 68.6465 57.5808 69.0942 57.5808 69.6465C57.5808 70.1988 58.0286 70.6465 58.5808 70.6465V68.6465ZM72 70.6465C72.5523 70.6465 73 70.1988 73 69.6465C73 69.0942 72.5523 68.6465 72 68.6465V70.6465ZM21.503 62.3793C22.0553 62.3793 22.503 61.9316 22.503 61.3793C22.503 60.827 22.0553 60.3793 21.503 60.3793V62.3793ZM13.7425 60.3793C13.1902 60.3793 12.7425 60.827 12.7425 61.3793C12.7425 61.9316 13.1902 62.3793 13.7425 62.3793V60.3793ZM30.5569 54.1121C31.1092 54.1121 31.5569 53.6644 31.5569 53.1121C31.5569 52.5598 31.1092 52.1121 30.5569 52.1121V54.1121ZM26.6766 52.1121C26.1244 52.1121 25.6766 52.5598 25.6766 53.1121C25.6766 53.6644 26.1244 54.1121 26.6766 54.1121V52.1121ZM24.0898 54.1121C24.6421 54.1121 25.0898 53.6644 25.0898 53.1121C25.0898 52.5598 24.6421 52.1121 24.0898 52.1121V54.1121ZM9.5 52.1121C8.94772 52.1121 8.5 52.5598 8.5 53.1121C8.5 53.6644 8.94772 54.1121 9.5 54.1121V52.1121ZM24.0898 13.6465H33.5749V11.6465H24.0898V13.6465ZM16.3293 21.0434H39.6108V19.0434H16.3293V21.0434ZM54.2695 21.0434H59.8742V19.0434H54.2695V21.0434ZM46.9401 19.0434H43.0599V21.0434H46.9401V19.0434ZM63.3234 21.0434H74.5V19.0434H63.3234V21.0434ZM16.3293 32.9671H10.2934V34.9671H16.3293V32.9671ZM21.503 39.9289H9V41.9289H21.503V39.9289ZM68.0659 47.1503H82.5V45.1503H68.0659V47.1503ZM73.6707 54.1121H81V52.1121H73.6707V54.1121ZM49.9581 70.6465H54.2695V68.6465H49.9581V70.6465ZM58.5808 70.6465H72V68.6465H58.5808V70.6465ZM21.503 60.3793H13.7425V62.3793H21.503V60.3793ZM30.5569 52.1121H26.6766V54.1121H30.5569V52.1121ZM24.0898 52.1121H9.5V54.1121H24.0898V52.1121Z" fill="#4A0506"/>
<path d="M69.5001 14.6465C72.0264 12.1418 78.6513 6.27552 81.5046 8.04354C85.0712 10.2536 68.5756 32.3538 57.8757 42.9619C47.1759 53.57 15.0763 83.6264 10.6181 79.2064C9.57779 78.4697 10.08 74.2186 16.4999 67.1465" stroke="#4A0506" stroke-width="2"/>
<circle cx="5" cy="18.6465" r="4" fill="#DE333F" stroke="#4A0506" stroke-width="2"/>
<circle cx="49.5" cy="50.1465" r="10.5" fill="#368ACA" stroke="#4A0506" stroke-width="2"/>
<circle cx="51" cy="47.6465" r="5" fill="#B9E5FB"/>
</svg>
