<svg width="29" height="34" viewBox="0 0 29 34" fill="none" xmlns="http://www.w3.org/2000/svg">
<path d="M1.44513 12.177C-1.45191 17.0367 0.389794 24.4116 3.59345 28.8832C5.19258 31.1188 6.8116 33.1255 9.02913 33.1255C9.07092 33.1255 9.11283 33.1248 9.15575 33.1232C10.1976 33.083 10.9505 32.7729 11.6784 32.4732C12.4957 32.1366 13.3409 31.7885 14.6667 31.7885C15.928 31.7885 16.7329 32.1253 17.5113 32.4509C18.2784 32.7717 19.0686 33.1036 20.2362 33.0824C22.734 33.0375 24.2677 30.872 25.6207 28.9617C27.0327 26.9671 27.741 25.0305 27.9799 24.2905L27.9896 24.261C28.0351 24.1295 27.9708 23.9859 27.8404 23.928C27.8368 23.9264 27.8236 23.9211 27.8198 23.9196C27.38 23.7457 23.5215 22.091 23.481 17.5812C23.4433 13.9171 26.3755 11.9768 26.9636 11.6252L26.991 11.6087C27.0547 11.569 27.0991 11.5061 27.1142 11.4342C27.1292 11.3624 27.1135 11.2877 27.0708 11.2273C25.0468 8.36419 21.9448 7.93269 20.6958 7.88078C20.5146 7.86329 20.3275 7.85449 20.1397 7.85449C18.6728 7.85449 17.2676 8.39004 16.1386 8.82035C15.3594 9.11739 14.6862 9.37393 14.222 9.37393C13.7003 9.37393 13.0234 9.11424 12.2395 8.81362C11.1913 8.41144 10.0031 7.95572 8.74532 7.95572C8.71532 7.95572 8.68577 7.95604 8.65667 7.95658C5.7321 7.99818 2.96865 9.61558 1.44513 12.177Z" fill="#1988E8"/>
<path d="M20.6984 0.000208684C18.9274 0.0699354 16.8029 1.12377 15.5331 2.56153C14.4539 3.77001 13.3997 5.78492 13.6774 7.8159C13.6948 7.94298 13.8018 8.04105 13.934 8.05093C14.0536 8.05995 14.1756 8.06451 14.2972 8.06462C16.0289 8.06462 17.897 7.13851 19.1728 5.64732C20.5155 4.07271 21.1944 2.05193 20.9891 0.241863C20.9729 0.10002 20.8438 -0.00533036 20.6984 0.000208684Z" fill="#1988E8"/>
</svg>
