<svg width="25" height="25" viewBox="0 0 25 25" fill="none" xmlns="http://www.w3.org/2000/svg">
<path fill-rule="evenodd" clip-rule="evenodd" d="M1.31384 7.67711C1.65001 8.01328 2.11089 8.22473 2.61513 8.23262L8.5444 8.32546L8.63724 14.2547C8.65307 15.2658 9.48298 16.0957 10.494 16.1115L16.4233 16.2044L16.5162 22.1336C16.532 23.1447 17.3619 23.9746 18.3729 23.9904C19.384 24.0063 20.1883 23.2019 20.1725 22.1909L20.051 14.4334C20.0352 13.4224 19.2053 12.5925 18.1942 12.5766L12.265 12.4838L12.1721 6.55453C12.1563 5.54348 11.3264 4.71357 10.3153 4.69774L2.55788 4.57628C1.54683 4.56045 0.742503 5.36477 0.758333 6.37583C0.766228 6.88006 0.977673 7.34095 1.31384 7.67711Z" fill="#4E9CD5"/>
</svg>
