<svg width="60" height="56" viewBox="0 0 60 56" fill="none" xmlns="http://www.w3.org/2000/svg">
<path d="M2 8H58" stroke="black" stroke-width="4" stroke-linecap="round" stroke-linejoin="bevel"/>
<path d="M2 28H58" stroke="black" stroke-width="4" stroke-linecap="round" stroke-linejoin="bevel"/>
<path d="M2 48H58" stroke="black" stroke-width="4" stroke-linecap="round" stroke-linejoin="bevel"/>
<circle cx="17" cy="8" r="6" fill="white" stroke="#273659" stroke-width="4" stroke-linecap="round" stroke-linejoin="bevel"/>
<circle cx="40" cy="28" r="6" fill="white" stroke="#273659" stroke-width="4" stroke-linecap="round" stroke-linejoin="bevel"/>
<circle cx="17" cy="48" r="6" fill="white" stroke="#273659" stroke-width="4" stroke-linecap="round" stroke-linejoin="bevel"/>
</svg>
