<svg width="57" height="59" viewBox="0 0 57 59" fill="none" xmlns="http://www.w3.org/2000/svg">
<path d="M2 57H55V2" stroke="black" stroke-width="4" stroke-linecap="round" stroke-linejoin="round"/>
<path d="M2 47C15 46.6923 41 39.0615 41 11" stroke="black" stroke-width="4" stroke-linecap="round" stroke-linejoin="round"/>
<path d="M40.2654 1.79518C40.6614 1.36658 41.3386 1.36658 41.7346 1.79518L49.8417 10.5714C50.4334 11.2119 49.9791 12.25 49.1072 12.25H32.8928C32.0209 12.25 31.5666 11.2119 32.1583 10.5714L40.2654 1.79518Z" fill="#273659"/>
</svg>
