<svg width="77" height="77" viewBox="0 0 77 77" fill="none" xmlns="http://www.w3.org/2000/svg">
<path d="M68.073 41.9633C68.073 48.4973 66.1354 54.8845 62.5053 60.3174C58.8752 65.7502 53.7157 69.9845 47.679 72.485C41.6424 74.9855 34.9999 75.6397 28.5914 74.365C22.1829 73.0902 16.2964 69.9438 11.6762 65.3236C7.05593 60.7034 3.90951 54.8168 2.63479 48.4084C1.36007 41.9999 2.0143 35.3574 4.51475 29.3207C7.01521 23.2841 11.2496 18.1245 16.6824 14.4944C22.1152 10.8643 28.5025 8.92676 35.0365 8.92676L35.0365 41.9633H68.073Z" stroke="white" stroke-width="4" stroke-linecap="round" stroke-linejoin="round"/>
<path d="M43.562 2V33.7044H75V32C75 15.4315 61.5685 2 45 2H43.562Z" stroke="white" stroke-width="4" stroke-linecap="round" stroke-linejoin="round"/>
</svg>
