<svg width="134" height="300" viewBox="0 0 134 300" fill="none" xmlns="http://www.w3.org/2000/svg">
<rect x="25" y="25" width="277" height="250" rx="125" stroke="#B0B9CE" stroke-width="50"/>
</svg>
