<svg width="663" height="537" viewBox="0 0 663 537" fill="none" xmlns="http://www.w3.org/2000/svg">
<rect y="92" width="238" height="12" fill="#F5F5F5"/>
<rect y="118" width="173" height="12" fill="#F5F5F5"/>
<rect x="425" y="359.999" width="238" height="12" fill="#F5F5F5"/>
<rect x="425" y="385.999" width="238" height="12" fill="#F5F5F5"/>
<path opacity="0.5" d="M618 386.999H570.467V439.255H507V497.468H470V536.999" stroke="url(#paint0_radial)" stroke-width="30"/>
<path d="M331.5 41.5C331.5 64.138 312.925 82.5 290 82.5C267.075 82.5 248.5 64.138 248.5 41.5C248.5 18.862 267.075 0.5 290 0.5C312.925 0.5 331.5 18.862 331.5 41.5Z" stroke="#F5F5F5"/>
<rect x="280" y="59" width="19" height="19" fill="url(#paint1_linear)"/>
<rect x="267" y="23" width="45" height="36" rx="3" fill="url(#paint2_linear)"/>
<rect x="136.221" y="123.062" width="9.67472" height="12.3546" transform="rotate(-45 136.221 123.062)" fill="url(#paint3_linear)"/>
<rect x="119" y="114.805" width="22.3519" height="18.015" rx="3" transform="rotate(-45 119 114.805)" fill="url(#paint4_linear)"/>
<circle cx="289" cy="264" r="5" stroke="#FD0100"/>
<circle cx="289" cy="264" r="12.5" stroke="#F5F5F5"/>
<circle cx="289" cy="264" r="181" stroke="url(#paint5_linear)" stroke-width="28"/>
<path d="M289 259V122" stroke="#FD0100"/>
<circle cx="289.5" cy="109.5" r="2" stroke="#AEAEAE"/>
<circle cx="289.5" cy="420.499" r="2" stroke="#AEAEAE"/>
<circle cx="133.5" cy="264.5" r="2" stroke="#AEAEAE"/>
<circle cx="445.5" cy="264.5" r="2" stroke="#AEAEAE"/>
<path d="M289 407.999V386.999" stroke="#384971" stroke-width="2" stroke-linecap="round"/>
<path d="M145 264L165 264" stroke="#384971" stroke-width="2" stroke-linecap="round"/>
<path d="M410 264L431 264" stroke="#384971" stroke-width="2" stroke-linecap="round"/>
<path d="M164.023 336.239L181.73 326.015" stroke="#384971" stroke-width="2" stroke-linecap="round"/>
<path d="M393.924 203.506L411.631 193.282" stroke="#384971" stroke-width="2" stroke-linecap="round"/>
<path d="M216.349 388.564L226.572 370.857" stroke="#384971" stroke-width="2" stroke-linecap="round"/>
<path d="M349.082 158.664L359.305 140.957" stroke="#384971" stroke-width="2" stroke-linecap="round"/>
<path d="M359.305 388.564L349.082 370.857" stroke="#384971" stroke-width="2" stroke-linecap="round"/>
<path d="M226.572 158.664L216.349 140.957" stroke="#384971" stroke-width="2" stroke-linecap="round"/>
<path d="M411.631 336.239L393.924 326.015" stroke="#384971" stroke-width="2" stroke-linecap="round"/>
<path d="M181.73 203.506L164.023 193.282" stroke="#384971" stroke-width="2" stroke-linecap="round"/>
<rect x="288" y="269" width="2" height="39" fill="#FD0100"/>
<g filter="url(#filter0_d)">
<circle cx="147.5" cy="429.499" r="43.5" fill="url(#paint6_linear)"/>
</g>
<path d="M126 433.499L139 446.499L172.5 412.999" stroke="#FBFBFB" stroke-width="7" stroke-linecap="round" stroke-linejoin="round"/>
<defs>
<filter id="filter0_d" x="92" y="373.999" width="111" height="111" filterUnits="userSpaceOnUse" color-interpolation-filters="sRGB">
<feFlood flood-opacity="0" result="BackgroundImageFix"/>
<feColorMatrix in="SourceAlpha" type="matrix" values="0 0 0 0 0 0 0 0 0 0 0 0 0 0 0 0 0 0 127 0"/>
<feOffset/>
<feGaussianBlur stdDeviation="6"/>
<feColorMatrix type="matrix" values="0 0 0 0 0 0 0 0 0 0 0 0 0 0 0 0 0 0 0.05 0"/>
<feBlend mode="normal" in2="BackgroundImageFix" result="effect1_dropShadow"/>
<feBlend mode="normal" in="SourceGraphic" in2="effect1_dropShadow" result="shape"/>
</filter>
<radialGradient id="paint0_radial" cx="0" cy="0" r="1" gradientUnits="userSpaceOnUse" gradientTransform="translate(543.357 462.651) rotate(90) scale(174.783 172.452)">
<stop offset="0.0677083" stop-color="#7284AF"/>
<stop offset="0.510417" stop-color="#384971"/>
</radialGradient>
<linearGradient id="paint1_linear" x1="286.597" y1="50.45" x2="283.988" y2="94.9381" gradientUnits="userSpaceOnUse">
<stop offset="0.162083" stop-color="#384971"/>
<stop offset="0.515372" stop-color="#242B3C"/>
</linearGradient>
<linearGradient id="paint2_linear" x1="282.625" y1="6.8" x2="278.666" y2="91.1973" gradientUnits="userSpaceOnUse">
<stop offset="0.162083" stop-color="#384971"/>
<stop offset="0.515372" stop-color="#242B3C"/>
</linearGradient>
<linearGradient id="paint3_linear" x1="139.58" y1="117.502" x2="137.418" y2="146.368" gradientUnits="userSpaceOnUse">
<stop offset="0.162083" stop-color="#384971"/>
<stop offset="0.515372" stop-color="#242B3C"/>
</linearGradient>
<linearGradient id="paint4_linear" x1="126.761" y1="106.698" x2="124.765" y2="148.931" gradientUnits="userSpaceOnUse">
<stop offset="0.162083" stop-color="#384971"/>
<stop offset="0.515372" stop-color="#242B3C"/>
</linearGradient>
<linearGradient id="paint5_linear" x1="233.694" y1="-79.9" x2="449.27" y2="737.72" gradientUnits="userSpaceOnUse">
<stop offset="0.312194" stop-color="#384971"/>
<stop offset="0.58099" stop-color="#242B3C"/>
</linearGradient>
<linearGradient id="paint6_linear" x1="178" y1="405.499" x2="117" y2="453.499" gradientUnits="userSpaceOnUse">
<stop offset="0.406373" stop-color="#33A56E"/>
<stop offset="1" stop-color="#21D37E"/>
</linearGradient>
</defs>
</svg>
