<svg width="490" height="552" viewBox="0 0 490 552" fill="none" xmlns="http://www.w3.org/2000/svg">
<path d="M153 99C153 86.8497 162.85 77 175 77H307C319.15 77 329 86.8497 329 99H153Z" fill="url(#paint0_radial)"/>
<rect x="252" y="508" width="238" height="12" fill="#F5F5F5"/>
<rect x="273" y="477" width="173" height="12" fill="#F5F5F5"/>
<path d="M38.3734 228.75L92.5 135L146.627 228.75H38.3734Z" stroke="#E6DFDF" stroke-width="30"/>
<rect x="314" y="269" width="126" height="126" stroke="#E6DFDF" stroke-width="30"/>
<rect x="176" width="131" height="158" rx="14" fill="#E5DFDF"/>
<rect x="122" y="99" width="238" height="453" rx="17" fill="#223D56"/>
<rect x="135" y="117" width="212" height="416" rx="17" fill="white"/>
<rect x="163" y="477" width="156" height="35" rx="17.5" fill="#E5DFDF"/>
<rect x="163" y="477" width="89" height="35" rx="17.5" fill="#29C178"/>
<path d="M244.436 317.92H252.464V338.194H259.887V317.92H267.915V311.421H244.436V317.92Z" fill="#F05023"/>
<path d="M309.862 311.421H298.392V338.194H305.815V330.545H309.488C316.142 330.545 321 327.216 321 320.906C320.994 314.899 316.634 311.421 309.862 311.421ZM309.329 324.733H305.809V317.654H309.287C311.965 317.654 313.571 318.88 313.571 321.173C313.571 323.353 311.965 324.733 309.329 324.733Z" fill="#F05023"/>
<path d="M282.247 311C279.516 311 276.846 311.81 274.574 313.328C272.303 314.846 270.533 317.003 269.488 319.527C268.443 322.05 268.17 324.828 268.703 327.507C269.236 330.186 270.552 332.646 272.484 334.578C274.416 336.509 276.878 337.824 279.557 338.356C282.236 338.888 285.013 338.614 287.537 337.567C290.06 336.521 292.216 334.75 293.733 332.479C295.25 330.207 296.059 327.536 296.058 324.804C296.056 321.143 294.6 317.631 292.011 315.043C289.421 312.454 285.909 311 282.247 311ZM282.247 331.866C280.85 331.868 279.485 331.454 278.322 330.679C277.16 329.904 276.254 328.801 275.719 327.511C275.183 326.221 275.043 324.8 275.314 323.43C275.586 322.06 276.258 320.801 277.246 319.813C278.233 318.824 279.492 318.151 280.862 317.878C282.232 317.605 283.652 317.745 284.943 318.279C286.234 318.814 287.337 319.719 288.113 320.88C288.889 322.042 289.304 323.407 289.304 324.804C289.297 326.672 288.551 328.462 287.229 329.781C285.907 331.1 284.115 331.841 282.247 331.843V331.866Z" fill="#F05023"/>
<path d="M230.104 311C227.373 311 224.702 311.81 222.431 313.328C220.16 314.846 218.39 317.003 217.345 319.527C216.3 322.05 216.026 324.828 216.56 327.507C217.093 330.186 218.409 332.646 220.341 334.578C222.273 336.509 224.734 337.824 227.414 338.356C230.093 338.888 232.87 338.614 235.393 337.567C237.917 336.521 240.073 334.75 241.59 332.479C243.107 330.207 243.916 327.536 243.914 324.804C243.913 321.143 242.457 317.631 239.867 315.043C237.278 312.454 233.766 311 230.104 311ZM230.104 331.866C228.707 331.866 227.342 331.452 226.181 330.676C225.019 329.9 224.114 328.797 223.58 327.507C223.045 326.216 222.905 324.797 223.178 323.427C223.45 322.057 224.123 320.798 225.111 319.811C226.098 318.823 227.357 318.15 228.726 317.878C230.096 317.605 231.516 317.745 232.807 318.28C234.097 318.814 235.2 319.719 235.976 320.881C236.752 322.042 237.166 323.408 237.166 324.804C237.16 326.673 236.413 328.463 235.09 329.783C233.766 331.102 231.973 331.843 230.104 331.843V331.866Z" fill="#F05023"/>
<path d="M174.526 311C171.402 311 168.37 312.06 165.925 314.005C163.48 315.951 161.767 318.667 161.065 321.712H168.175C168.755 320.523 169.658 319.522 170.78 318.822C171.901 318.121 173.197 317.75 174.52 317.75C175.843 317.75 177.138 318.121 178.26 318.822C179.382 319.522 180.285 320.523 180.865 321.712H172.571V327.589H181.013C180.47 328.859 179.565 329.942 178.412 330.703C177.259 331.464 175.908 331.87 174.526 331.87C173.144 331.87 171.793 331.464 170.64 330.703C169.486 329.942 168.582 328.859 168.038 327.589H161C161.526 330.148 162.766 332.505 164.578 334.388C166.39 336.27 168.698 337.599 171.235 338.222C173.773 338.845 176.434 338.736 178.912 337.906C181.389 337.077 183.58 335.562 185.231 333.537C186.882 331.513 187.925 329.061 188.238 326.467C188.552 323.874 188.123 321.245 187.002 318.885C185.881 316.525 184.114 314.532 181.906 313.136C179.697 311.74 177.138 311 174.526 311Z" fill="#F05023"/>
<path d="M209.463 324.413C211.986 323.857 214.03 321.611 214.03 318.282C214.03 314.952 211.507 311.468 206.216 311.468H191.067V338.2H206.696C211.945 338.2 214.552 334.835 214.552 330.948C214.552 327.583 212.306 324.858 209.463 324.413ZM197.957 317.304H204.652C204.954 317.288 205.255 317.334 205.539 317.439C205.822 317.544 206.082 317.705 206.301 317.913C206.52 318.122 206.694 318.372 206.814 318.65C206.933 318.927 206.994 319.226 206.994 319.529C206.994 319.831 206.933 320.13 206.814 320.408C206.694 320.685 206.52 320.936 206.301 321.144C206.082 321.352 205.822 321.513 205.539 321.618C205.255 321.723 204.954 321.769 204.652 321.753H197.957V317.304ZM204.895 332.412H197.957V327.583H204.895C206.577 327.583 207.537 328.661 207.537 329.989C207.537 331.428 206.559 332.388 204.895 332.388V332.412Z" fill="#F05023"/>
<path d="M204 22H279.5" stroke="#223D56" stroke-width="2"/>
<path d="M204 34H279.5" stroke="#223D56" stroke-width="2"/>
<path d="M204 46H279.5" stroke="#223D56" stroke-width="2"/>
<path d="M240.5 58H279.5" stroke="#223D56" stroke-width="2"/>
<path d="M240.5 70H279.5" stroke="#223D56" stroke-width="2"/>
<path d="M204 82H279.5" stroke="#223D56" stroke-width="2"/>
<rect x="204.5" y="53" width="22" height="22" rx="11" fill="#405179"/>
<defs>
<radialGradient id="paint0_radial" cx="0" cy="0" r="1" gradientUnits="userSpaceOnUse" gradientTransform="translate(241.765 88.0957) rotate(90) scale(25.6348 205.078)">
<stop offset="0.0677083" stop-color="#7284AF"/>
<stop offset="0.510417" stop-color="#384971"/>
</radialGradient>
</defs>
</svg>
